starting vacuum...end.
transaction type: <builtin: TPC-B (sort of)>
scaling factor: 2000
query mode: prepared
number of clients: 216
number of threads: 54
duration: 300 s
number of transactions actually processed: 3039967
latency average = 21.357 ms
tps = 10113.670675 (including connections establishing)
tps = 10115.910555 (excluding connections establishing)
