starting vacuum...end.
transaction type: <builtin: TPC-B (sort of)>
scaling factor: 2000
query mode: prepared
number of clients: 108
number of threads: 27
duration: 300 s
number of transactions actually processed: 3124502
latency average = 10.410 ms
tps = 10375.124515 (including connections establishing)
tps = 10376.376284 (excluding connections establishing)
