starting vacuum...end.
transaction type: <builtin: TPC-B (sort of)>
scaling factor: 2000
query mode: prepared
number of clients: 216
number of threads: 54
duration: 300 s
number of transactions actually processed: 3064391
latency average = 21.223 ms
tps = 10177.659533 (including connections establishing)
tps = 10179.854066 (excluding connections establishing)
