starting vacuum...end.
transaction type: <builtin: TPC-B (sort of)>
scaling factor: 2000
query mode: prepared
number of clients: 252
number of threads: 63
duration: 300 s
number of transactions actually processed: 3017613
latency average = 25.188 ms
tps = 10004.625263 (including connections establishing)
tps = 10006.316083 (excluding connections establishing)
