starting vacuum...end.
transaction type: /srv/data/pg/tools2/dilip-300.sql
scaling factor: 1
query mode: prepared
number of clients: 216
number of threads: 54
duration: 300 s
number of transactions actually processed: 9705086
latency average = 6.693 ms
tps = 32272.216303 (including connections establishing)
tps = 32274.764590 (excluding connections establishing)
