NOTICE:  table "pgbench_history" does not exist, skipping
NOTICE:  table "pgbench_tellers" does not exist, skipping
NOTICE:  table "pgbench_accounts" does not exist, skipping
NOTICE:  table "pgbench_branches" does not exist, skipping
creating tables...
100000 of 30000000 tuples (0%) done (elapsed 0.10 s, remaining 28.72 s)
200000 of 30000000 tuples (0%) done (elapsed 0.20 s, remaining 29.51 s)
300000 of 30000000 tuples (1%) done (elapsed 0.30 s, remaining 29.65 s)
400000 of 30000000 tuples (1%) done (elapsed 0.40 s, remaining 29.64 s)
500000 of 30000000 tuples (1%) done (elapsed 0.50 s, remaining 29.59 s)
600000 of 30000000 tuples (2%) done (elapsed 0.60 s, remaining 29.57 s)
700000 of 30000000 tuples (2%) done (elapsed 0.71 s, remaining 29.52 s)
800000 of 30000000 tuples (2%) done (elapsed 0.80 s, remaining 29.32 s)
900000 of 30000000 tuples (3%) done (elapsed 0.90 s, remaining 29.25 s)
1000000 of 30000000 tuples (3%) done (elapsed 1.01 s, remaining 29.27 s)
1100000 of 30000000 tuples (3%) done (elapsed 1.11 s, remaining 29.19 s)
1200000 of 30000000 tuples (4%) done (elapsed 1.22 s, remaining 29.22 s)
1300000 of 30000000 tuples (4%) done (elapsed 1.32 s, remaining 29.14 s)
1400000 of 30000000 tuples (4%) done (elapsed 1.43 s, remaining 29.14 s)
1500000 of 30000000 tuples (5%) done (elapsed 1.53 s, remaining 29.05 s)
1600000 of 30000000 tuples (5%) done (elapsed 1.63 s, remaining 28.97 s)
1700000 of 30000000 tuples (5%) done (elapsed 1.74 s, remaining 28.93 s)
1800000 of 30000000 tuples (6%) done (elapsed 1.84 s, remaining 28.85 s)
1900000 of 30000000 tuples (6%) done (elapsed 1.95 s, remaining 28.83 s)
2000000 of 30000000 tuples (6%) done (elapsed 2.05 s, remaining 28.75 s)
2100000 of 30000000 tuples (7%) done (elapsed 2.16 s, remaining 28.64 s)
2200000 of 30000000 tuples (7%) done (elapsed 2.26 s, remaining 28.55 s)
2300000 of 30000000 tuples (7%) done (elapsed 2.36 s, remaining 28.44 s)
2400000 of 30000000 tuples (8%) done (elapsed 2.47 s, remaining 28.39 s)
2500000 of 30000000 tuples (8%) done (elapsed 2.57 s, remaining 28.29 s)
2600000 of 30000000 tuples (8%) done (elapsed 2.68 s, remaining 28.23 s)
2700000 of 30000000 tuples (9%) done (elapsed 2.78 s, remaining 28.13 s)
2800000 of 30000000 tuples (9%) done (elapsed 2.89 s, remaining 28.04 s)
2900000 of 30000000 tuples (9%) done (elapsed 2.99 s, remaining 27.96 s)
3000000 of 30000000 tuples (10%) done (elapsed 3.09 s, remaining 27.85 s)
3100000 of 30000000 tuples (10%) done (elapsed 3.20 s, remaining 27.75 s)
3200000 of 30000000 tuples (10%) done (elapsed 3.30 s, remaining 27.64 s)
3300000 of 30000000 tuples (11%) done (elapsed 3.41 s, remaining 27.58 s)
3400000 of 30000000 tuples (11%) done (elapsed 3.51 s, remaining 27.48 s)
3500000 of 30000000 tuples (11%) done (elapsed 3.62 s, remaining 27.37 s)
3600000 of 30000000 tuples (12%) done (elapsed 3.72 s, remaining 27.29 s)
3700000 of 30000000 tuples (12%) done (elapsed 3.82 s, remaining 27.18 s)
3800000 of 30000000 tuples (12%) done (elapsed 3.93 s, remaining 27.07 s)
3900000 of 30000000 tuples (13%) done (elapsed 4.03 s, remaining 26.96 s)
4000000 of 30000000 tuples (13%) done (elapsed 4.14 s, remaining 26.91 s)
4100000 of 30000000 tuples (13%) done (elapsed 4.25 s, remaining 26.85 s)
4200000 of 30000000 tuples (14%) done (elapsed 4.36 s, remaining 26.76 s)
4300000 of 30000000 tuples (14%) done (elapsed 4.46 s, remaining 26.64 s)
4400000 of 30000000 tuples (14%) done (elapsed 4.56 s, remaining 26.55 s)
4500000 of 30000000 tuples (15%) done (elapsed 4.67 s, remaining 26.46 s)
4600000 of 30000000 tuples (15%) done (elapsed 4.77 s, remaining 26.36 s)
4700000 of 30000000 tuples (15%) done (elapsed 4.88 s, remaining 26.28 s)
4800000 of 30000000 tuples (16%) done (elapsed 4.99 s, remaining 26.18 s)
4900000 of 30000000 tuples (16%) done (elapsed 5.09 s, remaining 26.06 s)
5000000 of 30000000 tuples (16%) done (elapsed 5.19 s, remaining 25.96 s)
5100000 of 30000000 tuples (17%) done (elapsed 5.30 s, remaining 25.87 s)
5200000 of 30000000 tuples (17%) done (elapsed 5.40 s, remaining 25.77 s)
5300000 of 30000000 tuples (17%) done (elapsed 5.50 s, remaining 25.65 s)
5400000 of 30000000 tuples (18%) done (elapsed 5.61 s, remaining 25.56 s)
5500000 of 30000000 tuples (18%) done (elapsed 5.71 s, remaining 25.45 s)
5600000 of 30000000 tuples (18%) done (elapsed 5.82 s, remaining 25.35 s)
5700000 of 30000000 tuples (19%) done (elapsed 5.92 s, remaining 25.25 s)
5800000 of 30000000 tuples (19%) done (elapsed 6.03 s, remaining 25.16 s)
5900000 of 30000000 tuples (19%) done (elapsed 6.13 s, remaining 25.05 s)
6000000 of 30000000 tuples (20%) done (elapsed 6.24 s, remaining 24.94 s)
6100000 of 30000000 tuples (20%) done (elapsed 6.34 s, remaining 24.85 s)
6200000 of 30000000 tuples (20%) done (elapsed 6.44 s, remaining 24.74 s)
6300000 of 30000000 tuples (21%) done (elapsed 6.55 s, remaining 24.63 s)
6400000 of 30000000 tuples (21%) done (elapsed 6.65 s, remaining 24.54 s)
6500000 of 30000000 tuples (21%) done (elapsed 6.76 s, remaining 24.43 s)
6600000 of 30000000 tuples (22%) done (elapsed 6.86 s, remaining 24.34 s)
6700000 of 30000000 tuples (22%) done (elapsed 6.97 s, remaining 24.22 s)
6800000 of 30000000 tuples (22%) done (elapsed 7.07 s, remaining 24.12 s)
6900000 of 30000000 tuples (23%) done (elapsed 7.18 s, remaining 24.03 s)
7000000 of 30000000 tuples (23%) done (elapsed 7.28 s, remaining 23.92 s)
7100000 of 30000000 tuples (23%) done (elapsed 7.38 s, remaining 23.81 s)
7200000 of 30000000 tuples (24%) done (elapsed 7.49 s, remaining 23.71 s)
7300000 of 30000000 tuples (24%) done (elapsed 7.59 s, remaining 23.61 s)
7400000 of 30000000 tuples (24%) done (elapsed 7.70 s, remaining 23.51 s)
7500000 of 30000000 tuples (25%) done (elapsed 7.80 s, remaining 23.40 s)
7600000 of 30000000 tuples (25%) done (elapsed 7.91 s, remaining 23.30 s)
7700000 of 30000000 tuples (25%) done (elapsed 8.01 s, remaining 23.20 s)
7800000 of 30000000 tuples (26%) done (elapsed 8.11 s, remaining 23.08 s)
7900000 of 30000000 tuples (26%) done (elapsed 8.22 s, remaining 22.99 s)
8000000 of 30000000 tuples (26%) done (elapsed 8.32 s, remaining 22.89 s)
8100000 of 30000000 tuples (27%) done (elapsed 8.43 s, remaining 22.79 s)
8200000 of 30000000 tuples (27%) done (elapsed 8.53 s, remaining 22.68 s)
8300000 of 30000000 tuples (27%) done (elapsed 8.63 s, remaining 22.57 s)
8400000 of 30000000 tuples (28%) done (elapsed 8.74 s, remaining 22.47 s)
8500000 of 30000000 tuples (28%) done (elapsed 8.85 s, remaining 22.38 s)
8600000 of 30000000 tuples (28%) done (elapsed 8.95 s, remaining 22.27 s)
8700000 of 30000000 tuples (29%) done (elapsed 9.05 s, remaining 22.17 s)
8800000 of 30000000 tuples (29%) done (elapsed 9.16 s, remaining 22.06 s)
8900000 of 30000000 tuples (29%) done (elapsed 9.26 s, remaining 21.96 s)
9000000 of 30000000 tuples (30%) done (elapsed 9.37 s, remaining 21.86 s)
9100000 of 30000000 tuples (30%) done (elapsed 9.48 s, remaining 21.77 s)
9200000 of 30000000 tuples (30%) done (elapsed 9.58 s, remaining 21.67 s)
9300000 of 30000000 tuples (31%) done (elapsed 9.69 s, remaining 21.57 s)
9400000 of 30000000 tuples (31%) done (elapsed 9.80 s, remaining 21.48 s)
9500000 of 30000000 tuples (31%) done (elapsed 9.91 s, remaining 21.38 s)
9600000 of 30000000 tuples (32%) done (elapsed 10.01 s, remaining 21.27 s)
9700000 of 30000000 tuples (32%) done (elapsed 10.11 s, remaining 21.17 s)
9800000 of 30000000 tuples (32%) done (elapsed 10.22 s, remaining 21.08 s)
9900000 of 30000000 tuples (33%) done (elapsed 10.33 s, remaining 20.97 s)
10000000 of 30000000 tuples (33%) done (elapsed 10.44 s, remaining 20.87 s)
10100000 of 30000000 tuples (33%) done (elapsed 10.54 s, remaining 20.78 s)
10200000 of 30000000 tuples (34%) done (elapsed 10.65 s, remaining 20.67 s)
10300000 of 30000000 tuples (34%) done (elapsed 10.76 s, remaining 20.58 s)
10400000 of 30000000 tuples (34%) done (elapsed 10.87 s, remaining 20.48 s)
10500000 of 30000000 tuples (35%) done (elapsed 10.97 s, remaining 20.38 s)
10600000 of 30000000 tuples (35%) done (elapsed 11.08 s, remaining 20.28 s)
10700000 of 30000000 tuples (35%) done (elapsed 11.19 s, remaining 20.19 s)
10800000 of 30000000 tuples (36%) done (elapsed 11.30 s, remaining 20.08 s)
10900000 of 30000000 tuples (36%) done (elapsed 11.40 s, remaining 19.98 s)
11000000 of 30000000 tuples (36%) done (elapsed 11.51 s, remaining 19.88 s)
11100000 of 30000000 tuples (37%) done (elapsed 11.62 s, remaining 19.78 s)
11200000 of 30000000 tuples (37%) done (elapsed 11.73 s, remaining 19.68 s)
11300000 of 30000000 tuples (37%) done (elapsed 11.83 s, remaining 19.59 s)
11400000 of 30000000 tuples (38%) done (elapsed 11.94 s, remaining 19.48 s)
11500000 of 30000000 tuples (38%) done (elapsed 12.05 s, remaining 19.38 s)
11600000 of 30000000 tuples (38%) done (elapsed 12.15 s, remaining 19.28 s)
11700000 of 30000000 tuples (39%) done (elapsed 12.26 s, remaining 19.18 s)
11800000 of 30000000 tuples (39%) done (elapsed 12.37 s, remaining 19.08 s)
11900000 of 30000000 tuples (39%) done (elapsed 12.48 s, remaining 18.98 s)
12000000 of 30000000 tuples (40%) done (elapsed 12.59 s, remaining 18.88 s)
12100000 of 30000000 tuples (40%) done (elapsed 12.69 s, remaining 18.78 s)
12200000 of 30000000 tuples (40%) done (elapsed 12.80 s, remaining 18.67 s)
12300000 of 30000000 tuples (41%) done (elapsed 12.90 s, remaining 18.57 s)
12400000 of 30000000 tuples (41%) done (elapsed 13.01 s, remaining 18.46 s)
12500000 of 30000000 tuples (41%) done (elapsed 13.11 s, remaining 18.36 s)
12600000 of 30000000 tuples (42%) done (elapsed 13.22 s, remaining 18.26 s)
12700000 of 30000000 tuples (42%) done (elapsed 13.33 s, remaining 18.16 s)
12800000 of 30000000 tuples (42%) done (elapsed 13.43 s, remaining 18.05 s)
12900000 of 30000000 tuples (43%) done (elapsed 13.54 s, remaining 17.94 s)
13000000 of 30000000 tuples (43%) done (elapsed 13.64 s, remaining 17.84 s)
13100000 of 30000000 tuples (43%) done (elapsed 13.75 s, remaining 17.74 s)
13200000 of 30000000 tuples (44%) done (elapsed 13.86 s, remaining 17.64 s)
13300000 of 30000000 tuples (44%) done (elapsed 13.96 s, remaining 17.53 s)
13400000 of 30000000 tuples (44%) done (elapsed 14.07 s, remaining 17.42 s)
13500000 of 30000000 tuples (45%) done (elapsed 14.17 s, remaining 17.32 s)
13600000 of 30000000 tuples (45%) done (elapsed 14.28 s, remaining 17.22 s)
13700000 of 30000000 tuples (45%) done (elapsed 14.38 s, remaining 17.11 s)
13800000 of 30000000 tuples (46%) done (elapsed 14.49 s, remaining 17.01 s)
13900000 of 30000000 tuples (46%) done (elapsed 14.59 s, remaining 16.90 s)
14000000 of 30000000 tuples (46%) done (elapsed 14.70 s, remaining 16.80 s)
14100000 of 30000000 tuples (47%) done (elapsed 14.80 s, remaining 16.69 s)
14200000 of 30000000 tuples (47%) done (elapsed 14.91 s, remaining 16.59 s)
14300000 of 30000000 tuples (47%) done (elapsed 15.01 s, remaining 16.48 s)
14400000 of 30000000 tuples (48%) done (elapsed 15.12 s, remaining 16.38 s)
14500000 of 30000000 tuples (48%) done (elapsed 15.22 s, remaining 16.27 s)
14600000 of 30000000 tuples (48%) done (elapsed 15.33 s, remaining 16.17 s)
14700000 of 30000000 tuples (49%) done (elapsed 15.43 s, remaining 16.06 s)
14800000 of 30000000 tuples (49%) done (elapsed 15.54 s, remaining 15.96 s)
14900000 of 30000000 tuples (49%) done (elapsed 15.65 s, remaining 15.86 s)
15000000 of 30000000 tuples (50%) done (elapsed 15.75 s, remaining 15.75 s)
15100000 of 30000000 tuples (50%) done (elapsed 15.86 s, remaining 15.65 s)
15200000 of 30000000 tuples (50%) done (elapsed 15.97 s, remaining 15.55 s)
15300000 of 30000000 tuples (51%) done (elapsed 16.08 s, remaining 15.45 s)
15400000 of 30000000 tuples (51%) done (elapsed 16.18 s, remaining 15.34 s)
15500000 of 30000000 tuples (51%) done (elapsed 16.29 s, remaining 15.24 s)
15600000 of 30000000 tuples (52%) done (elapsed 16.41 s, remaining 15.15 s)
15700000 of 30000000 tuples (52%) done (elapsed 16.52 s, remaining 15.05 s)
15800000 of 30000000 tuples (52%) done (elapsed 16.63 s, remaining 14.94 s)
15900000 of 30000000 tuples (53%) done (elapsed 16.73 s, remaining 14.84 s)
16000000 of 30000000 tuples (53%) done (elapsed 16.84 s, remaining 14.73 s)
16100000 of 30000000 tuples (53%) done (elapsed 16.94 s, remaining 14.63 s)
16200000 of 30000000 tuples (54%) done (elapsed 17.05 s, remaining 14.53 s)
16300000 of 30000000 tuples (54%) done (elapsed 17.15 s, remaining 14.42 s)
16400000 of 30000000 tuples (54%) done (elapsed 17.26 s, remaining 14.31 s)
16500000 of 30000000 tuples (55%) done (elapsed 17.36 s, remaining 14.21 s)
16600000 of 30000000 tuples (55%) done (elapsed 17.47 s, remaining 14.11 s)
16700000 of 30000000 tuples (55%) done (elapsed 17.58 s, remaining 14.00 s)
16800000 of 30000000 tuples (56%) done (elapsed 17.68 s, remaining 13.90 s)
16900000 of 30000000 tuples (56%) done (elapsed 17.79 s, remaining 13.79 s)
17000000 of 30000000 tuples (56%) done (elapsed 17.90 s, remaining 13.69 s)
17100000 of 30000000 tuples (57%) done (elapsed 18.00 s, remaining 13.58 s)
17200000 of 30000000 tuples (57%) done (elapsed 18.11 s, remaining 13.48 s)
17300000 of 30000000 tuples (57%) done (elapsed 18.21 s, remaining 13.37 s)
17400000 of 30000000 tuples (58%) done (elapsed 18.32 s, remaining 13.26 s)
17500000 of 30000000 tuples (58%) done (elapsed 18.42 s, remaining 13.16 s)
17600000 of 30000000 tuples (58%) done (elapsed 18.53 s, remaining 13.05 s)
17700000 of 30000000 tuples (59%) done (elapsed 18.63 s, remaining 12.95 s)
17800000 of 30000000 tuples (59%) done (elapsed 18.74 s, remaining 12.84 s)
17900000 of 30000000 tuples (59%) done (elapsed 18.84 s, remaining 12.74 s)
18000000 of 30000000 tuples (60%) done (elapsed 18.95 s, remaining 12.63 s)
18100000 of 30000000 tuples (60%) done (elapsed 19.05 s, remaining 12.53 s)
18200000 of 30000000 tuples (60%) done (elapsed 19.16 s, remaining 12.42 s)
18300000 of 30000000 tuples (61%) done (elapsed 19.26 s, remaining 12.32 s)
18400000 of 30000000 tuples (61%) done (elapsed 19.37 s, remaining 12.21 s)
18500000 of 30000000 tuples (61%) done (elapsed 19.48 s, remaining 12.11 s)
18600000 of 30000000 tuples (62%) done (elapsed 19.58 s, remaining 12.00 s)
18700000 of 30000000 tuples (62%) done (elapsed 19.69 s, remaining 11.90 s)
18800000 of 30000000 tuples (62%) done (elapsed 19.79 s, remaining 11.79 s)
18900000 of 30000000 tuples (63%) done (elapsed 19.90 s, remaining 11.69 s)
19000000 of 30000000 tuples (63%) done (elapsed 20.01 s, remaining 11.58 s)
19100000 of 30000000 tuples (63%) done (elapsed 20.11 s, remaining 11.48 s)
19200000 of 30000000 tuples (64%) done (elapsed 20.22 s, remaining 11.37 s)
19300000 of 30000000 tuples (64%) done (elapsed 20.32 s, remaining 11.27 s)
19400000 of 30000000 tuples (64%) done (elapsed 20.43 s, remaining 11.16 s)
19500000 of 30000000 tuples (65%) done (elapsed 20.54 s, remaining 11.06 s)
19600000 of 30000000 tuples (65%) done (elapsed 20.64 s, remaining 10.95 s)
19700000 of 30000000 tuples (65%) done (elapsed 20.75 s, remaining 10.85 s)
19800000 of 30000000 tuples (66%) done (elapsed 20.85 s, remaining 10.74 s)
19900000 of 30000000 tuples (66%) done (elapsed 20.96 s, remaining 10.64 s)
20000000 of 30000000 tuples (66%) done (elapsed 21.07 s, remaining 10.53 s)
20100000 of 30000000 tuples (67%) done (elapsed 21.17 s, remaining 10.43 s)
20200000 of 30000000 tuples (67%) done (elapsed 21.28 s, remaining 10.32 s)
20300000 of 30000000 tuples (67%) done (elapsed 21.38 s, remaining 10.22 s)
20400000 of 30000000 tuples (68%) done (elapsed 21.49 s, remaining 10.11 s)
20500000 of 30000000 tuples (68%) done (elapsed 21.60 s, remaining 10.01 s)
20600000 of 30000000 tuples (68%) done (elapsed 21.70 s, remaining 9.90 s)
20700000 of 30000000 tuples (69%) done (elapsed 21.81 s, remaining 9.80 s)
20800000 of 30000000 tuples (69%) done (elapsed 21.91 s, remaining 9.69 s)
20900000 of 30000000 tuples (69%) done (elapsed 22.02 s, remaining 9.59 s)
21000000 of 30000000 tuples (70%) done (elapsed 22.13 s, remaining 9.48 s)
21100000 of 30000000 tuples (70%) done (elapsed 22.23 s, remaining 9.38 s)
21200000 of 30000000 tuples (70%) done (elapsed 22.34 s, remaining 9.27 s)
21300000 of 30000000 tuples (71%) done (elapsed 22.44 s, remaining 9.17 s)
21400000 of 30000000 tuples (71%) done (elapsed 22.55 s, remaining 9.06 s)
21500000 of 30000000 tuples (71%) done (elapsed 22.66 s, remaining 8.96 s)
21600000 of 30000000 tuples (72%) done (elapsed 22.77 s, remaining 8.85 s)
21700000 of 30000000 tuples (72%) done (elapsed 22.87 s, remaining 8.75 s)
21800000 of 30000000 tuples (72%) done (elapsed 22.98 s, remaining 8.64 s)
21900000 of 30000000 tuples (73%) done (elapsed 23.09 s, remaining 8.54 s)
22000000 of 30000000 tuples (73%) done (elapsed 23.19 s, remaining 8.43 s)
22100000 of 30000000 tuples (73%) done (elapsed 23.29 s, remaining 8.33 s)
22200000 of 30000000 tuples (74%) done (elapsed 23.40 s, remaining 8.22 s)
22300000 of 30000000 tuples (74%) done (elapsed 23.51 s, remaining 8.12 s)
22400000 of 30000000 tuples (74%) done (elapsed 23.61 s, remaining 8.01 s)
22500000 of 30000000 tuples (75%) done (elapsed 23.72 s, remaining 7.91 s)
22600000 of 30000000 tuples (75%) done (elapsed 23.83 s, remaining 7.80 s)
22700000 of 30000000 tuples (75%) done (elapsed 23.95 s, remaining 7.70 s)
22800000 of 30000000 tuples (76%) done (elapsed 24.07 s, remaining 7.60 s)
22900000 of 30000000 tuples (76%) done (elapsed 24.17 s, remaining 7.49 s)
23000000 of 30000000 tuples (76%) done (elapsed 24.29 s, remaining 7.39 s)
23100000 of 30000000 tuples (77%) done (elapsed 24.39 s, remaining 7.29 s)
23200000 of 30000000 tuples (77%) done (elapsed 24.50 s, remaining 7.18 s)
23300000 of 30000000 tuples (77%) done (elapsed 24.61 s, remaining 7.08 s)
23400000 of 30000000 tuples (78%) done (elapsed 24.72 s, remaining 6.97 s)
23500000 of 30000000 tuples (78%) done (elapsed 24.82 s, remaining 6.87 s)
23600000 of 30000000 tuples (78%) done (elapsed 24.93 s, remaining 6.76 s)
23700000 of 30000000 tuples (79%) done (elapsed 25.04 s, remaining 6.66 s)
23800000 of 30000000 tuples (79%) done (elapsed 25.14 s, remaining 6.55 s)
23900000 of 30000000 tuples (79%) done (elapsed 25.25 s, remaining 6.44 s)
24000000 of 30000000 tuples (80%) done (elapsed 25.35 s, remaining 6.34 s)
24100000 of 30000000 tuples (80%) done (elapsed 25.46 s, remaining 6.23 s)
24200000 of 30000000 tuples (80%) done (elapsed 25.57 s, remaining 6.13 s)
24300000 of 30000000 tuples (81%) done (elapsed 25.67 s, remaining 6.02 s)
24400000 of 30000000 tuples (81%) done (elapsed 25.78 s, remaining 5.92 s)
24500000 of 30000000 tuples (81%) done (elapsed 25.88 s, remaining 5.81 s)
24600000 of 30000000 tuples (82%) done (elapsed 25.99 s, remaining 5.71 s)
24700000 of 30000000 tuples (82%) done (elapsed 26.10 s, remaining 5.60 s)
24800000 of 30000000 tuples (82%) done (elapsed 26.20 s, remaining 5.49 s)
24900000 of 30000000 tuples (83%) done (elapsed 26.31 s, remaining 5.39 s)
25000000 of 30000000 tuples (83%) done (elapsed 26.41 s, remaining 5.28 s)
25100000 of 30000000 tuples (83%) done (elapsed 26.52 s, remaining 5.18 s)
25200000 of 30000000 tuples (84%) done (elapsed 26.63 s, remaining 5.07 s)
25300000 of 30000000 tuples (84%) done (elapsed 26.73 s, remaining 4.97 s)
25400000 of 30000000 tuples (84%) done (elapsed 26.84 s, remaining 4.86 s)
25500000 of 30000000 tuples (85%) done (elapsed 26.94 s, remaining 4.75 s)
25600000 of 30000000 tuples (85%) done (elapsed 27.05 s, remaining 4.65 s)
25700000 of 30000000 tuples (85%) done (elapsed 27.15 s, remaining 4.54 s)
25800000 of 30000000 tuples (86%) done (elapsed 27.26 s, remaining 4.44 s)
25900000 of 30000000 tuples (86%) done (elapsed 27.37 s, remaining 4.33 s)
26000000 of 30000000 tuples (86%) done (elapsed 27.47 s, remaining 4.23 s)
26100000 of 30000000 tuples (87%) done (elapsed 27.58 s, remaining 4.12 s)
26200000 of 30000000 tuples (87%) done (elapsed 27.69 s, remaining 4.02 s)
26300000 of 30000000 tuples (87%) done (elapsed 27.79 s, remaining 3.91 s)
26400000 of 30000000 tuples (88%) done (elapsed 27.90 s, remaining 3.80 s)
26500000 of 30000000 tuples (88%) done (elapsed 28.02 s, remaining 3.70 s)
26600000 of 30000000 tuples (88%) done (elapsed 28.13 s, remaining 3.60 s)
26700000 of 30000000 tuples (89%) done (elapsed 28.24 s, remaining 3.49 s)
26800000 of 30000000 tuples (89%) done (elapsed 28.35 s, remaining 3.38 s)
26900000 of 30000000 tuples (89%) done (elapsed 28.45 s, remaining 3.28 s)
27000000 of 30000000 tuples (90%) done (elapsed 28.56 s, remaining 3.17 s)
27100000 of 30000000 tuples (90%) done (elapsed 28.66 s, remaining 3.07 s)
27200000 of 30000000 tuples (90%) done (elapsed 28.78 s, remaining 2.96 s)
27300000 of 30000000 tuples (91%) done (elapsed 28.89 s, remaining 2.86 s)
27400000 of 30000000 tuples (91%) done (elapsed 29.00 s, remaining 2.75 s)
27500000 of 30000000 tuples (91%) done (elapsed 29.11 s, remaining 2.65 s)
27600000 of 30000000 tuples (92%) done (elapsed 29.22 s, remaining 2.54 s)
27700000 of 30000000 tuples (92%) done (elapsed 29.33 s, remaining 2.44 s)
27800000 of 30000000 tuples (92%) done (elapsed 29.44 s, remaining 2.33 s)
27900000 of 30000000 tuples (93%) done (elapsed 29.54 s, remaining 2.22 s)
28000000 of 30000000 tuples (93%) done (elapsed 29.65 s, remaining 2.12 s)
28100000 of 30000000 tuples (93%) done (elapsed 29.76 s, remaining 2.01 s)
28200000 of 30000000 tuples (94%) done (elapsed 29.87 s, remaining 1.91 s)
28300000 of 30000000 tuples (94%) done (elapsed 29.98 s, remaining 1.80 s)
28400000 of 30000000 tuples (94%) done (elapsed 30.09 s, remaining 1.70 s)
28500000 of 30000000 tuples (95%) done (elapsed 30.20 s, remaining 1.59 s)
28600000 of 30000000 tuples (95%) done (elapsed 30.30 s, remaining 1.48 s)
28700000 of 30000000 tuples (95%) done (elapsed 30.41 s, remaining 1.38 s)
28800000 of 30000000 tuples (96%) done (elapsed 30.52 s, remaining 1.27 s)
28900000 of 30000000 tuples (96%) done (elapsed 30.63 s, remaining 1.17 s)
29000000 of 30000000 tuples (96%) done (elapsed 30.75 s, remaining 1.06 s)
29100000 of 30000000 tuples (97%) done (elapsed 30.86 s, remaining 0.95 s)
29200000 of 30000000 tuples (97%) done (elapsed 30.97 s, remaining 0.85 s)
29300000 of 30000000 tuples (97%) done (elapsed 31.07 s, remaining 0.74 s)
29400000 of 30000000 tuples (98%) done (elapsed 31.18 s, remaining 0.64 s)
29500000 of 30000000 tuples (98%) done (elapsed 31.28 s, remaining 0.53 s)
29600000 of 30000000 tuples (98%) done (elapsed 31.39 s, remaining 0.42 s)
29700000 of 30000000 tuples (99%) done (elapsed 31.50 s, remaining 0.32 s)
29800000 of 30000000 tuples (99%) done (elapsed 31.62 s, remaining 0.21 s)
29900000 of 30000000 tuples (99%) done (elapsed 31.72 s, remaining 0.11 s)
30000000 of 30000000 tuples (100%) done (elapsed 31.83 s, remaining 0.00 s)
vacuum...
set primary keys...
done.
