starting vacuum...end.
transaction type: /srv/data/pg/tools2/dilip-300.sql
scaling factor: 1
query mode: prepared
number of clients: 252
number of threads: 63
duration: 300 s
number of transactions actually processed: 8936298
latency average = 8.473 ms
tps = 29740.106363 (including connections establishing)
tps = 29742.485583 (excluding connections establishing)
