starting vacuum...end.
transaction type: <builtin: TPC-B (sort of)>
scaling factor: 300
query mode: prepared
number of clients: 36
number of threads: 9
duration: 300 s
number of transactions actually processed: 6470903
latency average = 1.671 ms
tps = 21549.937786 (including connections establishing)
tps = 21550.377258 (excluding connections establishing)
