starting vacuum...end.
transaction type: <builtin: simple update>
scaling factor: 300
query mode: prepared
number of clients: 72
number of threads: 8
duration: 300 s
number of transactions actually processed: 11860475
latency average = 1.824 ms
tps = 39467.625155 (including connections establishing)
tps = 39468.358035 (excluding connections establishing)
