starting vacuum...end.
transaction type: <builtin: TPC-B (sort of)>
scaling factor: 2000
query mode: prepared
number of clients: 108
number of threads: 27
duration: 300 s
number of transactions actually processed: 4131478
latency average = 7.856 ms
tps = 13747.753995 (including connections establishing)
tps = 13748.520562 (excluding connections establishing)
