starting vacuum...end.
transaction type: <builtin: TPC-B (sort of)>
scaling factor: 2000
query mode: prepared
number of clients: 72
number of threads: 18
duration: 300 s
number of transactions actually processed: 4393218
latency average = 4.920 ms
tps = 14635.604328 (including connections establishing)
tps = 14636.185809 (excluding connections establishing)
