starting vacuum...end.
transaction type: /srv/data/pg/tools2/dilip-300.sql
scaling factor: 1
query mode: prepared
number of clients: 216
number of threads: 54
duration: 300 s
number of transactions actually processed: 5627653
latency average = 11.526 ms
tps = 18740.087754 (including connections establishing)
tps = 18741.820526 (excluding connections establishing)
