starting vacuum...end.
transaction type: /srv/data/pg/tools2/dilip-300.sql
scaling factor: 1
query mode: prepared
number of clients: 36
number of threads: 9
duration: 300 s
number of transactions actually processed: 10043709
latency average = 1.076 ms
tps = 33459.599676 (including connections establishing)
tps = 33460.544443 (excluding connections establishing)
