starting vacuum...end.
transaction type: <builtin: TPC-B (sort of)>
scaling factor: 2000
query mode: prepared
number of clients: 216
number of threads: 54
duration: 300 s
number of transactions actually processed: 4003854
latency average = 16.204 ms
tps = 13329.803403 (including connections establishing)
tps = 13331.239171 (excluding connections establishing)
