1482397206 [Thu Dec 22 10:00:06 CET 2016] TEST pgbench-300-unlogged-sync-skip-tmpfs START
1482397206 [Thu Dec 22 10:00:06 CET 2016] running: pg-master
1482397221 [Thu Dec 22 10:00:21 CET 2016] initialize cluster
1482397225 [Thu Dec 22 10:00:25 CET 2016] initialize database
1482397287 [Thu Dec 22 10:01:27 CET 2016] warmup
1482397587 [Thu Dec 22 10:06:27 CET 2016] benchmark
1482397911 [Thu Dec 22 10:11:51 CET 2016] run 1 36 threads 9 from 1482397610 to 1482397910 tps 34550.602901
1482398231 [Thu Dec 22 10:17:11 CET 2016] run 1 72 threads 18 from 1482397930 to 1482398230 tps 38225.223570
1482398555 [Thu Dec 22 10:22:35 CET 2016] run 1 108 threads 27 from 1482398254 to 1482398554 tps 39612.163695
1482398881 [Thu Dec 22 10:28:02 CET 2016] run 1 144 threads 36 from 1482398580 to 1482398881 tps 42519.170984
1482399212 [Thu Dec 22 10:33:32 CET 2016] run 1 180 threads 45 from 1482398910 to 1482399211 tps 42696.423446
1482399542 [Thu Dec 22 10:39:03 CET 2016] run 1 216 threads 54 from 1482399241 to 1482399542 tps 43825.150333
1482399880 [Thu Dec 22 10:44:40 CET 2016] run 1 252 threads 63 from 1482399577 to 1482399879 tps 37511.508547
1482400205 [Thu Dec 22 10:50:05 CET 2016] run 1 288 threads 72 from 1482399903 to 1482400204 tps 43954.429825
1482400541 [Thu Dec 22 10:55:41 CET 2016] run 2 36 threads 9 from 1482400241 to 1482400541 tps 33678.779853
1482400858 [Thu Dec 22 11:00:58 CET 2016] run 2 72 threads 18 from 1482400557 to 1482400858 tps 41241.305799
1482401179 [Thu Dec 22 11:06:19 CET 2016] run 2 108 threads 27 from 1482400878 to 1482401178 tps 42102.467844
1482401513 [Thu Dec 22 11:11:53 CET 2016] run 2 144 threads 36 from 1482401202 to 1482401513 tps 39750.135660
1482401836 [Thu Dec 22 11:17:16 CET 2016] run 2 180 threads 45 from 1482401533 to 1482401834 tps 41762.407585
1482402167 [Thu Dec 22 11:22:47 CET 2016] run 2 216 threads 54 from 1482401865 to 1482402166 tps 42706.111071
1482402503 [Thu Dec 22 11:28:24 CET 2016] run 2 252 threads 63 from 1482402201 to 1482402503 tps 43588.200694
1482402845 [Thu Dec 22 11:34:06 CET 2016] run 2 288 threads 72 from 1482402538 to 1482402844 tps 43111.250408
1482403178 [Thu Dec 22 11:39:38 CET 2016] run 3 36 threads 9 from 1482402878 to 1482403178 tps 35590.924563
1482403496 [Thu Dec 22 11:44:56 CET 2016] run 3 72 threads 18 from 1482403195 to 1482403496 tps 40182.422750
1482403817 [Thu Dec 22 11:50:17 CET 2016] run 3 108 threads 27 from 1482403516 to 1482403817 tps 38832.797041
1482404141 [Thu Dec 22 11:55:42 CET 2016] run 3 144 threads 36 from 1482403840 to 1482404141 tps 42392.058596
1482404472 [Thu Dec 22 12:01:12 CET 2016] run 3 180 threads 45 from 1482404170 to 1482404471 tps 43764.699366
1482404804 [Thu Dec 22 12:06:45 CET 2016] run 3 216 threads 54 from 1482404502 to 1482404804 tps 44186.845643
1482405142 [Thu Dec 22 12:12:22 CET 2016] run 3 252 threads 63 from 1482404839 to 1482405141 tps 43237.498243
1482405478 [Thu Dec 22 12:17:59 CET 2016] run 3 288 threads 72 from 1482405176 to 1482405477 tps 37569.344283
1482405479 [Thu Dec 22 12:18:00 CET 2016] stop cluster
1482405492 [Thu Dec 22 12:18:12 CET 2016] running: pg-group-update
1482405507 [Thu Dec 22 12:18:27 CET 2016] initialize cluster
1482405510 [Thu Dec 22 12:18:30 CET 2016] initialize database
1482405571 [Thu Dec 22 12:19:31 CET 2016] warmup
1482405871 [Thu Dec 22 12:24:31 CET 2016] benchmark
1482406194 [Thu Dec 22 12:29:54 CET 2016] run 1 36 threads 9 from 1482405894 to 1482406194 tps 32609.966460
1482406514 [Thu Dec 22 12:35:14 CET 2016] run 1 72 threads 18 from 1482406213 to 1482406514 tps 38619.612870
1482406839 [Thu Dec 22 12:40:39 CET 2016] run 1 108 threads 27 from 1482406538 to 1482406838 tps 41899.163549
1482407165 [Thu Dec 22 12:46:05 CET 2016] run 1 144 threads 36 from 1482406863 to 1482407164 tps 38009.616622
1482407490 [Thu Dec 22 12:51:31 CET 2016] run 1 180 threads 45 from 1482407188 to 1482407489 tps 44005.774956
1482407822 [Thu Dec 22 12:57:02 CET 2016] run 1 216 threads 54 from 1482407519 to 1482407821 tps 43930.088762
1482408156 [Thu Dec 22 13:02:37 CET 2016] run 1 252 threads 63 from 1482407853 to 1482408155 tps 44108.730159
1482408492 [Thu Dec 22 13:08:12 CET 2016] run 1 288 threads 72 from 1482408188 to 1482408491 tps 36962.921062
1482408819 [Thu Dec 22 13:13:39 CET 2016] run 2 36 threads 9 from 1482408519 to 1482408819 tps 34797.425906
1482409136 [Thu Dec 22 13:18:56 CET 2016] run 2 72 threads 18 from 1482408836 to 1482409136 tps 38932.543092
1482409457 [Thu Dec 22 13:24:17 CET 2016] run 2 108 threads 27 from 1482409156 to 1482409457 tps 42749.689298
1482409783 [Thu Dec 22 13:29:44 CET 2016] run 2 144 threads 36 from 1482409481 to 1482409782 tps 41336.274444
1482410112 [Thu Dec 22 13:35:12 CET 2016] run 2 180 threads 45 from 1482409810 to 1482410111 tps 43963.201561
1482410444 [Thu Dec 22 13:40:45 CET 2016] run 2 216 threads 54 from 1482410141 to 1482410443 tps 38149.441242
1482410778 [Thu Dec 22 13:46:20 CET 2016] run 2 252 threads 63 from 1482410471 to 1482410772 tps 43759.155520
1482411109 [Thu Dec 22 13:51:49 CET 2016] run 2 288 threads 72 from 1482410806 to 1482411108 tps 44463.812741
1482411444 [Thu Dec 22 13:57:24 CET 2016] run 3 36 threads 9 from 1482411143 to 1482411444 tps 33071.384629
1482411761 [Thu Dec 22 14:02:41 CET 2016] run 3 72 threads 18 from 1482411460 to 1482411761 tps 41451.203599
1482412083 [Thu Dec 22 14:08:04 CET 2016] run 3 108 threads 27 from 1482411783 to 1482412083 tps 39200.092871
1482412408 [Thu Dec 22 14:13:29 CET 2016] run 3 144 threads 36 from 1482412106 to 1482412408 tps 41843.646017
1482412738 [Thu Dec 22 14:18:58 CET 2016] run 3 180 threads 45 from 1482412436 to 1482412737 tps 43464.521250
1482413070 [Thu Dec 22 14:24:30 CET 2016] run 3 216 threads 54 from 1482412768 to 1482413069 tps 44855.287990
1482413406 [Thu Dec 22 14:30:06 CET 2016] run 3 252 threads 63 from 1482413103 to 1482413404 tps 44007.171045
1482413758 [Thu Dec 22 14:35:58 CET 2016] run 3 288 threads 72 from 1482413439 to 1482413758 tps 38013.469571
1482413759 [Thu Dec 22 14:35:59 CET 2016] stop cluster
1482413765 [Thu Dec 22 14:36:05 CET 2016] running: pg-granular-locking
1482413780 [Thu Dec 22 14:36:20 CET 2016] initialize cluster
1482413783 [Thu Dec 22 14:36:23 CET 2016] initialize database
1482413844 [Thu Dec 22 14:37:24 CET 2016] warmup
1482414144 [Thu Dec 22 14:42:25 CET 2016] benchmark
1482414466 [Thu Dec 22 14:47:46 CET 2016] run 1 36 threads 9 from 1482414166 to 1482414466 tps 35530.508898
1482414789 [Thu Dec 22 14:53:09 CET 2016] run 1 72 threads 18 from 1482414486 to 1482414789 tps 38423.900593
1482415113 [Thu Dec 22 14:58:33 CET 2016] run 1 108 threads 27 from 1482414812 to 1482415112 tps 41665.688458
1482415438 [Thu Dec 22 15:03:58 CET 2016] run 1 144 threads 36 from 1482415136 to 1482415437 tps 43189.280050
1482415766 [Thu Dec 22 15:09:27 CET 2016] run 1 180 threads 45 from 1482415464 to 1482415765 tps 43842.351410
1482416096 [Thu Dec 22 15:14:57 CET 2016] run 1 216 threads 54 from 1482415794 to 1482416096 tps 43320.446681
1482416430 [Thu Dec 22 15:20:30 CET 2016] run 1 252 threads 63 from 1482416126 to 1482416429 tps 38303.165638
1482416759 [Thu Dec 22 15:25:59 CET 2016] run 1 288 threads 72 from 1482416456 to 1482416758 tps 43491.885048
1482417090 [Thu Dec 22 15:31:30 CET 2016] run 2 36 threads 9 from 1482416790 to 1482417090 tps 33021.347793
1482417407 [Thu Dec 22 15:36:47 CET 2016] run 2 72 threads 18 from 1482417106 to 1482417407 tps 40431.526039
1482417729 [Thu Dec 22 15:42:09 CET 2016] run 2 108 threads 27 from 1482417428 to 1482417729 tps 38919.168994
1482418052 [Thu Dec 22 15:47:33 CET 2016] run 2 144 threads 36 from 1482417750 to 1482418051 tps 42890.350052
1482418380 [Thu Dec 22 15:53:00 CET 2016] run 2 180 threads 45 from 1482418078 to 1482418379 tps 42689.978983
1482418710 [Thu Dec 22 15:58:30 CET 2016] run 2 216 threads 54 from 1482418408 to 1482418709 tps 43950.860108
1482419043 [Thu Dec 22 16:04:04 CET 2016] run 2 252 threads 63 from 1482418740 to 1482419042 tps 43286.037914
1482419377 [Thu Dec 22 16:09:37 CET 2016] run 2 288 threads 72 from 1482419074 to 1482419375 tps 37155.887362
1482419705 [Thu Dec 22 16:15:05 CET 2016] run 3 36 threads 9 from 1482419403 to 1482419705 tps 34969.669827
1482420025 [Thu Dec 22 16:20:25 CET 2016] run 3 72 threads 18 from 1482419721 to 1482420025 tps 39484.384317
1482420346 [Thu Dec 22 16:25:47 CET 2016] run 3 108 threads 27 from 1482420045 to 1482420346 tps 41817.853823
1482420673 [Thu Dec 22 16:31:13 CET 2016] run 3 144 threads 36 from 1482420370 to 1482420671 tps 42235.144228
1482420998 [Thu Dec 22 16:36:39 CET 2016] run 3 180 threads 45 from 1482420697 to 1482420998 tps 39011.932400
1482421323 [Thu Dec 22 16:42:04 CET 2016] run 3 216 threads 54 from 1482421021 to 1482421323 tps 42859.833864
1482421655 [Thu Dec 22 16:47:35 CET 2016] run 3 252 threads 63 from 1482421353 to 1482421654 tps 42365.601873
1482421990 [Thu Dec 22 16:53:10 CET 2016] run 3 288 threads 72 from 1482421687 to 1482421989 tps 43284.497532
1482421991 [Thu Dec 22 16:53:11 CET 2016] stop cluster
1482422008 [Thu Dec 22 16:53:28 CET 2016] running: pg-granular-locking-no-content-lock
1482422023 [Thu Dec 22 16:53:43 CET 2016] initialize cluster
1482422026 [Thu Dec 22 16:53:46 CET 2016] initialize database
1482422088 [Thu Dec 22 16:54:48 CET 2016] warmup
1482422388 [Thu Dec 22 16:59:48 CET 2016] benchmark
1482422712 [Thu Dec 22 17:05:12 CET 2016] run 1 36 threads 9 from 1482422412 to 1482422712 tps 36342.047398
1482423033 [Thu Dec 22 17:10:33 CET 2016] run 1 72 threads 18 from 1482422732 to 1482423033 tps 39724.309923
1482423356 [Thu Dec 22 17:15:56 CET 2016] run 1 108 threads 27 from 1482423055 to 1482423355 tps 41631.629838
1482423681 [Thu Dec 22 17:21:21 CET 2016] run 1 144 threads 36 from 1482423379 to 1482423680 tps 42655.924060
1482424008 [Thu Dec 22 17:26:49 CET 2016] run 1 180 threads 45 from 1482423707 to 1482424007 tps 43968.321221
1482424340 [Thu Dec 22 17:32:20 CET 2016] run 1 216 threads 54 from 1482424036 to 1482424339 tps 43419.467253
1482424672 [Thu Dec 22 17:37:52 CET 2016] run 1 252 threads 63 from 1482424368 to 1482424671 tps 37997.408810
1482424995 [Thu Dec 22 17:43:15 CET 2016] run 1 288 threads 72 from 1482424694 to 1482424994 tps 44163.829857
1482425328 [Thu Dec 22 17:48:48 CET 2016] run 2 36 threads 9 from 1482425028 to 1482425328 tps 34522.543941
1482425646 [Thu Dec 22 17:54:06 CET 2016] run 2 72 threads 18 from 1482425345 to 1482425645 tps 38927.549746
1482425967 [Thu Dec 22 17:59:27 CET 2016] run 2 108 threads 27 from 1482425666 to 1482425967 tps 39704.679195
1482426291 [Thu Dec 22 18:04:52 CET 2016] run 2 144 threads 36 from 1482425989 to 1482426290 tps 44043.597324
1482426619 [Thu Dec 22 18:10:19 CET 2016] run 2 180 threads 45 from 1482426318 to 1482426618 tps 44158.113711
1482426951 [Thu Dec 22 18:15:51 CET 2016] run 2 216 threads 54 from 1482426648 to 1482426949 tps 44297.941981
1482427283 [Thu Dec 22 18:21:23 CET 2016] run 2 252 threads 63 from 1482426980 to 1482427282 tps 44383.381363
1482427618 [Thu Dec 22 18:26:59 CET 2016] run 2 288 threads 72 from 1482427314 to 1482427617 tps 39150.900888
1482427946 [Thu Dec 22 18:32:26 CET 2016] run 3 36 threads 9 from 1482427645 to 1482427945 tps 35406.814410
1482428263 [Thu Dec 22 18:37:43 CET 2016] run 3 72 threads 18 from 1482427962 to 1482428263 tps 40841.921514
1482428586 [Thu Dec 22 18:43:06 CET 2016] run 3 108 threads 27 from 1482428285 to 1482428586 tps 42438.805622
1482428911 [Thu Dec 22 18:48:32 CET 2016] run 3 144 threads 36 from 1482428610 to 1482428911 tps 43757.310414
1482429240 [Thu Dec 22 18:54:00 CET 2016] run 3 180 threads 45 from 1482428938 to 1482429239 tps 40637.318297
1482429569 [Thu Dec 22 18:59:29 CET 2016] run 3 216 threads 54 from 1482429267 to 1482429568 tps 43391.030893
1482429901 [Thu Dec 22 19:05:01 CET 2016] run 3 252 threads 63 from 1482429599 to 1482429900 tps 45044.002083
1482430235 [Thu Dec 22 19:10:35 CET 2016] run 3 288 threads 72 from 1482429933 to 1482430234 tps 45008.382484
1482430235 [Thu Dec 22 19:10:36 CET 2016] stop cluster
./run-pgbench.sh: line 139: 21058 Terminated              sh collect-stats.sh $DIR
./run-pgbench.sh: line 139: 21059 Terminated              sh collect-wait-events.sh $DIR
1482430254 [Thu Dec 22 19:10:54 CET 2016] TEST pgbench-300-unlogged-sync-skip-tmpfs DONE
