starting vacuum...end.
transaction type: /srv/data/pg/tools2/dilip-300.sql
scaling factor: 1
query mode: prepared
number of clients: 252
number of threads: 63
duration: 300 s
number of transactions actually processed: 7894982
latency average = 9.585 ms
tps = 26290.470696 (including connections establishing)
tps = 26292.578785 (excluding connections establishing)
