starting vacuum...end.
transaction type: /srv/data/pg/tools2/dilip-2000.sql
scaling factor: 1
query mode: prepared
number of clients: 36
number of threads: 9
duration: 300 s
number of transactions actually processed: 7213913
latency average = 1.504 ms
tps = 23931.903432 (including connections establishing)
tps = 23932.426614 (excluding connections establishing)
