starting vacuum...end.
transaction type: <builtin: TPC-B (sort of)>
scaling factor: 300
query mode: prepared
number of clients: 252
number of threads: 63
duration: 300 s
number of transactions actually processed: 8374557
latency average = 9.048 ms
tps = 27851.288375 (including connections establishing)
tps = 27854.433932 (excluding connections establishing)
