starting vacuum...end.
transaction type: <builtin: simple update>
scaling factor: 2000
query mode: prepared
number of clients: 216
number of threads: 54
duration: 300 s
number of transactions actually processed: 4672416
latency average = 13.971 ms
tps = 15460.121233 (including connections establishing)
tps = 15461.719170 (excluding connections establishing)
