test,patch,clients,p50_tps,p50_tps_1,p50_tps_2,p50_tps_3
power-dilip-2000-logged-sync,pg-9.6-granular-locking,36,13559,12845,13856,13911
power-dilip-2000-logged-sync,pg-9.6-granular-locking,72,16121,16036,16181,16152
power-dilip-2000-logged-sync,pg-9.6-granular-locking,108,16788,16613,17005,16735
power-dilip-2000-logged-sync,pg-9.6-granular-locking,144,16669,16668,16607,16722
power-dilip-2000-logged-sync,pg-9.6-granular-locking,180,16592,16321,16600,16774
power-dilip-2000-logged-sync,pg-9.6-granular-locking,216,16430,16453,16390,16452
power-dilip-2000-logged-sync,pg-9.6-granular-locking,252,16229,16192,16129,16464
power-dilip-2000-logged-sync,pg-9.6-granular-locking,288,15947,16146,16031,15734
power-dilip-2000-logged-sync,pg-9.6-granular-locking-no-content-lock,36,13765,12717,14245,14158
power-dilip-2000-logged-sync,pg-9.6-granular-locking-no-content-lock,72,15981,16116,15771,16153
power-dilip-2000-logged-sync,pg-9.6-granular-locking-no-content-lock,108,16607,16600,16530,16700
power-dilip-2000-logged-sync,pg-9.6-granular-locking-no-content-lock,144,16858,16954,16829,16801
power-dilip-2000-logged-sync,pg-9.6-granular-locking-no-content-lock,180,16685,16478,16731,16913
power-dilip-2000-logged-sync,pg-9.6-granular-locking-no-content-lock,216,16389,16401,16373,16397
power-dilip-2000-logged-sync,pg-9.6-granular-locking-no-content-lock,252,16486,16460,16504,16506
power-dilip-2000-logged-sync,pg-9.6-granular-locking-no-content-lock,288,16216,16272,16159,16292
power-dilip-2000-logged-sync,pg-9.6-group-update,36,13707,12660,13997,14382
power-dilip-2000-logged-sync,pg-9.6-group-update,72,16435,16281,16513,16627
power-dilip-2000-logged-sync,pg-9.6-group-update,108,16771,16760,16881,16603
power-dilip-2000-logged-sync,pg-9.6-group-update,144,16715,16742,16765,16644
power-dilip-2000-logged-sync,pg-9.6-group-update,180,16594,16721,16615,16535
power-dilip-2000-logged-sync,pg-9.6-group-update,216,16388,16343,16296,16564
power-dilip-2000-logged-sync,pg-9.6-group-update,252,16443,16489,16510,16337
power-dilip-2000-logged-sync,pg-9.6-group-update,288,16161,16195,16249,16044
power-dilip-2000-logged-sync,pg-9.6-master,36,13672,12737,13869,14030
power-dilip-2000-logged-sync,pg-9.6-master,72,16575,16354,16391,17003
power-dilip-2000-logged-sync,pg-9.6-master,108,16653,16446,16766,16845
power-dilip-2000-logged-sync,pg-9.6-master,144,16724,16885,16728,16499
power-dilip-2000-logged-sync,pg-9.6-master,180,16741,16619,16950,16716
power-dilip-2000-logged-sync,pg-9.6-master,216,16456,16311,16756,16436
power-dilip-2000-logged-sync,pg-9.6-master,252,16426,16421,16431,16451
power-dilip-2000-logged-sync,pg-9.6-master,288,16034,15981,16172,15980
power-dilip-2000-unlogged-async,pg-9.6-granular-locking,36,23091,23170,23147,22834
power-dilip-2000-unlogged-async,pg-9.6-granular-locking,72,22604,22603,22675,22606
power-dilip-2000-unlogged-async,pg-9.6-granular-locking,108,21654,21816,21569,21525
power-dilip-2000-unlogged-async,pg-9.6-granular-locking,144,20881,21020,20714,20812
power-dilip-2000-unlogged-async,pg-9.6-granular-locking,180,20016,20171,19953,19976
power-dilip-2000-unlogged-async,pg-9.6-granular-locking,216,19337,19305,19238,19414
power-dilip-2000-unlogged-async,pg-9.6-granular-locking,252,18651,18568,18898,18583
power-dilip-2000-unlogged-async,pg-9.6-granular-locking,288,18295,18247,18335,18334
power-dilip-2000-unlogged-async,pg-9.6-granular-locking-no-content-lock,36,23433,23277,23528,23510
power-dilip-2000-unlogged-async,pg-9.6-granular-locking-no-content-lock,72,22992,23187,22995,22887
power-dilip-2000-unlogged-async,pg-9.6-granular-locking-no-content-lock,108,21823,21836,21934,21766
power-dilip-2000-unlogged-async,pg-9.6-granular-locking-no-content-lock,144,20877,20966,20784,20896
power-dilip-2000-unlogged-async,pg-9.6-granular-locking-no-content-lock,180,20124,20300,19971,20054
power-dilip-2000-unlogged-async,pg-9.6-granular-locking-no-content-lock,216,19539,19569,19470,19562
power-dilip-2000-unlogged-async,pg-9.6-granular-locking-no-content-lock,252,19002,19070,19057,18911
power-dilip-2000-unlogged-async,pg-9.6-granular-locking-no-content-lock,288,18294,18281,18408,18146
power-dilip-2000-unlogged-async,pg-9.6-group-update,36,23556,23546,23647,23394
power-dilip-2000-unlogged-async,pg-9.6-group-update,72,22881,22813,22931,22941
power-dilip-2000-unlogged-async,pg-9.6-group-update,108,21796,21825,22009,21676
power-dilip-2000-unlogged-async,pg-9.6-group-update,144,20931,21066,20938,20698
power-dilip-2000-unlogged-async,pg-9.6-group-update,180,20189,20326,20059,20189
power-dilip-2000-unlogged-async,pg-9.6-group-update,216,19549,19763,19565,19285
power-dilip-2000-unlogged-async,pg-9.6-group-update,252,18927,19087,18853,18758
power-dilip-2000-unlogged-async,pg-9.6-group-update,288,18314,18412,18249,18344
power-dilip-2000-unlogged-async,pg-9.6-master,36,23692,23451,23901,23467
power-dilip-2000-unlogged-async,pg-9.6-master,72,23072,23210,23094,22874
power-dilip-2000-unlogged-async,pg-9.6-master,108,21895,21965,21645,22019
power-dilip-2000-unlogged-async,pg-9.6-master,144,20895,21026,20669,20874
power-dilip-2000-unlogged-async,pg-9.6-master,180,20298,20360,20228,20270
power-dilip-2000-unlogged-async,pg-9.6-master,216,19385,19557,19306,19247
power-dilip-2000-unlogged-async,pg-9.6-master,252,18997,18929,19002,19057
power-dilip-2000-unlogged-async,pg-9.6-master,288,18370,18530,18289,18434
power-dilip-2000-unlogged-sync,pg-9.6-granular-locking,36,23652,23358,23574,23846
power-dilip-2000-unlogged-sync,pg-9.6-granular-locking,72,22756,23207,22540,22660
power-dilip-2000-unlogged-sync,pg-9.6-granular-locking,108,21658,21804,21719,21489
power-dilip-2000-unlogged-sync,pg-9.6-granular-locking,144,20793,20741,20810,20880
power-dilip-2000-unlogged-sync,pg-9.6-granular-locking,180,20088,20448,19980,19989
power-dilip-2000-unlogged-sync,pg-9.6-granular-locking,216,19364,19364,19378,19357
power-dilip-2000-unlogged-sync,pg-9.6-granular-locking,252,18971,19121,19016,18709
power-dilip-2000-unlogged-sync,pg-9.6-granular-locking,288,18582,18418,18943,18411
power-dilip-2000-unlogged-sync,pg-9.6-granular-locking-no-content-lock,36,23570,23924,23638,23342
power-dilip-2000-unlogged-sync,pg-9.6-granular-locking-no-content-lock,72,22956,22936,23172,22885
power-dilip-2000-unlogged-sync,pg-9.6-granular-locking-no-content-lock,108,21692,22026,21177,21625
power-dilip-2000-unlogged-sync,pg-9.6-granular-locking-no-content-lock,144,20943,20996,20850,20965
power-dilip-2000-unlogged-sync,pg-9.6-granular-locking-no-content-lock,180,20477,20528,20420,20471
power-dilip-2000-unlogged-sync,pg-9.6-granular-locking-no-content-lock,216,19931,19937,19782,19949
power-dilip-2000-unlogged-sync,pg-9.6-granular-locking-no-content-lock,252,19443,19424,19563,19338
power-dilip-2000-unlogged-sync,pg-9.6-granular-locking-no-content-lock,288,19003,18876,19296,18934
power-dilip-2000-unlogged-sync,pg-9.6-group-update,36,23753,23961,23975,23419
power-dilip-2000-unlogged-sync,pg-9.6-group-update,72,22932,23082,23020,22815
power-dilip-2000-unlogged-sync,pg-9.6-group-update,108,22057,22110,22258,21816
power-dilip-2000-unlogged-sync,pg-9.6-group-update,144,21320,21403,21413,21000
power-dilip-2000-unlogged-sync,pg-9.6-group-update,180,20639,20775,20592,20534
power-dilip-2000-unlogged-sync,pg-9.6-group-update,216,19887,19854,19819,19985
power-dilip-2000-unlogged-sync,pg-9.6-group-update,252,19469,19542,19625,19187
power-dilip-2000-unlogged-sync,pg-9.6-group-update,288,19089,18869,19057,19244
power-dilip-2000-unlogged-sync,pg-9.6-master,36,23654,23730,23645,23694
power-dilip-2000-unlogged-sync,pg-9.6-master,72,22901,22893,23126,22793
power-dilip-2000-unlogged-sync,pg-9.6-master,108,21753,21726,21566,21926
power-dilip-2000-unlogged-sync,pg-9.6-master,144,21087,20891,21035,21096
power-dilip-2000-unlogged-sync,pg-9.6-master,180,20312,20338,20244,20404
power-dilip-2000-unlogged-sync,pg-9.6-master,216,19812,19885,19785,19677
power-dilip-2000-unlogged-sync,pg-9.6-master,252,19294,19272,19424,19184
power-dilip-2000-unlogged-sync,pg-9.6-master,288,18811,18851,18958,18675
power-dilip-300-logged-async,pg-9.6-granular-locking,36,30872,31369,30472,30636
power-dilip-300-logged-async,pg-9.6-granular-locking,72,30628,30250,31455,30345
power-dilip-300-logged-async,pg-9.6-granular-locking,108,29618,29380,30420,29277
power-dilip-300-logged-async,pg-9.6-granular-locking,144,28630,28394,28868,28515
power-dilip-300-logged-async,pg-9.6-granular-locking,180,28968,28091,28475,30699
power-dilip-300-logged-async,pg-9.6-granular-locking,216,28135,27827,27099,29839
power-dilip-300-logged-async,pg-9.6-granular-locking,252,28477,26596,30890,28761
power-dilip-300-logged-async,pg-9.6-granular-locking,288,26871,25353,28547,27344
power-dilip-300-logged-async,pg-9.6-granular-locking-no-content-lock,36,30850,31150,30399,31207
power-dilip-300-logged-async,pg-9.6-granular-locking-no-content-lock,72,30859,30107,31618,30020
power-dilip-300-logged-async,pg-9.6-granular-locking-no-content-lock,108,29807,29756,30363,29428
power-dilip-300-logged-async,pg-9.6-granular-locking-no-content-lock,144,29614,29398,29923,29407
power-dilip-300-logged-async,pg-9.6-granular-locking-no-content-lock,180,29888,29014,29738,31670
power-dilip-300-logged-async,pg-9.6-granular-locking-no-content-lock,216,29783,29255,29180,31512
power-dilip-300-logged-async,pg-9.6-granular-locking-no-content-lock,252,29286,27559,31087,29144
power-dilip-300-logged-async,pg-9.6-granular-locking-no-content-lock,288,28540,27283,29625,29018
power-dilip-300-logged-async,pg-9.6-group-update,36,31784,32200,29972,32647
power-dilip-300-logged-async,pg-9.6-group-update,72,32258,31764,32737,32039
power-dilip-300-logged-async,pg-9.6-group-update,108,31466,32116,31463,30663
power-dilip-300-logged-async,pg-9.6-group-update,144,30593,30581,31299,30359
power-dilip-300-logged-async,pg-9.6-group-update,180,31278,30236,30687,33038
power-dilip-300-logged-async,pg-9.6-group-update,216,30281,29801,30421,31364
power-dilip-300-logged-async,pg-9.6-group-update,252,30083,29645,30633,30033
power-dilip-300-logged-async,pg-9.6-group-update,288,29450,29066,30142,29290
power-dilip-300-logged-async,pg-9.6-master,36,31940,31765,30738,32826
power-dilip-300-logged-async,pg-9.6-master,72,31746,31599,32043,31750
power-dilip-300-logged-async,pg-9.6-master,108,31022,31412,30923,30608
power-dilip-300-logged-async,pg-9.6-master,144,30474,29992,30865,30236
power-dilip-300-logged-async,pg-9.6-master,180,30352,29836,30140,31038
power-dilip-300-logged-async,pg-9.6-master,216,30641,29326,30777,31678
power-dilip-300-logged-async,pg-9.6-master,252,29743,29043,31404,29368
power-dilip-300-logged-async,pg-9.6-master,288,29519,27982,30910,29570
power-dilip-300-logged-sync,pg-9.6-granular-locking,36,14914,14730,15126,14933
power-dilip-300-logged-sync,pg-9.6-granular-locking,72,18674,18812,18710,18559
power-dilip-300-logged-sync,pg-9.6-granular-locking,108,19016,19096,18676,19230
power-dilip-300-logged-sync,pg-9.6-granular-locking,144,18792,18887,18732,18792
power-dilip-300-logged-sync,pg-9.6-granular-locking,180,18806,19070,18614,18611
power-dilip-300-logged-sync,pg-9.6-granular-locking,216,19244,18956,20111,18543
power-dilip-300-logged-sync,pg-9.6-granular-locking,252,18819,18681,19616,18378
power-dilip-300-logged-sync,pg-9.6-granular-locking,288,19390,18289,19596,20325
power-dilip-300-logged-sync,pg-9.6-granular-locking-no-content-lock,36,15139,14954,15755,14936
power-dilip-300-logged-sync,pg-9.6-granular-locking-no-content-lock,72,18517,18596,18448,18472
power-dilip-300-logged-sync,pg-9.6-granular-locking-no-content-lock,108,19002,19051,19049,18797
power-dilip-300-logged-sync,pg-9.6-granular-locking-no-content-lock,144,19367,19459,19358,19414
power-dilip-300-logged-sync,pg-9.6-granular-locking-no-content-lock,180,19350,19806,19119,19083
power-dilip-300-logged-sync,pg-9.6-granular-locking-no-content-lock,216,19793,19751,20363,19269
power-dilip-300-logged-sync,pg-9.6-granular-locking-no-content-lock,252,20071,19401,20009,20637
power-dilip-300-logged-sync,pg-9.6-granular-locking-no-content-lock,288,19592,18913,19702,19873
power-dilip-300-logged-sync,pg-9.6-group-update,36,15355,15065,15962,15254
power-dilip-300-logged-sync,pg-9.6-group-update,72,19212,19235,19286,19084
power-dilip-300-logged-sync,pg-9.6-group-update,108,20005,19877,20199,19954
power-dilip-300-logged-sync,pg-9.6-group-update,144,20076,20342,20008,19956
power-dilip-300-logged-sync,pg-9.6-group-update,180,20225,20281,20061,20321
power-dilip-300-logged-sync,pg-9.6-group-update,216,20304,20197,20635,20200
power-dilip-300-logged-sync,pg-9.6-group-update,252,20246,20130,20072,20368
power-dilip-300-logged-sync,pg-9.6-group-update,288,20234,19910,20169,20588
power-dilip-300-logged-sync,pg-9.6-master,36,15391,15008,15511,15847
power-dilip-300-logged-sync,pg-9.6-master,72,19012,18862,19228,18911
power-dilip-300-logged-sync,pg-9.6-master,108,19733,19965,19340,19838
power-dilip-300-logged-sync,pg-9.6-master,144,19937,20085,19725,19957
power-dilip-300-logged-sync,pg-9.6-master,180,19768,19742,19600,20026
power-dilip-300-logged-sync,pg-9.6-master,216,19635,19506,20049,19316
power-dilip-300-logged-sync,pg-9.6-master,252,19816,19641,20270,19528
power-dilip-300-logged-sync,pg-9.6-master,288,19852,19783,19749,20089
power-dilip-300-logged-sync-tmpfs,pg-9.6-granular-locking,36,32307,32944,32046,32108
power-dilip-300-logged-sync-tmpfs,pg-9.6-granular-locking,72,31486,31743,30878,31716
power-dilip-300-logged-sync-tmpfs,pg-9.6-granular-locking,108,30904,30818,31781,29309
power-dilip-300-logged-sync-tmpfs,pg-9.6-granular-locking,144,30590,30597,30477,31013
power-dilip-300-logged-sync-tmpfs,pg-9.6-granular-locking,180,30505,29717,29758,31815
power-dilip-300-logged-sync-tmpfs,pg-9.6-granular-locking,216,30227,29160,32397,30486
power-dilip-300-logged-sync-tmpfs,pg-9.6-granular-locking,252,29720,28734,30669,29636
power-dilip-300-logged-sync-tmpfs,pg-9.6-granular-locking,288,29544,31802,29560,28739
power-dilip-300-logged-sync-tmpfs,pg-9.6-granular-locking-no-content-lock,36,32272,32567,32764,31275
power-dilip-300-logged-sync-tmpfs,pg-9.6-granular-locking-no-content-lock,72,31744,31296,32356,31259
power-dilip-300-logged-sync-tmpfs,pg-9.6-granular-locking-no-content-lock,108,31277,31428,31323,31037
power-dilip-300-logged-sync-tmpfs,pg-9.6-granular-locking-no-content-lock,144,30736,30566,29776,32069
power-dilip-300-logged-sync-tmpfs,pg-9.6-granular-locking-no-content-lock,180,30479,30198,30281,31998
power-dilip-300-logged-sync-tmpfs,pg-9.6-granular-locking-no-content-lock,216,30924,29612,32949,30844
power-dilip-300-logged-sync-tmpfs,pg-9.6-granular-locking-no-content-lock,252,30136,29438,31456,30146
power-dilip-300-logged-sync-tmpfs,pg-9.6-granular-locking-no-content-lock,288,30421,32059,30286,29704
power-dilip-300-logged-sync-tmpfs,pg-9.6-group-update,36,33173,33819,32789,33104
power-dilip-300-logged-sync-tmpfs,pg-9.6-group-update,72,32658,33299,32444,31769
power-dilip-300-logged-sync-tmpfs,pg-9.6-group-update,108,31939,31453,32578,31336
power-dilip-300-logged-sync-tmpfs,pg-9.6-group-update,144,32611,32795,32242,32916
power-dilip-300-logged-sync-tmpfs,pg-9.6-group-update,180,32265,31968,32062,32661
power-dilip-300-logged-sync-tmpfs,pg-9.6-group-update,216,31992,31454,32937,31935
power-dilip-300-logged-sync-tmpfs,pg-9.6-group-update,252,31706,31096,32346,31743
power-dilip-300-logged-sync-tmpfs,pg-9.6-group-update,288,31476,32372,31263,31036
power-dilip-300-logged-sync-tmpfs,pg-9.6-master,36,33125,33413,32831,33023
power-dilip-300-logged-sync-tmpfs,pg-9.6-master,72,32476,31841,32677,32669
power-dilip-300-logged-sync-tmpfs,pg-9.6-master,108,31346,31625,31523,30911
power-dilip-300-logged-sync-tmpfs,pg-9.6-master,144,32175,32251,30542,32794
power-dilip-300-logged-sync-tmpfs,pg-9.6-master,180,31796,31440,31279,32622
power-dilip-300-logged-sync-tmpfs,pg-9.6-master,216,31405,30776,32291,31739
power-dilip-300-logged-sync-tmpfs,pg-9.6-master,252,31019,30476,31812,30986
power-dilip-300-logged-sync-tmpfs,pg-9.6-master,288,31082,32029,31098,30374
power-dilip-300-unlogged-async,pg-9.6-granular-locking,36,31584,31749,32085,30977
power-dilip-300-unlogged-async,pg-9.6-granular-locking,72,31804,31118,33730,30482
power-dilip-300-unlogged-async,pg-9.6-granular-locking,108,30253,29889,30947,30178
power-dilip-300-unlogged-async,pg-9.6-granular-locking,144,29969,29720,30372,29856
power-dilip-300-unlogged-async,pg-9.6-granular-locking,180,29536,28620,29312,31587
power-dilip-300-unlogged-async,pg-9.6-granular-locking,216,28708,28596,28223,29854
power-dilip-300-unlogged-async,pg-9.6-granular-locking,252,29099,27633,31461,29259
power-dilip-300-unlogged-async,pg-9.6-granular-locking,288,27881,27223,29497,27452
power-dilip-300-unlogged-async,pg-9.6-granular-locking-no-content-lock,36,31809,32344,31945,31275
power-dilip-300-unlogged-async,pg-9.6-granular-locking-no-content-lock,72,32478,32262,33337,31996
power-dilip-300-unlogged-async,pg-9.6-granular-locking-no-content-lock,108,31239,31074,31795,30983
power-dilip-300-unlogged-async,pg-9.6-granular-locking-no-content-lock,144,30694,30769,30921,30377
power-dilip-300-unlogged-async,pg-9.6-granular-locking-no-content-lock,180,31355,29850,30655,33152
power-dilip-300-unlogged-async,pg-9.6-granular-locking-no-content-lock,216,30459,29562,30034,32222
power-dilip-300-unlogged-async,pg-9.6-granular-locking-no-content-lock,252,30733,29508,33393,30721
power-dilip-300-unlogged-async,pg-9.6-granular-locking-no-content-lock,288,29806,28784,31502,29562
power-dilip-300-unlogged-async,pg-9.6-group-update,36,33473,33055,34134,32984
power-dilip-300-unlogged-async,pg-9.6-group-update,72,33175,33168,34060,31995
power-dilip-300-unlogged-async,pg-9.6-group-update,108,33000,32470,32992,33630
power-dilip-300-unlogged-async,pg-9.6-group-update,144,32496,31765,32560,33283
power-dilip-300-unlogged-async,pg-9.6-group-update,180,32073,31550,31781,33287
power-dilip-300-unlogged-async,pg-9.6-group-update,216,32236,31632,32705,32628
power-dilip-300-unlogged-async,pg-9.6-group-update,252,31658,31145,32261,31713
power-dilip-300-unlogged-async,pg-9.6-group-update,288,31679,32613,31247,31159
power-dilip-300-unlogged-async,pg-9.6-master,36,33400,32397,34035,33467
power-dilip-300-unlogged-async,pg-9.6-master,72,33383,34607,33605,32506
power-dilip-300-unlogged-async,pg-9.6-master,108,32044,32321,32143,31483
power-dilip-300-unlogged-async,pg-9.6-master,144,32145,31250,32266,33136
power-dilip-300-unlogged-async,pg-9.6-master,180,31534,31009,31382,32862
power-dilip-300-unlogged-async,pg-9.6-master,216,31718,30568,32934,32111
power-dilip-300-unlogged-async,pg-9.6-master,252,31021,29918,31926,31131
power-dilip-300-unlogged-async,pg-9.6-master,288,31094,31518,31364,30678
power-dilip-300-unlogged-async-tmpfs,pg-9.6-granular-locking,36,32496,32951,32769,31910
power-dilip-300-unlogged-async-tmpfs,pg-9.6-granular-locking,72,32494,33063,32223,31599
power-dilip-300-unlogged-async-tmpfs,pg-9.6-granular-locking,108,31418,31779,31176,31327
power-dilip-300-unlogged-async-tmpfs,pg-9.6-granular-locking,144,31390,30302,30473,33754
power-dilip-300-unlogged-async-tmpfs,pg-9.6-granular-locking,180,30565,29471,29888,32101
power-dilip-300-unlogged-async-tmpfs,pg-9.6-granular-locking,216,30546,29021,32794,30480
power-dilip-300-unlogged-async-tmpfs,pg-9.6-granular-locking,252,29293,28332,31066,29140
power-dilip-300-unlogged-async-tmpfs,pg-9.6-granular-locking,288,29806,32049,29519,28212
power-dilip-300-unlogged-async-tmpfs,pg-9.6-granular-locking-no-content-lock,36,32365,32584,32823,31804
power-dilip-300-unlogged-async-tmpfs,pg-9.6-granular-locking-no-content-lock,72,32997,33742,33865,32332
power-dilip-300-unlogged-async-tmpfs,pg-9.6-granular-locking-no-content-lock,108,32402,32500,32982,31152
power-dilip-300-unlogged-async-tmpfs,pg-9.6-granular-locking-no-content-lock,144,31682,30520,31419,34331
power-dilip-300-unlogged-async-tmpfs,pg-9.6-granular-locking-no-content-lock,180,31319,30914,30852,32993
power-dilip-300-unlogged-async-tmpfs,pg-9.6-granular-locking-no-content-lock,216,31621,30473,33640,31921
power-dilip-300-unlogged-async-tmpfs,pg-9.6-granular-locking-no-content-lock,252,31057,29946,32267,31050
power-dilip-300-unlogged-async-tmpfs,pg-9.6-granular-locking-no-content-lock,288,31209,32999,31338,30516
power-dilip-300-unlogged-async-tmpfs,pg-9.6-group-update,36,34092,34507,34068,33716
power-dilip-300-unlogged-async-tmpfs,pg-9.6-group-update,72,33700,33917,33224,33793
power-dilip-300-unlogged-async-tmpfs,pg-9.6-group-update,108,34276,34468,34449,33460
power-dilip-300-unlogged-async-tmpfs,pg-9.6-group-update,144,33744,33389,33490,34211
power-dilip-300-unlogged-async-tmpfs,pg-9.6-group-update,180,33091,32731,33890,33091
power-dilip-300-unlogged-async-tmpfs,pg-9.6-group-update,216,32844,32092,33405,32979
power-dilip-300-unlogged-async-tmpfs,pg-9.6-group-update,252,32226,31932,32726,32157
power-dilip-300-unlogged-async-tmpfs,pg-9.6-group-update,288,32369,33596,31971,31636
power-dilip-300-unlogged-async-tmpfs,pg-9.6-master,36,34114,34758,34234,32926
power-dilip-300-unlogged-async-tmpfs,pg-9.6-master,72,33687,33354,33636,33865
power-dilip-300-unlogged-async-tmpfs,pg-9.6-master,108,33389,33711,33398,32943
power-dilip-300-unlogged-async-tmpfs,pg-9.6-master,144,32792,32481,32562,33475
power-dilip-300-unlogged-async-tmpfs,pg-9.6-master,180,32585,32040,33909,32785
power-dilip-300-unlogged-async-tmpfs,pg-9.6-master,216,32352,31435,33018,32169
power-dilip-300-unlogged-async-tmpfs,pg-9.6-master,252,31775,31036,32278,31769
power-dilip-300-unlogged-async-tmpfs,pg-9.6-master,288,31561,32855,31467,30849
power-dilip-300-unlogged-sync,pg-9.6-granular-locking,36,31387,31342,31583,31316
power-dilip-300-unlogged-sync,pg-9.6-granular-locking,72,31647,31080,32965,29973
power-dilip-300-unlogged-sync,pg-9.6-granular-locking,108,30215,30096,30709,29881
power-dilip-300-unlogged-sync,pg-9.6-granular-locking,144,29527,29246,30660,28930
power-dilip-300-unlogged-sync,pg-9.6-granular-locking,180,29963,28060,29510,32855
power-dilip-300-unlogged-sync,pg-9.6-granular-locking,216,29125,28034,28671,30911
power-dilip-300-unlogged-sync,pg-9.6-granular-locking,252,29006,26868,31578,29484
power-dilip-300-unlogged-sync,pg-9.6-granular-locking,288,27885,26238,28994,28366
power-dilip-300-unlogged-sync,pg-9.6-granular-locking-no-content-lock,36,32318,32312,31358,32793
power-dilip-300-unlogged-sync,pg-9.6-granular-locking-no-content-lock,72,32170,31132,32990,31935
power-dilip-300-unlogged-sync,pg-9.6-granular-locking-no-content-lock,108,31168,30954,31160,31239
power-dilip-300-unlogged-sync,pg-9.6-granular-locking-no-content-lock,144,30337,30059,30801,30231
power-dilip-300-unlogged-sync,pg-9.6-granular-locking-no-content-lock,180,30647,30189,30303,32520
power-dilip-300-unlogged-sync,pg-9.6-granular-locking-no-content-lock,216,30437,29517,30483,31394
power-dilip-300-unlogged-sync,pg-9.6-granular-locking-no-content-lock,252,30370,29316,31816,30683
power-dilip-300-unlogged-sync,pg-9.6-granular-locking-no-content-lock,288,29726,29038,31044,29843
power-dilip-300-unlogged-sync,pg-9.6-group-update,36,33306,32869,33452,33574
power-dilip-300-unlogged-sync,pg-9.6-group-update,72,33521,34189,33079,32946
power-dilip-300-unlogged-sync,pg-9.6-group-update,108,32248,31899,32276,32698
power-dilip-300-unlogged-sync,pg-9.6-group-update,144,31757,31226,31901,32145
power-dilip-300-unlogged-sync,pg-9.6-group-update,180,31783,30627,31486,33232
power-dilip-300-unlogged-sync,pg-9.6-group-update,216,31744,30211,32414,32008
power-dilip-300-unlogged-sync,pg-9.6-group-update,252,31266,30662,31943,31420
power-dilip-300-unlogged-sync,pg-9.6-group-update,288,31167,32496,30971,30590
power-dilip-300-unlogged-sync,pg-9.6-master,36,33346,32798,33671,33433
power-dilip-300-unlogged-sync,pg-9.6-master,72,32581,32995,32443,32309
power-dilip-300-unlogged-sync,pg-9.6-master,108,32635,32535,33481,32037
power-dilip-300-unlogged-sync,pg-9.6-master,144,31407,31286,30778,32381
power-dilip-300-unlogged-sync,pg-9.6-master,180,31260,31145,30184,32307
power-dilip-300-unlogged-sync,pg-9.6-master,216,31040,29742,31556,31278
power-dilip-300-unlogged-sync,pg-9.6-master,252,31013,30283,32014,31106
power-dilip-300-unlogged-sync,pg-9.6-master,288,30597,31319,30606,29662
power-dilip-300-unlogged-sync-tmpfs,pg-9.6-granular-locking,36,32623,32827,32887,32128
power-dilip-300-unlogged-sync-tmpfs,pg-9.6-granular-locking,72,32295,32988,32021,32069
power-dilip-300-unlogged-sync-tmpfs,pg-9.6-granular-locking,108,31319,29902,31656,31766
power-dilip-300-unlogged-sync-tmpfs,pg-9.6-granular-locking,144,31158,30503,30603,33133
power-dilip-300-unlogged-sync-tmpfs,pg-9.6-granular-locking,180,29969,29643,29932,31300
power-dilip-300-unlogged-sync-tmpfs,pg-9.6-granular-locking,216,30588,29406,32675,30140
power-dilip-300-unlogged-sync-tmpfs,pg-9.6-granular-locking,252,29182,28516,30918,29546
power-dilip-300-unlogged-sync-tmpfs,pg-9.6-granular-locking,288,29367,32038,29469,28376
power-dilip-300-unlogged-sync-tmpfs,pg-9.6-granular-locking-no-content-lock,36,32888,33331,33474,31563
power-dilip-300-unlogged-sync-tmpfs,pg-9.6-granular-locking-no-content-lock,72,32535,32716,32923,31806
power-dilip-300-unlogged-sync-tmpfs,pg-9.6-granular-locking-no-content-lock,108,31394,31897,31439,30754
power-dilip-300-unlogged-sync-tmpfs,pg-9.6-granular-locking-no-content-lock,144,31376,30998,30759,33920
power-dilip-300-unlogged-sync-tmpfs,pg-9.6-granular-locking-no-content-lock,180,31513,31027,30721,33053
power-dilip-300-unlogged-sync-tmpfs,pg-9.6-granular-locking-no-content-lock,216,32053,30581,34082,31932
power-dilip-300-unlogged-sync-tmpfs,pg-9.6-granular-locking-no-content-lock,252,31104,30159,32386,31045
power-dilip-300-unlogged-sync-tmpfs,pg-9.6-granular-locking-no-content-lock,288,31309,33185,31126,30315
power-dilip-300-unlogged-sync-tmpfs,pg-9.6-group-update,36,34046,34453,34064,33786
power-dilip-300-unlogged-sync-tmpfs,pg-9.6-group-update,72,34539,35641,34565,34126
power-dilip-300-unlogged-sync-tmpfs,pg-9.6-group-update,108,33369,33330,33212,33781
power-dilip-300-unlogged-sync-tmpfs,pg-9.6-group-update,144,33183,33129,32677,33612
power-dilip-300-unlogged-sync-tmpfs,pg-9.6-group-update,180,33302,32977,34125,33235
power-dilip-300-unlogged-sync-tmpfs,pg-9.6-group-update,216,32881,32245,33310,32823
power-dilip-300-unlogged-sync-tmpfs,pg-9.6-group-update,252,32335,31901,32650,32209
power-dilip-300-unlogged-sync-tmpfs,pg-9.6-group-update,288,32289,33287,31948,31741
power-dilip-300-unlogged-sync-tmpfs,pg-9.6-master,36,34246,33903,35035,33563
power-dilip-300-unlogged-sync-tmpfs,pg-9.6-master,72,34155,34621,34406,33746
power-dilip-300-unlogged-sync-tmpfs,pg-9.6-master,108,33519,33895,33677,32393
power-dilip-300-unlogged-sync-tmpfs,pg-9.6-master,144,32667,32909,31637,32956
power-dilip-300-unlogged-sync-tmpfs,pg-9.6-master,180,32465,32049,33799,32554
power-dilip-300-unlogged-sync-tmpfs,pg-9.6-master,216,32449,31165,33018,31987
power-dilip-300-unlogged-sync-tmpfs,pg-9.6-master,252,31600,30963,32275,31740
power-dilip-300-unlogged-sync-tmpfs,pg-9.6-master,288,31745,33087,31660,30942
power-pgbench-2000-logged-sync-noskip,pg-9.6-granular-locking,36,8060,8432,7873,7791
power-pgbench-2000-logged-sync-noskip,pg-9.6-granular-locking,72,9288,9090,9614,9147
power-pgbench-2000-logged-sync-noskip,pg-9.6-granular-locking,108,9789,9592,10008,9692
power-pgbench-2000-logged-sync-noskip,pg-9.6-granular-locking,144,10068,10010,10215,10060
power-pgbench-2000-logged-sync-noskip,pg-9.6-granular-locking,180,10039,9937,10031,10099
power-pgbench-2000-logged-sync-noskip,pg-9.6-granular-locking,216,9841,9875,9831,9795
power-pgbench-2000-logged-sync-noskip,pg-9.6-granular-locking,252,9752,9761,9759,9749
power-pgbench-2000-logged-sync-noskip,pg-9.6-granular-locking,288,9587,9594,9605,9576
power-pgbench-2000-logged-sync-noskip,pg-9.6-granular-locking-no-content-lock,36,8114,8289,8115,7942
power-pgbench-2000-logged-sync-noskip,pg-9.6-granular-locking-no-content-lock,72,9389,9171,9613,9374
power-pgbench-2000-logged-sync-noskip,pg-9.6-granular-locking-no-content-lock,108,9795,9733,10029,9733
power-pgbench-2000-logged-sync-noskip,pg-9.6-granular-locking-no-content-lock,144,10031,9868,10006,10217
power-pgbench-2000-logged-sync-noskip,pg-9.6-granular-locking-no-content-lock,180,9884,9857,10034,9796
power-pgbench-2000-logged-sync-noskip,pg-9.6-granular-locking-no-content-lock,216,9921,9690,10130,9923
power-pgbench-2000-logged-sync-noskip,pg-9.6-granular-locking-no-content-lock,252,9819,9946,9957,9623
power-pgbench-2000-logged-sync-noskip,pg-9.6-granular-locking-no-content-lock,288,9655,9749,9647,9589
power-pgbench-2000-logged-sync-noskip,pg-9.6-group-update,36,8122,8402,8063,7824
power-pgbench-2000-logged-sync-noskip,pg-9.6-group-update,72,9161,9001,9244,9220
power-pgbench-2000-logged-sync-noskip,pg-9.6-group-update,108,9792,9743,9928,9685
power-pgbench-2000-logged-sync-noskip,pg-9.6-group-update,144,9989,9956,10170,9823
power-pgbench-2000-logged-sync-noskip,pg-9.6-group-update,180,10096,10096,10104,10122
power-pgbench-2000-logged-sync-noskip,pg-9.6-group-update,216,9984,10099,9967,10026
power-pgbench-2000-logged-sync-noskip,pg-9.6-group-update,252,9740,9852,9697,9740
power-pgbench-2000-logged-sync-noskip,pg-9.6-group-update,288,9645,9673,9554,9659
power-pgbench-2000-logged-sync-noskip,pg-9.6-master,36,8173,8455,8033,7928
power-pgbench-2000-logged-sync-noskip,pg-9.6-master,72,9219,9203,9329,9182
power-pgbench-2000-logged-sync-noskip,pg-9.6-master,108,9907,9851,10054,9638
power-pgbench-2000-logged-sync-noskip,pg-9.6-master,144,9969,10001,10022,9787
power-pgbench-2000-logged-sync-noskip,pg-9.6-master,180,9871,10139,9804,9694
power-pgbench-2000-logged-sync-noskip,pg-9.6-master,216,9708,9816,9811,9617
power-pgbench-2000-logged-sync-noskip,pg-9.6-master,252,9739,9897,9700,9676
power-pgbench-2000-logged-sync-noskip,pg-9.6-master,288,9453,9541,9549,9354
power-pgbench-2000-logged-sync-skip,pg-9.6-granular-locking,36,8868,9378,9043,8466
power-pgbench-2000-logged-sync-skip,pg-9.6-granular-locking,72,9912,9674,10314,9922
power-pgbench-2000-logged-sync-skip,pg-9.6-granular-locking,108,11105,11299,11066,11055
power-pgbench-2000-logged-sync-skip,pg-9.6-granular-locking,144,11192,11093,11379,11256
power-pgbench-2000-logged-sync-skip,pg-9.6-granular-locking,180,11550,11519,11559,11589
power-pgbench-2000-logged-sync-skip,pg-9.6-granular-locking,216,11437,11550,11393,11314
power-pgbench-2000-logged-sync-skip,pg-9.6-granular-locking,252,11390,11353,11522,11382
power-pgbench-2000-logged-sync-skip,pg-9.6-granular-locking,288,11242,11207,11037,11404
power-pgbench-2000-logged-sync-skip,pg-9.6-granular-locking-no-content-lock,36,8758,9301,8750,8470
power-pgbench-2000-logged-sync-skip,pg-9.6-granular-locking-no-content-lock,72,9957,9760,10172,9872
power-pgbench-2000-logged-sync-skip,pg-9.6-granular-locking-no-content-lock,108,10992,11284,10916,10798
power-pgbench-2000-logged-sync-skip,pg-9.6-granular-locking-no-content-lock,144,11421,11073,11522,11451
power-pgbench-2000-logged-sync-skip,pg-9.6-granular-locking-no-content-lock,180,11287,11143,11261,11454
power-pgbench-2000-logged-sync-skip,pg-9.6-granular-locking-no-content-lock,216,11383,11309,11303,11509
power-pgbench-2000-logged-sync-skip,pg-9.6-granular-locking-no-content-lock,252,11305,11279,11405,11353
power-pgbench-2000-logged-sync-skip,pg-9.6-granular-locking-no-content-lock,288,11149,11292,11064,11189
power-pgbench-2000-logged-sync-skip,pg-9.6-group-update,36,9071,9493,8730,8607
power-pgbench-2000-logged-sync-skip,pg-9.6-group-update,72,10021,9885,10291,9907
power-pgbench-2000-logged-sync-skip,pg-9.6-group-update,108,11106,11203,11140,10935
power-pgbench-2000-logged-sync-skip,pg-9.6-group-update,144,11392,11316,11510,11441
power-pgbench-2000-logged-sync-skip,pg-9.6-group-update,180,11441,11170,11686,11560
power-pgbench-2000-logged-sync-skip,pg-9.6-group-update,216,11488,11628,11446,11410
power-pgbench-2000-logged-sync-skip,pg-9.6-group-update,252,11494,11567,11537,11362
power-pgbench-2000-logged-sync-skip,pg-9.6-group-update,288,11196,11101,11262,11244
power-pgbench-2000-logged-sync-skip,pg-9.6-master,36,8864,9354,8557,8511
power-pgbench-2000-logged-sync-skip,pg-9.6-master,72,9846,9616,10031,9914
power-pgbench-2000-logged-sync-skip,pg-9.6-master,108,10875,10951,10838,10886
power-pgbench-2000-logged-sync-skip,pg-9.6-master,144,11275,11110,11296,11352
power-pgbench-2000-logged-sync-skip,pg-9.6-master,180,11430,11384,11485,11429
power-pgbench-2000-logged-sync-skip,pg-9.6-master,216,11361,11320,11326,11445
power-pgbench-2000-logged-sync-skip,pg-9.6-master,252,11342,11355,11376,11302
power-pgbench-2000-logged-sync-skip,pg-9.6-master,288,11329,11355,11366,11289
power-pgbench-2000-unlogged-async-noskip,pg-9.6-granular-locking,36,16210,16373,16274,16067
power-pgbench-2000-unlogged-async-noskip,pg-9.6-granular-locking,72,14873,14972,14924,14538
power-pgbench-2000-unlogged-async-noskip,pg-9.6-granular-locking,108,14070,14064,14298,13991
power-pgbench-2000-unlogged-async-noskip,pg-9.6-granular-locking,144,13593,13816,13439,13438
power-pgbench-2000-unlogged-async-noskip,pg-9.6-granular-locking,180,12962,13041,12978,12800
power-pgbench-2000-unlogged-async-noskip,pg-9.6-granular-locking,216,12418,12887,12450,12206
power-pgbench-2000-unlogged-async-noskip,pg-9.6-granular-locking,252,11851,12131,11754,11605
power-pgbench-2000-unlogged-async-noskip,pg-9.6-granular-locking,288,11200,11322,11189,10832
power-pgbench-2000-unlogged-async-noskip,pg-9.6-granular-locking-no-content-lock,36,15978,15677,15972,16072
power-pgbench-2000-unlogged-async-noskip,pg-9.6-granular-locking-no-content-lock,72,14544,14714,14530,14382
power-pgbench-2000-unlogged-async-noskip,pg-9.6-granular-locking-no-content-lock,108,14039,14186,14039,13951
power-pgbench-2000-unlogged-async-noskip,pg-9.6-granular-locking-no-content-lock,144,13202,13446,13280,13161
power-pgbench-2000-unlogged-async-noskip,pg-9.6-granular-locking-no-content-lock,180,12777,13016,12805,12494
power-pgbench-2000-unlogged-async-noskip,pg-9.6-granular-locking-no-content-lock,216,12085,12525,11949,11971
power-pgbench-2000-unlogged-async-noskip,pg-9.6-granular-locking-no-content-lock,252,11424,11770,11379,11271
power-pgbench-2000-unlogged-async-noskip,pg-9.6-granular-locking-no-content-lock,288,10844,11173,10785,10367
power-pgbench-2000-unlogged-async-noskip,pg-9.6-group-update,36,16026,16130,16354,15783
power-pgbench-2000-unlogged-async-noskip,pg-9.6-group-update,72,14524,14370,14700,14616
power-pgbench-2000-unlogged-async-noskip,pg-9.6-group-update,108,13605,13788,13816,13460
power-pgbench-2000-unlogged-async-noskip,pg-9.6-group-update,144,13185,13165,13259,13260
power-pgbench-2000-unlogged-async-noskip,pg-9.6-group-update,180,12677,12720,12567,12731
power-pgbench-2000-unlogged-async-noskip,pg-9.6-group-update,216,11817,11945,11770,11670
power-pgbench-2000-unlogged-async-noskip,pg-9.6-group-update,252,11147,11438,11246,10811
power-pgbench-2000-unlogged-async-noskip,pg-9.6-group-update,288,10433,10508,10559,10095
power-pgbench-2000-unlogged-async-noskip,pg-9.6-master,36,16003,15635,16072,16154
power-pgbench-2000-unlogged-async-noskip,pg-9.6-master,72,14743,14973,14519,14658
power-pgbench-2000-unlogged-async-noskip,pg-9.6-master,108,13968,13988,14004,13928
power-pgbench-2000-unlogged-async-noskip,pg-9.6-master,144,13357,13418,13564,13160
power-pgbench-2000-unlogged-async-noskip,pg-9.6-master,180,12720,12764,12805,12553
power-pgbench-2000-unlogged-async-noskip,pg-9.6-master,216,12212,12534,12248,12121
power-pgbench-2000-unlogged-async-noskip,pg-9.6-master,252,11428,11621,11450,11159
power-pgbench-2000-unlogged-async-noskip,pg-9.6-master,288,10669,10843,10681,10454
power-pgbench-2000-unlogged-async-skip,pg-9.6-granular-locking,36,18885,18721,19268,18607
power-pgbench-2000-unlogged-async-skip,pg-9.6-granular-locking,72,17379,17400,17780,16821
power-pgbench-2000-unlogged-async-skip,pg-9.6-granular-locking,108,16802,16897,16943,16705
power-pgbench-2000-unlogged-async-skip,pg-9.6-granular-locking,144,16282,16715,16318,15571
power-pgbench-2000-unlogged-async-skip,pg-9.6-granular-locking,180,16007,16434,16235,15600
power-pgbench-2000-unlogged-async-skip,pg-9.6-granular-locking,216,15659,15883,15801,15280
power-pgbench-2000-unlogged-async-skip,pg-9.6-granular-locking,252,14977,15341,15145,14271
power-pgbench-2000-unlogged-async-skip,pg-9.6-granular-locking,288,14280,15039,14777,13329
power-pgbench-2000-unlogged-async-skip,pg-9.6-granular-locking-no-content-lock,36,19168,19378,19043,19182
power-pgbench-2000-unlogged-async-skip,pg-9.6-granular-locking-no-content-lock,72,18017,18115,18115,17640
power-pgbench-2000-unlogged-async-skip,pg-9.6-granular-locking-no-content-lock,108,17078,17514,17210,16302
power-pgbench-2000-unlogged-async-skip,pg-9.6-granular-locking-no-content-lock,144,16463,16840,16748,16057
power-pgbench-2000-unlogged-async-skip,pg-9.6-granular-locking-no-content-lock,180,16205,16372,16216,16001
power-pgbench-2000-unlogged-async-skip,pg-9.6-granular-locking-no-content-lock,216,15606,16206,15705,15086
power-pgbench-2000-unlogged-async-skip,pg-9.6-granular-locking-no-content-lock,252,15020,15644,15186,14263
power-pgbench-2000-unlogged-async-skip,pg-9.6-granular-locking-no-content-lock,288,14277,14646,14736,12995
power-pgbench-2000-unlogged-async-skip,pg-9.6-group-update,36,18233,18272,18071,18347
power-pgbench-2000-unlogged-async-skip,pg-9.6-group-update,72,17477,17843,17466,17075
power-pgbench-2000-unlogged-async-skip,pg-9.6-group-update,108,16839,17114,16536,16626
power-pgbench-2000-unlogged-async-skip,pg-9.6-group-update,144,16420,16820,16301,15987
power-pgbench-2000-unlogged-async-skip,pg-9.6-group-update,180,15874,15997,16115,15645
power-pgbench-2000-unlogged-async-skip,pg-9.6-group-update,216,15293,15656,15325,14943
power-pgbench-2000-unlogged-async-skip,pg-9.6-group-update,252,14622,14892,14861,13977
power-pgbench-2000-unlogged-async-skip,pg-9.6-group-update,288,14316,14744,14489,13516
power-pgbench-2000-unlogged-async-skip,pg-9.6-master,36,18068,18240,18056,18022
power-pgbench-2000-unlogged-async-skip,pg-9.6-master,72,17266,17511,17335,17038
power-pgbench-2000-unlogged-async-skip,pg-9.6-master,108,16828,17047,17261,16171
power-pgbench-2000-unlogged-async-skip,pg-9.6-master,144,16518,16658,16769,16159
power-pgbench-2000-unlogged-async-skip,pg-9.6-master,180,16018,16112,16227,15443
power-pgbench-2000-unlogged-async-skip,pg-9.6-master,216,15370,15887,15501,14571
power-pgbench-2000-unlogged-async-skip,pg-9.6-master,252,14782,15001,14909,14428
power-pgbench-2000-unlogged-async-skip,pg-9.6-master,288,14136,14603,14361,13424
power-pgbench-2000-unlogged-sync-noskip,pg-9.6-granular-locking,36,15861,16185,15753,15499
power-pgbench-2000-unlogged-sync-noskip,pg-9.6-granular-locking,72,14824,14799,15119,14703
power-pgbench-2000-unlogged-sync-noskip,pg-9.6-granular-locking,108,13925,13871,13962,13973
power-pgbench-2000-unlogged-sync-noskip,pg-9.6-granular-locking,144,13494,13517,13577,13468
power-pgbench-2000-unlogged-sync-noskip,pg-9.6-granular-locking,180,13119,13129,13337,12918
power-pgbench-2000-unlogged-sync-noskip,pg-9.6-granular-locking,216,12457,12660,12505,12389
power-pgbench-2000-unlogged-sync-noskip,pg-9.6-granular-locking,252,11893,12070,11895,11748
power-pgbench-2000-unlogged-sync-noskip,pg-9.6-granular-locking,288,11271,11406,11331,11059
power-pgbench-2000-unlogged-sync-noskip,pg-9.6-granular-locking-no-content-lock,36,15075,15005,15171,14896
power-pgbench-2000-unlogged-sync-noskip,pg-9.6-granular-locking-no-content-lock,72,14651,14948,14633,14314
power-pgbench-2000-unlogged-sync-noskip,pg-9.6-granular-locking-no-content-lock,108,13969,14322,14003,13774
power-pgbench-2000-unlogged-sync-noskip,pg-9.6-granular-locking-no-content-lock,144,13666,13834,13688,13454
power-pgbench-2000-unlogged-sync-noskip,pg-9.6-granular-locking-no-content-lock,180,12992,13268,12998,12826
power-pgbench-2000-unlogged-sync-noskip,pg-9.6-granular-locking-no-content-lock,216,12371,12475,12306,12269
power-pgbench-2000-unlogged-sync-noskip,pg-9.6-granular-locking-no-content-lock,252,11719,11951,11952,11474
power-pgbench-2000-unlogged-sync-noskip,pg-9.6-granular-locking-no-content-lock,288,11338,11552,11444,11105
power-pgbench-2000-unlogged-sync-noskip,pg-9.6-group-update,36,16179,16262,16289,15944
power-pgbench-2000-unlogged-sync-noskip,pg-9.6-group-update,72,14844,14997,14914,14744
power-pgbench-2000-unlogged-sync-noskip,pg-9.6-group-update,108,14136,14341,14118,13888
power-pgbench-2000-unlogged-sync-noskip,pg-9.6-group-update,144,13626,13821,13695,13435
power-pgbench-2000-unlogged-sync-noskip,pg-9.6-group-update,180,13293,13469,13122,13027
power-pgbench-2000-unlogged-sync-noskip,pg-9.6-group-update,216,12593,12825,12677,12352
power-pgbench-2000-unlogged-sync-noskip,pg-9.6-group-update,252,12214,12369,12190,11942
power-pgbench-2000-unlogged-sync-noskip,pg-9.6-group-update,288,11595,12038,11476,11359
power-pgbench-2000-unlogged-sync-noskip,pg-9.6-master,36,16304,16343,16172,16421
power-pgbench-2000-unlogged-sync-noskip,pg-9.6-master,72,14809,14696,15064,14737
power-pgbench-2000-unlogged-sync-noskip,pg-9.6-master,108,14021,14211,14005,13945
power-pgbench-2000-unlogged-sync-noskip,pg-9.6-master,144,13648,13620,13698,13621
power-pgbench-2000-unlogged-sync-noskip,pg-9.6-master,180,13101,13101,13185,13003
power-pgbench-2000-unlogged-sync-noskip,pg-9.6-master,216,12498,12572,12537,12458
power-pgbench-2000-unlogged-sync-noskip,pg-9.6-master,252,12030,12160,12019,11942
power-pgbench-2000-unlogged-sync-noskip,pg-9.6-master,288,11447,11517,11668,11147
power-pgbench-2000-unlogged-sync-skip,pg-9.6-granular-locking,36,19081,19576,18980,18948
power-pgbench-2000-unlogged-sync-skip,pg-9.6-granular-locking,72,18190,18816,18128,17563
power-pgbench-2000-unlogged-sync-skip,pg-9.6-granular-locking,108,17321,17876,17339,16898
power-pgbench-2000-unlogged-sync-skip,pg-9.6-granular-locking,144,16920,17268,17156,16233
power-pgbench-2000-unlogged-sync-skip,pg-9.6-granular-locking,180,16233,16623,16565,15669
power-pgbench-2000-unlogged-sync-skip,pg-9.6-granular-locking,216,15761,16180,15819,14985
power-pgbench-2000-unlogged-sync-skip,pg-9.6-granular-locking,252,15147,15637,15385,14455
power-pgbench-2000-unlogged-sync-skip,pg-9.6-granular-locking,288,14885,15455,15395,14047
power-pgbench-2000-unlogged-sync-skip,pg-9.6-granular-locking-no-content-lock,36,18960,19362,19566,18674
power-pgbench-2000-unlogged-sync-skip,pg-9.6-granular-locking-no-content-lock,72,17840,18100,18242,17413
power-pgbench-2000-unlogged-sync-skip,pg-9.6-granular-locking-no-content-lock,108,16951,17412,16998,16618
power-pgbench-2000-unlogged-sync-skip,pg-9.6-granular-locking-no-content-lock,144,16339,16621,16330,16030
power-pgbench-2000-unlogged-sync-skip,pg-9.6-granular-locking-no-content-lock,180,15927,16170,15685,15502
power-pgbench-2000-unlogged-sync-skip,pg-9.6-granular-locking-no-content-lock,216,15284,15655,15681,14372
power-pgbench-2000-unlogged-sync-skip,pg-9.6-granular-locking-no-content-lock,252,14828,15363,14870,14255
power-pgbench-2000-unlogged-sync-skip,pg-9.6-granular-locking-no-content-lock,288,14534,15142,14632,14175
power-pgbench-2000-unlogged-sync-skip,pg-9.6-group-update,36,18912,18784,19110,18811
power-pgbench-2000-unlogged-sync-skip,pg-9.6-group-update,72,18009,18322,17962,17917
power-pgbench-2000-unlogged-sync-skip,pg-9.6-group-update,108,17180,17433,17627,16540
power-pgbench-2000-unlogged-sync-skip,pg-9.6-group-update,144,16557,17142,16520,16090
power-pgbench-2000-unlogged-sync-skip,pg-9.6-group-update,180,16158,16502,16077,15834
power-pgbench-2000-unlogged-sync-skip,pg-9.6-group-update,216,15644,15965,15712,15255
power-pgbench-2000-unlogged-sync-skip,pg-9.6-group-update,252,15083,15618,15331,14659
power-pgbench-2000-unlogged-sync-skip,pg-9.6-group-update,288,14657,15239,14807,13800
power-pgbench-2000-unlogged-sync-skip,pg-9.6-master,36,19330,19791,19365,19041
power-pgbench-2000-unlogged-sync-skip,pg-9.6-master,72,18009,18435,17927,17856
power-pgbench-2000-unlogged-sync-skip,pg-9.6-master,108,17141,17656,17063,16702
power-pgbench-2000-unlogged-sync-skip,pg-9.6-master,144,16991,17494,17413,16022
power-pgbench-2000-unlogged-sync-skip,pg-9.6-master,180,16011,16583,16364,15404
power-pgbench-2000-unlogged-sync-skip,pg-9.6-master,216,15707,16027,15788,15258
power-pgbench-2000-unlogged-sync-skip,pg-9.6-master,252,15050,15507,15571,14251
power-pgbench-2000-unlogged-sync-skip,pg-9.6-master,288,14806,15516,14998,14009
power-pgbench-300-logged-async-noskip,pg-9.6-granular-locking,36,23774,23546,23880,23833
power-pgbench-300-logged-async-noskip,pg-9.6-granular-locking,72,26059,25855,26892,25181
power-pgbench-300-logged-async-noskip,pg-9.6-granular-locking,108,26630,26454,26691,26913
power-pgbench-300-logged-async-noskip,pg-9.6-granular-locking,144,26628,26766,26606,26365
power-pgbench-300-logged-async-noskip,pg-9.6-granular-locking,180,26402,26393,26783,26279
power-pgbench-300-logged-async-noskip,pg-9.6-granular-locking,216,26202,26690,26452,25713
power-pgbench-300-logged-async-noskip,pg-9.6-granular-locking,252,25662,25724,26064,25236
power-pgbench-300-logged-async-noskip,pg-9.6-granular-locking,288,24760,24477,25210,24774
power-pgbench-300-logged-async-noskip,pg-9.6-granular-locking-no-content-lock,36,23509,23696,23254,24003
power-pgbench-300-logged-async-noskip,pg-9.6-granular-locking-no-content-lock,72,26282,26161,26143,26468
power-pgbench-300-logged-async-noskip,pg-9.6-granular-locking-no-content-lock,108,27239,27236,27275,27242
power-pgbench-300-logged-async-noskip,pg-9.6-granular-locking-no-content-lock,144,26803,26843,27029,26481
power-pgbench-300-logged-async-noskip,pg-9.6-granular-locking-no-content-lock,180,26762,26740,26182,27138
power-pgbench-300-logged-async-noskip,pg-9.6-granular-locking-no-content-lock,216,26123,26150,26318,25987
power-pgbench-300-logged-async-noskip,pg-9.6-granular-locking-no-content-lock,252,25676,25578,26066,25490
power-pgbench-300-logged-async-noskip,pg-9.6-granular-locking-no-content-lock,288,24992,24740,25349,25110
power-pgbench-300-logged-async-noskip,pg-9.6-group-update,36,22974,23323,23004,22556
power-pgbench-300-logged-async-noskip,pg-9.6-group-update,72,25785,25660,25647,26158
power-pgbench-300-logged-async-noskip,pg-9.6-group-update,108,26802,26894,27117,26536
power-pgbench-300-logged-async-noskip,pg-9.6-group-update,144,26867,27535,26563,26724
power-pgbench-300-logged-async-noskip,pg-9.6-group-update,180,26543,26713,26579,26431
power-pgbench-300-logged-async-noskip,pg-9.6-group-update,216,26259,26562,25584,26358
power-pgbench-300-logged-async-noskip,pg-9.6-group-update,252,25157,25691,24818,25106
power-pgbench-300-logged-async-noskip,pg-9.6-group-update,288,24971,24719,24894,25220
power-pgbench-300-logged-async-noskip,pg-9.6-master,36,23129,22345,23608,23171
power-pgbench-300-logged-async-noskip,pg-9.6-master,72,25859,26415,25483,25833
power-pgbench-300-logged-async-noskip,pg-9.6-master,108,26433,25789,26480,26906
power-pgbench-300-logged-async-noskip,pg-9.6-master,144,26203,26098,26176,26403
power-pgbench-300-logged-async-noskip,pg-9.6-master,180,26105,26553,26076,25767
power-pgbench-300-logged-async-noskip,pg-9.6-master,216,25486,25714,25485,25297
power-pgbench-300-logged-async-noskip,pg-9.6-master,252,24662,25505,24314,24509
power-pgbench-300-logged-async-noskip,pg-9.6-master,288,24418,25126,24139,24321
power-pgbench-300-logged-async-skip,pg-9.6-granular-locking,36,35082,35353,34843,35156
power-pgbench-300-logged-async-skip,pg-9.6-granular-locking,72,36256,36422,36311,36001
power-pgbench-300-logged-async-skip,pg-9.6-granular-locking,108,37944,38068,37882,37902
power-pgbench-300-logged-async-skip,pg-9.6-granular-locking,144,38931,38686,39202,39369
power-pgbench-300-logged-async-skip,pg-9.6-granular-locking,180,39878,38518,41337,39864
power-pgbench-300-logged-async-skip,pg-9.6-granular-locking,216,39616,39782,40052,39333
power-pgbench-300-logged-async-skip,pg-9.6-granular-locking,252,39022,38627,39446,38855
power-pgbench-300-logged-async-skip,pg-9.6-granular-locking,288,38960,39068,39062,38280
power-pgbench-300-logged-async-skip,pg-9.6-granular-locking-no-content-lock,36,35192,35792,33815,35259
power-pgbench-300-logged-async-skip,pg-9.6-granular-locking-no-content-lock,72,37037,37681,36490,37026
power-pgbench-300-logged-async-skip,pg-9.6-granular-locking-no-content-lock,108,38038,37473,38870,37866
power-pgbench-300-logged-async-skip,pg-9.6-granular-locking-no-content-lock,144,38870,38693,39697,39261
power-pgbench-300-logged-async-skip,pg-9.6-granular-locking-no-content-lock,180,39505,39148,38612,40476
power-pgbench-300-logged-async-skip,pg-9.6-granular-locking-no-content-lock,216,39791,39535,41665,38984
power-pgbench-300-logged-async-skip,pg-9.6-granular-locking-no-content-lock,252,40794,41148,40174,40903
power-pgbench-300-logged-async-skip,pg-9.6-granular-locking-no-content-lock,288,39383,39134,38632,40373
power-pgbench-300-logged-async-skip,pg-9.6-group-update,36,35139,35928,34874,34885
power-pgbench-300-logged-async-skip,pg-9.6-group-update,72,36971,37932,36660,36233
power-pgbench-300-logged-async-skip,pg-9.6-group-update,108,38156,38220,36289,39054
power-pgbench-300-logged-async-skip,pg-9.6-group-update,144,40020,40147,40169,39796
power-pgbench-300-logged-async-skip,pg-9.6-group-update,180,38913,39196,38787,38685
power-pgbench-300-logged-async-skip,pg-9.6-group-update,216,39863,40363,39341,39866
power-pgbench-300-logged-async-skip,pg-9.6-group-update,252,39466,41418,38932,38981
power-pgbench-300-logged-async-skip,pg-9.6-group-update,288,39475,39277,38910,40187
power-pgbench-300-logged-async-skip,pg-9.6-master,36,35614,35867,34954,35477
power-pgbench-300-logged-async-skip,pg-9.6-master,72,36813,37301,36433,36686
power-pgbench-300-logged-async-skip,pg-9.6-master,108,37743,38289,37770,37285
power-pgbench-300-logged-async-skip,pg-9.6-master,144,38480,38815,37989,38793
power-pgbench-300-logged-async-skip,pg-9.6-master,180,38879,39622,38735,38676
power-pgbench-300-logged-async-skip,pg-9.6-master,216,38901,38601,39352,38704
power-pgbench-300-logged-async-skip,pg-9.6-master,252,39170,39349,40533,38208
power-pgbench-300-logged-async-skip,pg-9.6-master,288,38902,38544,39260,39141
power-pgbench-300-logged-sync-noskip,pg-9.6-granular-locking,36,13032,12953,13106,13057
power-pgbench-300-logged-sync-noskip,pg-9.6-granular-locking,72,16368,16507,16147,16420
power-pgbench-300-logged-sync-noskip,pg-9.6-granular-locking,108,16683,16656,16888,16618
power-pgbench-300-logged-sync-noskip,pg-9.6-granular-locking,144,17188,17144,17554,16997
power-pgbench-300-logged-sync-noskip,pg-9.6-granular-locking,180,17297,17352,17309,17238
power-pgbench-300-logged-sync-noskip,pg-9.6-granular-locking,216,17084,17212,17083,17028
power-pgbench-300-logged-sync-noskip,pg-9.6-granular-locking,252,16883,16859,17042,16833
power-pgbench-300-logged-sync-noskip,pg-9.6-granular-locking,288,16629,16592,16636,16632
power-pgbench-300-logged-sync-noskip,pg-9.6-granular-locking-no-content-lock,36,13063,13093,13113,12962
power-pgbench-300-logged-sync-noskip,pg-9.6-granular-locking-no-content-lock,72,16549,16790,16566,16236
power-pgbench-300-logged-sync-noskip,pg-9.6-granular-locking-no-content-lock,108,17042,17059,17682,16525
power-pgbench-300-logged-sync-noskip,pg-9.6-granular-locking-no-content-lock,144,17537,17300,17369,17766
power-pgbench-300-logged-sync-noskip,pg-9.6-granular-locking-no-content-lock,180,17425,17611,17310,17249
power-pgbench-300-logged-sync-noskip,pg-9.6-granular-locking-no-content-lock,216,17220,17128,17224,17310
power-pgbench-300-logged-sync-noskip,pg-9.6-granular-locking-no-content-lock,252,16874,16825,16755,17030
power-pgbench-300-logged-sync-noskip,pg-9.6-granular-locking-no-content-lock,288,16724,16633,16762,16734
power-pgbench-300-logged-sync-noskip,pg-9.6-group-update,36,13226,13169,13149,13295
power-pgbench-300-logged-sync-noskip,pg-9.6-group-update,72,16327,16299,16278,16416
power-pgbench-300-logged-sync-noskip,pg-9.6-group-update,108,17213,17253,17200,17213
power-pgbench-300-logged-sync-noskip,pg-9.6-group-update,144,17311,17359,17218,17373
power-pgbench-300-logged-sync-noskip,pg-9.6-group-update,180,17280,17286,17259,17307
power-pgbench-300-logged-sync-noskip,pg-9.6-group-update,216,17087,16888,17125,17189
power-pgbench-300-logged-sync-noskip,pg-9.6-group-update,252,16752,16783,16798,16697
power-pgbench-300-logged-sync-noskip,pg-9.6-group-update,288,16721,16690,16796,16706
power-pgbench-300-logged-sync-noskip,pg-9.6-master,36,13106,13035,13037,13235
power-pgbench-300-logged-sync-noskip,pg-9.6-master,72,16447,16580,16462,16322
power-pgbench-300-logged-sync-noskip,pg-9.6-master,108,17204,16876,16890,17790
power-pgbench-300-logged-sync-noskip,pg-9.6-master,144,17323,17196,17302,17406
power-pgbench-300-logged-sync-noskip,pg-9.6-master,180,17233,17176,17311,17181
power-pgbench-300-logged-sync-noskip,pg-9.6-master,216,17040,17164,16918,16993
power-pgbench-300-logged-sync-noskip,pg-9.6-master,252,16768,16867,16800,16627
power-pgbench-300-logged-sync-noskip,pg-9.6-master,288,16560,16366,16796,16577
power-pgbench-300-logged-sync-noskip-tmpfs,pg-9.6-granular-locking,36,23401,23701,23062,23356
power-pgbench-300-logged-sync-noskip-tmpfs,pg-9.6-granular-locking,72,26305,26462,26896,25770
power-pgbench-300-logged-sync-noskip-tmpfs,pg-9.6-granular-locking,108,28229,28593,28242,27809
power-pgbench-300-logged-sync-noskip-tmpfs,pg-9.6-granular-locking,144,28567,28658,28405,28741
power-pgbench-300-logged-sync-noskip-tmpfs,pg-9.6-granular-locking,180,27475,27489,27560,27462
power-pgbench-300-logged-sync-noskip-tmpfs,pg-9.6-granular-locking,216,27284,27346,27269,27244
power-pgbench-300-logged-sync-noskip-tmpfs,pg-9.6-granular-locking,252,26974,26881,26936,27095
power-pgbench-300-logged-sync-noskip-tmpfs,pg-9.6-granular-locking,288,26428,26363,26388,26495
power-pgbench-300-logged-sync-noskip-tmpfs,pg-9.6-granular-locking-no-content-lock,36,23801,24128,23628,23642
power-pgbench-300-logged-sync-noskip-tmpfs,pg-9.6-granular-locking-no-content-lock,72,26908,26716,28095,26377
power-pgbench-300-logged-sync-noskip-tmpfs,pg-9.6-granular-locking-no-content-lock,108,28135,27235,28492,28029
power-pgbench-300-logged-sync-noskip-tmpfs,pg-9.6-granular-locking-no-content-lock,144,28211,28060,28475,28011
power-pgbench-300-logged-sync-noskip-tmpfs,pg-9.6-granular-locking-no-content-lock,180,27764,28120,27245,27756
power-pgbench-300-logged-sync-noskip-tmpfs,pg-9.6-granular-locking-no-content-lock,216,27491,27459,27504,27554
power-pgbench-300-logged-sync-noskip-tmpfs,pg-9.6-granular-locking-no-content-lock,252,26821,26778,26874,26821
power-pgbench-300-logged-sync-noskip-tmpfs,pg-9.6-granular-locking-no-content-lock,288,26534,26600,26649,26247
power-pgbench-300-logged-sync-noskip-tmpfs,pg-9.6-group-update,36,24029,23558,24001,24463
power-pgbench-300-logged-sync-noskip-tmpfs,pg-9.6-group-update,72,26239,26433,25867,26423
power-pgbench-300-logged-sync-noskip-tmpfs,pg-9.6-group-update,108,27893,27576,28378,27898
power-pgbench-300-logged-sync-noskip-tmpfs,pg-9.6-group-update,144,28116,28142,27730,28330
power-pgbench-300-logged-sync-noskip-tmpfs,pg-9.6-group-update,180,27705,27707,27837,27643
power-pgbench-300-logged-sync-noskip-tmpfs,pg-9.6-group-update,216,27366,27506,27304,27275
power-pgbench-300-logged-sync-noskip-tmpfs,pg-9.6-group-update,252,26995,26920,27196,26899
power-pgbench-300-logged-sync-noskip-tmpfs,pg-9.6-group-update,288,26473,26576,26282,26481
power-pgbench-300-logged-sync-noskip-tmpfs,pg-9.6-master,36,23812,24743,22107,23741
power-pgbench-300-logged-sync-noskip-tmpfs,pg-9.6-master,72,26173,26152,25897,26450
power-pgbench-300-logged-sync-noskip-tmpfs,pg-9.6-master,108,27837,27325,27626,28348
power-pgbench-300-logged-sync-noskip-tmpfs,pg-9.6-master,144,27830,28083,27478,27543
power-pgbench-300-logged-sync-noskip-tmpfs,pg-9.6-master,180,27692,27727,27752,27557
power-pgbench-300-logged-sync-noskip-tmpfs,pg-9.6-master,216,27141,27171,27102,27076
power-pgbench-300-logged-sync-noskip-tmpfs,pg-9.6-master,252,26638,26640,26537,26671
power-pgbench-300-logged-sync-noskip-tmpfs,pg-9.6-master,288,26056,26040,26146,25996
power-pgbench-300-logged-sync-skip,pg-9.6-granular-locking,36,15334,15267,15376,15275
power-pgbench-300-logged-sync-skip,pg-9.6-granular-locking,72,20458,20859,20188,20506
power-pgbench-300-logged-sync-skip,pg-9.6-granular-locking,108,21701,21451,22040,21405
power-pgbench-300-logged-sync-skip,pg-9.6-granular-locking,144,22705,23169,22440,22587
power-pgbench-300-logged-sync-skip,pg-9.6-granular-locking,180,23013,23050,23447,22655
power-pgbench-300-logged-sync-skip,pg-9.6-granular-locking,216,23429,24064,23177,22963
power-pgbench-300-logged-sync-skip,pg-9.6-granular-locking,252,23815,23827,24059,23560
power-pgbench-300-logged-sync-skip,pg-9.6-granular-locking,288,24303,24235,24264,24428
power-pgbench-300-logged-sync-skip,pg-9.6-granular-locking-no-content-lock,36,15343,15187,15689,15202
power-pgbench-300-logged-sync-skip,pg-9.6-granular-locking-no-content-lock,72,20323,20368,20327,20280
power-pgbench-300-logged-sync-skip,pg-9.6-granular-locking-no-content-lock,108,21687,21426,21740,21803
power-pgbench-300-logged-sync-skip,pg-9.6-granular-locking-no-content-lock,144,22766,22875,22175,23027
power-pgbench-300-logged-sync-skip,pg-9.6-granular-locking-no-content-lock,180,23128,23226,23022,23030
power-pgbench-300-logged-sync-skip,pg-9.6-granular-locking-no-content-lock,216,24039,24296,24173,23704
power-pgbench-300-logged-sync-skip,pg-9.6-granular-locking-no-content-lock,252,23829,23707,24194,23592
power-pgbench-300-logged-sync-skip,pg-9.6-granular-locking-no-content-lock,288,24543,24886,24624,24026
power-pgbench-300-logged-sync-skip,pg-9.6-group-update,36,15510,15432,15744,15492
power-pgbench-300-logged-sync-skip,pg-9.6-group-update,72,20390,20355,20526,20260
power-pgbench-300-logged-sync-skip,pg-9.6-group-update,108,21639,21647,21394,21933
power-pgbench-300-logged-sync-skip,pg-9.6-group-update,144,22517,22927,22204,22350
power-pgbench-300-logged-sync-skip,pg-9.6-group-update,180,23080,23028,23661,22780
power-pgbench-300-logged-sync-skip,pg-9.6-group-update,216,23781,23877,23742,23647
power-pgbench-300-logged-sync-skip,pg-9.6-group-update,252,23889,23963,24003,23610
power-pgbench-300-logged-sync-skip,pg-9.6-group-update,288,23959,24314,24013,23714
power-pgbench-300-logged-sync-skip,pg-9.6-master,36,15436,15254,15472,15441
power-pgbench-300-logged-sync-skip,pg-9.6-master,72,20476,20526,20498,20227
power-pgbench-300-logged-sync-skip,pg-9.6-master,108,21671,21576,21660,21760
power-pgbench-300-logged-sync-skip,pg-9.6-master,144,22876,23193,22496,23148
power-pgbench-300-logged-sync-skip,pg-9.6-master,180,23116,22566,23219,23371
power-pgbench-300-logged-sync-skip,pg-9.6-master,216,23768,23941,23543,23758
power-pgbench-300-logged-sync-skip,pg-9.6-master,252,23789,23591,23896,23854
power-pgbench-300-logged-sync-skip,pg-9.6-master,288,23760,23760,24034,23516
power-pgbench-300-logged-sync-skip-tmpfs,pg-9.6-granular-locking,36,35224,35503,35209,34719
power-pgbench-300-logged-sync-skip-tmpfs,pg-9.6-granular-locking,72,36806,37244,36801,36445
power-pgbench-300-logged-sync-skip-tmpfs,pg-9.6-granular-locking,108,39106,37860,39838,38842
power-pgbench-300-logged-sync-skip-tmpfs,pg-9.6-granular-locking,144,40385,40218,41191,39808
power-pgbench-300-logged-sync-skip-tmpfs,pg-9.6-granular-locking,180,40519,40983,39835,40866
power-pgbench-300-logged-sync-skip-tmpfs,pg-9.6-granular-locking,216,41414,41526,41304,41492
power-pgbench-300-logged-sync-skip-tmpfs,pg-9.6-granular-locking,252,41639,42104,41683,41197
power-pgbench-300-logged-sync-skip-tmpfs,pg-9.6-granular-locking,288,41347,41464,41120,41302
power-pgbench-300-logged-sync-skip-tmpfs,pg-9.6-granular-locking-no-content-lock,36,35342,35493,35465,35070
power-pgbench-300-logged-sync-skip-tmpfs,pg-9.6-granular-locking-no-content-lock,72,36771,37115,36426,36762
power-pgbench-300-logged-sync-skip-tmpfs,pg-9.6-granular-locking-no-content-lock,108,38270,38575,37924,38536
power-pgbench-300-logged-sync-skip-tmpfs,pg-9.6-granular-locking-no-content-lock,144,40713,38641,41057,41230
power-pgbench-300-logged-sync-skip-tmpfs,pg-9.6-granular-locking-no-content-lock,180,41305,41871,40826,40918
power-pgbench-300-logged-sync-skip-tmpfs,pg-9.6-granular-locking-no-content-lock,216,41612,42041,41554,41275
power-pgbench-300-logged-sync-skip-tmpfs,pg-9.6-granular-locking-no-content-lock,252,41803,41929,41644,41846
power-pgbench-300-logged-sync-skip-tmpfs,pg-9.6-granular-locking-no-content-lock,288,41795,41582,41629,41922
power-pgbench-300-logged-sync-skip-tmpfs,pg-9.6-group-update,36,35175,36225,34573,34667
power-pgbench-300-logged-sync-skip-tmpfs,pg-9.6-group-update,72,36874,37062,36576,36845
power-pgbench-300-logged-sync-skip-tmpfs,pg-9.6-group-update,108,39561,39424,38513,40514
power-pgbench-300-logged-sync-skip-tmpfs,pg-9.6-group-update,144,39783,39651,39952,39698
power-pgbench-300-logged-sync-skip-tmpfs,pg-9.6-group-update,180,41168,41029,40980,41511
power-pgbench-300-logged-sync-skip-tmpfs,pg-9.6-group-update,216,41607,41200,40770,41854
power-pgbench-300-logged-sync-skip-tmpfs,pg-9.6-group-update,252,41757,41787,41646,42015
power-pgbench-300-logged-sync-skip-tmpfs,pg-9.6-group-update,288,41308,41181,41832,40359
power-pgbench-300-logged-sync-skip-tmpfs,pg-9.6-master,36,34643,34891,34554,34447
power-pgbench-300-logged-sync-skip-tmpfs,pg-9.6-master,72,36564,35726,37077,36575
power-pgbench-300-logged-sync-skip-tmpfs,pg-9.6-master,108,37760,38333,37242,38383
power-pgbench-300-logged-sync-skip-tmpfs,pg-9.6-master,144,39779,40525,40013,38922
power-pgbench-300-logged-sync-skip-tmpfs,pg-9.6-master,180,40825,40263,40256,41623
power-pgbench-300-logged-sync-skip-tmpfs,pg-9.6-master,216,41532,41308,41639,41594
power-pgbench-300-logged-sync-skip-tmpfs,pg-9.6-master,252,40969,41207,40932,40878
power-pgbench-300-logged-sync-skip-tmpfs,pg-9.6-master,288,40677,40461,41014,40449
power-pgbench-300-unlogged-async-noskip,pg-9.6-granular-locking,36,24055,25234,23965,23001
power-pgbench-300-unlogged-async-noskip,pg-9.6-granular-locking,72,28089,28004,26999,30120
power-pgbench-300-unlogged-async-noskip,pg-9.6-granular-locking,108,28951,29081,28931,28934
power-pgbench-300-unlogged-async-noskip,pg-9.6-granular-locking,144,29753,29952,29428,29709
power-pgbench-300-unlogged-async-noskip,pg-9.6-granular-locking,180,29166,29556,28914,29152
power-pgbench-300-unlogged-async-noskip,pg-9.6-granular-locking,216,28603,28204,28853,28467
power-pgbench-300-unlogged-async-noskip,pg-9.6-granular-locking,252,28236,28292,28414,28038
power-pgbench-300-unlogged-async-noskip,pg-9.6-granular-locking,288,27784,27746,27568,27888
power-pgbench-300-unlogged-async-noskip,pg-9.6-granular-locking-no-content-lock,36,23645,24490,22774,23550
power-pgbench-300-unlogged-async-noskip,pg-9.6-granular-locking-no-content-lock,72,28242,27444,29298,28415
power-pgbench-300-unlogged-async-noskip,pg-9.6-granular-locking-no-content-lock,108,29274,29749,29294,28885
power-pgbench-300-unlogged-async-noskip,pg-9.6-granular-locking-no-content-lock,144,29321,29720,28829,29290
power-pgbench-300-unlogged-async-noskip,pg-9.6-granular-locking-no-content-lock,180,28992,29353,28815,28813
power-pgbench-300-unlogged-async-noskip,pg-9.6-granular-locking-no-content-lock,216,28459,28477,28678,28343
power-pgbench-300-unlogged-async-noskip,pg-9.6-granular-locking-no-content-lock,252,28152,28468,27879,27765
power-pgbench-300-unlogged-async-noskip,pg-9.6-granular-locking-no-content-lock,288,27723,27783,27807,27443
power-pgbench-300-unlogged-async-noskip,pg-9.6-group-update,36,24393,24709,24737,23405
power-pgbench-300-unlogged-async-noskip,pg-9.6-group-update,72,27799,28364,27599,27431
power-pgbench-300-unlogged-async-noskip,pg-9.6-group-update,108,29289,29230,29537,29300
power-pgbench-300-unlogged-async-noskip,pg-9.6-group-update,144,29036,29532,28918,28927
power-pgbench-300-unlogged-async-noskip,pg-9.6-group-update,180,28778,28979,28776,28627
power-pgbench-300-unlogged-async-noskip,pg-9.6-group-update,216,28563,28558,28318,28817
power-pgbench-300-unlogged-async-noskip,pg-9.6-group-update,252,28230,28396,28229,28044
power-pgbench-300-unlogged-async-noskip,pg-9.6-group-update,288,27546,27781,27411,27563
power-pgbench-300-unlogged-async-noskip,pg-9.6-master,36,24195,23943,24043,24430
power-pgbench-300-unlogged-async-noskip,pg-9.6-master,72,27548,27410,28074,27249
power-pgbench-300-unlogged-async-noskip,pg-9.6-master,108,29142,29438,28215,29408
power-pgbench-300-unlogged-async-noskip,pg-9.6-master,144,28308,28443,28066,28405
power-pgbench-300-unlogged-async-noskip,pg-9.6-master,180,28369,28608,28160,28578
power-pgbench-300-unlogged-async-noskip,pg-9.6-master,216,28368,28573,28320,28247
power-pgbench-300-unlogged-async-noskip,pg-9.6-master,252,27718,27854,27317,27908
power-pgbench-300-unlogged-async-noskip,pg-9.6-master,288,27299,27071,27552,27443
power-pgbench-300-unlogged-async-skip,pg-9.6-granular-locking,36,37207,37428,37003,36850
power-pgbench-300-unlogged-async-skip,pg-9.6-granular-locking,72,38904,38796,38864,39059
power-pgbench-300-unlogged-async-skip,pg-9.6-granular-locking,108,39800,39397,39980,39990
power-pgbench-300-unlogged-async-skip,pg-9.6-granular-locking,144,41578,42138,41514,39518
power-pgbench-300-unlogged-async-skip,pg-9.6-granular-locking,180,42531,42964,42276,43145
power-pgbench-300-unlogged-async-skip,pg-9.6-granular-locking,216,43314,43801,41518,43471
power-pgbench-300-unlogged-async-skip,pg-9.6-granular-locking,252,42710,43167,42461,42713
power-pgbench-300-unlogged-async-skip,pg-9.6-granular-locking,288,42304,42202,42214,42839
power-pgbench-300-unlogged-async-skip,pg-9.6-granular-locking-no-content-lock,36,38095,38326,37864,38067
power-pgbench-300-unlogged-async-skip,pg-9.6-granular-locking-no-content-lock,72,38773,38906,38623,38735
power-pgbench-300-unlogged-async-skip,pg-9.6-granular-locking-no-content-lock,108,41116,40494,41068,41795
power-pgbench-300-unlogged-async-skip,pg-9.6-granular-locking-no-content-lock,144,42465,42732,43042,41955
power-pgbench-300-unlogged-async-skip,pg-9.6-granular-locking-no-content-lock,180,43080,43863,42244,43060
power-pgbench-300-unlogged-async-skip,pg-9.6-granular-locking-no-content-lock,216,43787,43799,43860,43666
power-pgbench-300-unlogged-async-skip,pg-9.6-granular-locking-no-content-lock,252,44512,43956,45478,43953
power-pgbench-300-unlogged-async-skip,pg-9.6-granular-locking-no-content-lock,288,44480,44469,44756,44279
power-pgbench-300-unlogged-async-skip,pg-9.6-group-update,36,37783,38277,37848,37358
power-pgbench-300-unlogged-async-skip,pg-9.6-group-update,72,38650,38567,39159,38439
power-pgbench-300-unlogged-async-skip,pg-9.6-group-update,108,40751,39496,41770,41406
power-pgbench-300-unlogged-async-skip,pg-9.6-group-update,144,41657,40737,43408,40831
power-pgbench-300-unlogged-async-skip,pg-9.6-group-update,180,43458,43297,43384,43751
power-pgbench-300-unlogged-async-skip,pg-9.6-group-update,216,42978,44633,42334,43023
power-pgbench-300-unlogged-async-skip,pg-9.6-group-update,252,43433,43301,43138,43690
power-pgbench-300-unlogged-async-skip,pg-9.6-group-update,288,43854,43634,44055,43901
power-pgbench-300-unlogged-async-skip,pg-9.6-master,36,36940,37061,36263,37330
power-pgbench-300-unlogged-async-skip,pg-9.6-master,72,39139,39299,39141,39025
power-pgbench-300-unlogged-async-skip,pg-9.6-master,108,40244,40792,40061,39797
power-pgbench-300-unlogged-async-skip,pg-9.6-master,144,41504,42898,40199,40140
power-pgbench-300-unlogged-async-skip,pg-9.6-master,180,42580,43172,41111,43217
power-pgbench-300-unlogged-async-skip,pg-9.6-master,216,42844,42803,42635,43792
power-pgbench-300-unlogged-async-skip,pg-9.6-master,252,42825,42983,42845,42769
power-pgbench-300-unlogged-async-skip,pg-9.6-master,288,42882,42482,42956,43357
power-pgbench-300-unlogged-async-skip-tmpfs,pg-9.6-granular-locking,36,37596,38003,37532,37257
power-pgbench-300-unlogged-async-skip-tmpfs,pg-9.6-granular-locking,72,39380,39093,39802,39344
power-pgbench-300-unlogged-async-skip-tmpfs,pg-9.6-granular-locking,108,40648,40259,41959,40419
power-pgbench-300-unlogged-async-skip-tmpfs,pg-9.6-granular-locking,144,43447,43997,43092,42794
power-pgbench-300-unlogged-async-skip-tmpfs,pg-9.6-granular-locking,180,44325,44745,44217,43951
power-pgbench-300-unlogged-async-skip-tmpfs,pg-9.6-granular-locking,216,44749,44487,44970,44771
power-pgbench-300-unlogged-async-skip-tmpfs,pg-9.6-granular-locking,252,44308,44651,44348,44194
power-pgbench-300-unlogged-async-skip-tmpfs,pg-9.6-granular-locking,288,44385,44394,44616,44154
power-pgbench-300-unlogged-async-skip-tmpfs,pg-9.6-granular-locking-no-content-lock,36,37992,38094,37493,38190
power-pgbench-300-unlogged-async-skip-tmpfs,pg-9.6-granular-locking-no-content-lock,72,39265,39283,39494,39091
power-pgbench-300-unlogged-async-skip-tmpfs,pg-9.6-granular-locking-no-content-lock,108,41366,42209,41718,40500
power-pgbench-300-unlogged-async-skip-tmpfs,pg-9.6-granular-locking-no-content-lock,144,43238,42042,44017,43464
power-pgbench-300-unlogged-async-skip-tmpfs,pg-9.6-granular-locking-no-content-lock,180,45217,45179,45189,45339
power-pgbench-300-unlogged-async-skip-tmpfs,pg-9.6-granular-locking-no-content-lock,216,44982,44725,45008,45114
power-pgbench-300-unlogged-async-skip-tmpfs,pg-9.6-granular-locking-no-content-lock,252,45457,45640,45243,45572
power-pgbench-300-unlogged-async-skip-tmpfs,pg-9.6-granular-locking-no-content-lock,288,45080,45169,45352,44651
power-pgbench-300-unlogged-async-skip-tmpfs,pg-9.6-group-update,36,37259,37827,36491,36869
power-pgbench-300-unlogged-async-skip-tmpfs,pg-9.6-group-update,72,39655,40192,38912,39413
power-pgbench-300-unlogged-async-skip-tmpfs,pg-9.6-group-update,108,40813,40934,40855,40622
power-pgbench-300-unlogged-async-skip-tmpfs,pg-9.6-group-update,144,42935,42867,43376,42794
power-pgbench-300-unlogged-async-skip-tmpfs,pg-9.6-group-update,180,44525,45107,44208,44383
power-pgbench-300-unlogged-async-skip-tmpfs,pg-9.6-group-update,216,44845,45127,44659,44997
power-pgbench-300-unlogged-async-skip-tmpfs,pg-9.6-group-update,252,44700,44948,44466,44222
power-pgbench-300-unlogged-async-skip-tmpfs,pg-9.6-group-update,288,44864,44871,44586,45024
power-pgbench-300-unlogged-async-skip-tmpfs,pg-9.6-master,36,37200,37494,36423,37715
power-pgbench-300-unlogged-async-skip-tmpfs,pg-9.6-master,72,39093,39668,39273,38843
power-pgbench-300-unlogged-async-skip-tmpfs,pg-9.6-master,108,40913,40602,41462,40287
power-pgbench-300-unlogged-async-skip-tmpfs,pg-9.6-master,144,42911,41467,44214,39947
power-pgbench-300-unlogged-async-skip-tmpfs,pg-9.6-master,180,44013,43818,44425,42731
power-pgbench-300-unlogged-async-skip-tmpfs,pg-9.6-master,216,44364,44471,44453,44246
power-pgbench-300-unlogged-async-skip-tmpfs,pg-9.6-master,252,44443,44605,44529,44117
power-pgbench-300-unlogged-async-skip-tmpfs,pg-9.6-master,288,44014,43784,43872,44221
power-pgbench-300-unlogged-sync-noskip,pg-9.6-granular-locking,36,23172,23123,22687,23892
power-pgbench-300-unlogged-sync-noskip,pg-9.6-granular-locking,72,28152,27895,28267,28169
power-pgbench-300-unlogged-sync-noskip,pg-9.6-granular-locking,108,28903,28370,29199,28950
power-pgbench-300-unlogged-sync-noskip,pg-9.6-granular-locking,144,28728,29044,28790,28320
power-pgbench-300-unlogged-sync-noskip,pg-9.6-granular-locking,180,28463,28599,28302,28510
power-pgbench-300-unlogged-sync-noskip,pg-9.6-granular-locking,216,27826,28011,27749,27959
power-pgbench-300-unlogged-sync-noskip,pg-9.6-granular-locking,252,27903,28165,27935,27558
power-pgbench-300-unlogged-sync-noskip,pg-9.6-granular-locking,288,27303,27551,27479,27135
power-pgbench-300-unlogged-sync-noskip,pg-9.6-granular-locking-no-content-lock,36,24565,24924,25186,23954
power-pgbench-300-unlogged-sync-noskip,pg-9.6-granular-locking-no-content-lock,72,28262,28273,28476,28071
power-pgbench-300-unlogged-sync-noskip,pg-9.6-granular-locking-no-content-lock,108,29176,29128,28573,29825
power-pgbench-300-unlogged-sync-noskip,pg-9.6-granular-locking-no-content-lock,144,29007,28944,29267,29019
power-pgbench-300-unlogged-sync-noskip,pg-9.6-granular-locking-no-content-lock,180,28774,29136,28411,28749
power-pgbench-300-unlogged-sync-noskip,pg-9.6-granular-locking-no-content-lock,216,28644,28520,28608,28781
power-pgbench-300-unlogged-sync-noskip,pg-9.6-granular-locking-no-content-lock,252,28138,27801,28515,28057
power-pgbench-300-unlogged-sync-noskip,pg-9.6-granular-locking-no-content-lock,288,27592,27420,27674,27760
power-pgbench-300-unlogged-sync-noskip,pg-9.6-group-update,36,24149,23782,24702,23735
power-pgbench-300-unlogged-sync-noskip,pg-9.6-group-update,72,28196,28885,27659,27736
power-pgbench-300-unlogged-sync-noskip,pg-9.6-group-update,108,29385,29382,29374,29470
power-pgbench-300-unlogged-sync-noskip,pg-9.6-group-update,144,29118,28842,29136,29301
power-pgbench-300-unlogged-sync-noskip,pg-9.6-group-update,180,28623,28851,28448,28538
power-pgbench-300-unlogged-sync-noskip,pg-9.6-group-update,216,28522,28000,28655,28780
power-pgbench-300-unlogged-sync-noskip,pg-9.6-group-update,252,27755,27794,28042,27645
power-pgbench-300-unlogged-sync-noskip,pg-9.6-group-update,288,27400,27434,27496,27387
power-pgbench-300-unlogged-sync-noskip,pg-9.6-master,36,24428,24429,24693,23908
power-pgbench-300-unlogged-sync-noskip,pg-9.6-master,72,27357,27638,27281,27192
power-pgbench-300-unlogged-sync-noskip,pg-9.6-master,108,28820,28951,29109,28312
power-pgbench-300-unlogged-sync-noskip,pg-9.6-master,144,29184,29308,28534,29310
power-pgbench-300-unlogged-sync-noskip,pg-9.6-master,180,28504,28295,28772,28414
power-pgbench-300-unlogged-sync-noskip,pg-9.6-master,216,28250,27835,28642,28197
power-pgbench-300-unlogged-sync-noskip,pg-9.6-master,252,27781,27781,28095,27524
power-pgbench-300-unlogged-sync-noskip,pg-9.6-master,288,27282,27539,27024,27282
power-pgbench-300-unlogged-sync-noskip-tmpfs,pg-9.6-granular-locking,36,22934,22470,22646,23948
power-pgbench-300-unlogged-sync-noskip-tmpfs,pg-9.6-granular-locking,72,28061,29050,27938,27554
power-pgbench-300-unlogged-sync-noskip-tmpfs,pg-9.6-granular-locking,108,29600,30489,29833,28960
power-pgbench-300-unlogged-sync-noskip-tmpfs,pg-9.6-granular-locking,144,29561,29522,28931,29908
power-pgbench-300-unlogged-sync-noskip-tmpfs,pg-9.6-granular-locking,180,29626,29594,29629,29687
power-pgbench-300-unlogged-sync-noskip-tmpfs,pg-9.6-granular-locking,216,29108,29247,29107,29029
power-pgbench-300-unlogged-sync-noskip-tmpfs,pg-9.6-granular-locking,252,28549,28551,28512,28582
power-pgbench-300-unlogged-sync-noskip-tmpfs,pg-9.6-granular-locking,288,28048,28103,28091,27918
power-pgbench-300-unlogged-sync-noskip-tmpfs,pg-9.6-granular-locking-no-content-lock,36,23707,23669,23417,23889
power-pgbench-300-unlogged-sync-noskip-tmpfs,pg-9.6-granular-locking-no-content-lock,72,27878,27755,28002,27819
power-pgbench-300-unlogged-sync-noskip-tmpfs,pg-9.6-granular-locking-no-content-lock,108,29598,29898,30304,28592
power-pgbench-300-unlogged-sync-noskip-tmpfs,pg-9.6-granular-locking-no-content-lock,144,30205,30487,30208,29475
power-pgbench-300-unlogged-sync-noskip-tmpfs,pg-9.6-granular-locking-no-content-lock,180,29760,29764,29583,30004
power-pgbench-300-unlogged-sync-noskip-tmpfs,pg-9.6-granular-locking-no-content-lock,216,29334,29328,29419,29224
power-pgbench-300-unlogged-sync-noskip-tmpfs,pg-9.6-granular-locking-no-content-lock,252,28657,28570,28697,28693
power-pgbench-300-unlogged-sync-noskip-tmpfs,pg-9.6-granular-locking-no-content-lock,288,28136,28091,28160,28135
power-pgbench-300-unlogged-sync-noskip-tmpfs,pg-9.6-group-update,36,21675,21906,21109,21987
power-pgbench-300-unlogged-sync-noskip-tmpfs,pg-9.6-group-update,72,27827,28369,27716,27761
power-pgbench-300-unlogged-sync-noskip-tmpfs,pg-9.6-group-update,108,28803,28872,28876,28143
power-pgbench-300-unlogged-sync-noskip-tmpfs,pg-9.6-group-update,144,30338,30252,30454,30343
power-pgbench-300-unlogged-sync-noskip-tmpfs,pg-9.6-group-update,180,29590,29589,29536,29676
power-pgbench-300-unlogged-sync-noskip-tmpfs,pg-9.6-group-update,216,29000,29162,28951,28844
power-pgbench-300-unlogged-sync-noskip-tmpfs,pg-9.6-group-update,252,28552,28550,28600,28468
power-pgbench-300-unlogged-sync-noskip-tmpfs,pg-9.6-group-update,288,27971,27947,28031,27948
power-pgbench-300-unlogged-sync-noskip-tmpfs,pg-9.6-master,36,21444,22627,20649,20442
power-pgbench-300-unlogged-sync-noskip-tmpfs,pg-9.6-master,72,27711,27952,27443,27801
power-pgbench-300-unlogged-sync-noskip-tmpfs,pg-9.6-master,108,29261,29535,28978,29130
power-pgbench-300-unlogged-sync-noskip-tmpfs,pg-9.6-master,144,29779,29211,29978,29809
power-pgbench-300-unlogged-sync-noskip-tmpfs,pg-9.6-master,180,29109,29079,29013,29200
power-pgbench-300-unlogged-sync-noskip-tmpfs,pg-9.6-master,216,28696,28576,28670,28901
power-pgbench-300-unlogged-sync-noskip-tmpfs,pg-9.6-master,252,28366,28329,28439,28330
power-pgbench-300-unlogged-sync-noskip-tmpfs,pg-9.6-master,288,27713,27637,27807,27713
power-pgbench-300-unlogged-sync-skip,pg-9.6-granular-locking,36,37569,38524,36528,37297
power-pgbench-300-unlogged-sync-skip,pg-9.6-granular-locking,72,39259,39947,38846,38814
power-pgbench-300-unlogged-sync-skip,pg-9.6-granular-locking,108,40497,40742,40041,40497
power-pgbench-300-unlogged-sync-skip,pg-9.6-granular-locking,144,41796,41073,42597,41359
power-pgbench-300-unlogged-sync-skip,pg-9.6-granular-locking,180,43065,42781,43375,43148
power-pgbench-300-unlogged-sync-skip,pg-9.6-granular-locking,216,43350,43493,43508,42782
power-pgbench-300-unlogged-sync-skip,pg-9.6-granular-locking,252,43039,43041,43065,43008
power-pgbench-300-unlogged-sync-skip,pg-9.6-granular-locking,288,42971,43242,43134,42562
power-pgbench-300-unlogged-sync-skip,pg-9.6-granular-locking-no-content-lock,36,38030,38016,38769,37402
power-pgbench-300-unlogged-sync-skip,pg-9.6-granular-locking-no-content-lock,72,39228,39666,39115,39182
power-pgbench-300-unlogged-sync-skip,pg-9.6-granular-locking-no-content-lock,108,40560,41893,39378,40174
power-pgbench-300-unlogged-sync-skip,pg-9.6-granular-locking-no-content-lock,144,43181,42393,43857,43328
power-pgbench-300-unlogged-sync-skip,pg-9.6-granular-locking-no-content-lock,180,43632,43227,43904,43484
power-pgbench-300-unlogged-sync-skip,pg-9.6-granular-locking-no-content-lock,216,43434,43789,43375,43434
power-pgbench-300-unlogged-sync-skip,pg-9.6-granular-locking-no-content-lock,252,43994,44067,42739,44219
power-pgbench-300-unlogged-sync-skip,pg-9.6-granular-locking-no-content-lock,288,43702,43632,43696,44105
power-pgbench-300-unlogged-sync-skip,pg-9.6-group-update,36,38041,38299,38250,37623
power-pgbench-300-unlogged-sync-skip,pg-9.6-group-update,72,39042,39922,38466,38778
power-pgbench-300-unlogged-sync-skip,pg-9.6-group-update,108,40259,39401,41428,40079
power-pgbench-300-unlogged-sync-skip,pg-9.6-group-update,144,42454,42510,42601,42354
power-pgbench-300-unlogged-sync-skip,pg-9.6-group-update,180,43362,43816,42951,43062
power-pgbench-300-unlogged-sync-skip,pg-9.6-group-update,216,43093,44244,42468,42420
power-pgbench-300-unlogged-sync-skip,pg-9.6-group-update,252,43146,42998,43173,43159
power-pgbench-300-unlogged-sync-skip,pg-9.6-group-update,288,43612,43532,44142,43298
power-pgbench-300-unlogged-sync-skip,pg-9.6-master,36,37632,37916,37379,37940
power-pgbench-300-unlogged-sync-skip,pg-9.6-master,72,38635,38813,38712,38512
power-pgbench-300-unlogged-sync-skip,pg-9.6-master,108,40290,40730,40808,39737
power-pgbench-300-unlogged-sync-skip,pg-9.6-master,144,41591,42250,40521,42296
power-pgbench-300-unlogged-sync-skip,pg-9.6-master,180,41944,42422,41891,41865
power-pgbench-300-unlogged-sync-skip,pg-9.6-master,216,42963,42649,42214,43946
power-pgbench-300-unlogged-sync-skip,pg-9.6-master,252,43120,43402,43140,43016
power-pgbench-300-unlogged-sync-skip,pg-9.6-master,288,42609,43059,42017,42788
power-pgbench-300-unlogged-sync-skip-tmpfs,pg-9.6-granular-locking,36,37849,38107,37198,38190
power-pgbench-300-unlogged-sync-skip-tmpfs,pg-9.6-granular-locking,72,39553,39370,39874,39444
power-pgbench-300-unlogged-sync-skip-tmpfs,pg-9.6-granular-locking,108,40678,41535,39682,40610
power-pgbench-300-unlogged-sync-skip-tmpfs,pg-9.6-granular-locking,144,43622,44108,43148,43619
power-pgbench-300-unlogged-sync-skip-tmpfs,pg-9.6-granular-locking,180,44341,44561,43851,44622
power-pgbench-300-unlogged-sync-skip-tmpfs,pg-9.6-granular-locking,216,44678,44682,45277,44146
power-pgbench-300-unlogged-sync-skip-tmpfs,pg-9.6-granular-locking,252,44407,44251,44656,43955
power-pgbench-300-unlogged-sync-skip-tmpfs,pg-9.6-granular-locking,288,44174,44289,43825,44264
power-pgbench-300-unlogged-sync-skip-tmpfs,pg-9.6-granular-locking-no-content-lock,36,38591,39590,38269,38313
power-pgbench-300-unlogged-sync-skip-tmpfs,pg-9.6-granular-locking-no-content-lock,72,39167,39293,38715,39661
power-pgbench-300-unlogged-sync-skip-tmpfs,pg-9.6-granular-locking-no-content-lock,108,41682,42260,40687,42027
power-pgbench-300-unlogged-sync-skip-tmpfs,pg-9.6-granular-locking-no-content-lock,144,43981,43402,45357,44033
power-pgbench-300-unlogged-sync-skip-tmpfs,pg-9.6-granular-locking-no-content-lock,180,45050,45074,45261,44461
power-pgbench-300-unlogged-sync-skip-tmpfs,pg-9.6-granular-locking-no-content-lock,216,45341,45049,45863,45395
power-pgbench-300-unlogged-sync-skip-tmpfs,pg-9.6-granular-locking-no-content-lock,252,45483,45080,45541,45773
power-pgbench-300-unlogged-sync-skip-tmpfs,pg-9.6-granular-locking-no-content-lock,288,45325,45180,45169,45487
power-pgbench-300-unlogged-sync-skip-tmpfs,pg-9.6-group-update,36,37550,36139,38513,37320
power-pgbench-300-unlogged-sync-skip-tmpfs,pg-9.6-group-update,72,39261,39405,38775,39748
power-pgbench-300-unlogged-sync-skip-tmpfs,pg-9.6-group-update,108,41006,40427,41885,40955
power-pgbench-300-unlogged-sync-skip-tmpfs,pg-9.6-group-update,144,41891,41821,42788,41507
power-pgbench-300-unlogged-sync-skip-tmpfs,pg-9.6-group-update,180,44983,45183,45212,44476
power-pgbench-300-unlogged-sync-skip-tmpfs,pg-9.6-group-update,216,45340,45076,44047,45560
power-pgbench-300-unlogged-sync-skip-tmpfs,pg-9.6-group-update,252,44937,45110,44694,44862
power-pgbench-300-unlogged-sync-skip-tmpfs,pg-9.6-group-update,288,44791,44372,44910,44825
power-pgbench-300-unlogged-sync-skip-tmpfs,pg-9.6-master,36,37721,37937,37274,37822
power-pgbench-300-unlogged-sync-skip-tmpfs,pg-9.6-master,72,39348,38867,40162,39273
power-pgbench-300-unlogged-sync-skip-tmpfs,pg-9.6-master,108,39920,39775,40908,39362
power-pgbench-300-unlogged-sync-skip-tmpfs,pg-9.6-master,144,42982,43713,41976,43023
power-pgbench-300-unlogged-sync-skip-tmpfs,pg-9.6-master,180,44373,44702,42981,44722
power-pgbench-300-unlogged-sync-skip-tmpfs,pg-9.6-master,216,44289,44515,43465,44526
power-pgbench-300-unlogged-sync-skip-tmpfs,pg-9.6-master,252,44354,44753,44470,44257
power-pgbench-300-unlogged-sync-skip-tmpfs,pg-9.6-master,288,44226,44533,44051,44028
