NOTICE:  table "pgbench_history" does not exist, skipping
NOTICE:  table "pgbench_tellers" does not exist, skipping
NOTICE:  table "pgbench_accounts" does not exist, skipping
NOTICE:  table "pgbench_branches" does not exist, skipping
creating tables...
100000 of 30000000 tuples (0%) done (elapsed 0.10 s, remaining 29.69 s)
200000 of 30000000 tuples (0%) done (elapsed 0.21 s, remaining 30.79 s)
300000 of 30000000 tuples (1%) done (elapsed 0.32 s, remaining 31.89 s)
400000 of 30000000 tuples (1%) done (elapsed 0.43 s, remaining 31.77 s)
500000 of 30000000 tuples (1%) done (elapsed 0.54 s, remaining 32.02 s)
600000 of 30000000 tuples (2%) done (elapsed 0.66 s, remaining 32.12 s)
700000 of 30000000 tuples (2%) done (elapsed 0.77 s, remaining 32.18 s)
800000 of 30000000 tuples (2%) done (elapsed 0.88 s, remaining 32.09 s)
900000 of 30000000 tuples (3%) done (elapsed 0.99 s, remaining 32.05 s)
1000000 of 30000000 tuples (3%) done (elapsed 1.10 s, remaining 31.93 s)
1100000 of 30000000 tuples (3%) done (elapsed 1.21 s, remaining 31.82 s)
1200000 of 30000000 tuples (4%) done (elapsed 1.33 s, remaining 31.89 s)
1300000 of 30000000 tuples (4%) done (elapsed 1.44 s, remaining 31.79 s)
1400000 of 30000000 tuples (4%) done (elapsed 1.55 s, remaining 31.67 s)
1500000 of 30000000 tuples (5%) done (elapsed 1.66 s, remaining 31.56 s)
1600000 of 30000000 tuples (5%) done (elapsed 1.78 s, remaining 31.53 s)
1700000 of 30000000 tuples (5%) done (elapsed 1.89 s, remaining 31.42 s)
1800000 of 30000000 tuples (6%) done (elapsed 2.00 s, remaining 31.33 s)
1900000 of 30000000 tuples (6%) done (elapsed 2.11 s, remaining 31.24 s)
2000000 of 30000000 tuples (6%) done (elapsed 2.22 s, remaining 31.13 s)
2100000 of 30000000 tuples (7%) done (elapsed 2.33 s, remaining 31.02 s)
2200000 of 30000000 tuples (7%) done (elapsed 2.45 s, remaining 30.92 s)
2300000 of 30000000 tuples (7%) done (elapsed 2.56 s, remaining 30.83 s)
2400000 of 30000000 tuples (8%) done (elapsed 2.68 s, remaining 30.78 s)
2500000 of 30000000 tuples (8%) done (elapsed 2.79 s, remaining 30.67 s)
2600000 of 30000000 tuples (8%) done (elapsed 2.90 s, remaining 30.56 s)
2700000 of 30000000 tuples (9%) done (elapsed 3.01 s, remaining 30.46 s)
2800000 of 30000000 tuples (9%) done (elapsed 3.12 s, remaining 30.34 s)
2900000 of 30000000 tuples (9%) done (elapsed 3.24 s, remaining 30.23 s)
3000000 of 30000000 tuples (10%) done (elapsed 3.34 s, remaining 30.10 s)
3100000 of 30000000 tuples (10%) done (elapsed 3.46 s, remaining 30.03 s)
3200000 of 30000000 tuples (10%) done (elapsed 3.57 s, remaining 29.89 s)
3300000 of 30000000 tuples (11%) done (elapsed 3.68 s, remaining 29.78 s)
3400000 of 30000000 tuples (11%) done (elapsed 3.79 s, remaining 29.68 s)
3500000 of 30000000 tuples (11%) done (elapsed 3.90 s, remaining 29.57 s)
3600000 of 30000000 tuples (12%) done (elapsed 4.02 s, remaining 29.48 s)
3700000 of 30000000 tuples (12%) done (elapsed 4.13 s, remaining 29.37 s)
3800000 of 30000000 tuples (12%) done (elapsed 4.24 s, remaining 29.24 s)
3900000 of 30000000 tuples (13%) done (elapsed 4.35 s, remaining 29.13 s)
4000000 of 30000000 tuples (13%) done (elapsed 4.47 s, remaining 29.06 s)
4100000 of 30000000 tuples (13%) done (elapsed 4.59 s, remaining 29.01 s)
4200000 of 30000000 tuples (14%) done (elapsed 4.70 s, remaining 28.90 s)
4300000 of 30000000 tuples (14%) done (elapsed 4.82 s, remaining 28.78 s)
4400000 of 30000000 tuples (14%) done (elapsed 4.93 s, remaining 28.67 s)
4500000 of 30000000 tuples (15%) done (elapsed 5.04 s, remaining 28.55 s)
4600000 of 30000000 tuples (15%) done (elapsed 5.15 s, remaining 28.43 s)
4700000 of 30000000 tuples (15%) done (elapsed 5.26 s, remaining 28.31 s)
4800000 of 30000000 tuples (16%) done (elapsed 5.37 s, remaining 28.21 s)
4900000 of 30000000 tuples (16%) done (elapsed 5.49 s, remaining 28.12 s)
5000000 of 30000000 tuples (16%) done (elapsed 5.60 s, remaining 28.00 s)
5100000 of 30000000 tuples (17%) done (elapsed 5.71 s, remaining 27.89 s)
5200000 of 30000000 tuples (17%) done (elapsed 5.82 s, remaining 27.78 s)
5300000 of 30000000 tuples (17%) done (elapsed 5.93 s, remaining 27.66 s)
5400000 of 30000000 tuples (18%) done (elapsed 6.05 s, remaining 27.54 s)
5500000 of 30000000 tuples (18%) done (elapsed 6.16 s, remaining 27.45 s)
5600000 of 30000000 tuples (18%) done (elapsed 6.28 s, remaining 27.35 s)
5700000 of 30000000 tuples (19%) done (elapsed 6.39 s, remaining 27.24 s)
5800000 of 30000000 tuples (19%) done (elapsed 6.51 s, remaining 27.17 s)
5900000 of 30000000 tuples (19%) done (elapsed 6.62 s, remaining 27.05 s)
6000000 of 30000000 tuples (20%) done (elapsed 6.74 s, remaining 26.95 s)
6100000 of 30000000 tuples (20%) done (elapsed 6.85 s, remaining 26.83 s)
6200000 of 30000000 tuples (20%) done (elapsed 6.96 s, remaining 26.72 s)
6300000 of 30000000 tuples (21%) done (elapsed 7.07 s, remaining 26.61 s)
6400000 of 30000000 tuples (21%) done (elapsed 7.18 s, remaining 26.49 s)
6500000 of 30000000 tuples (21%) done (elapsed 7.30 s, remaining 26.40 s)
6600000 of 30000000 tuples (22%) done (elapsed 7.42 s, remaining 26.29 s)
6700000 of 30000000 tuples (22%) done (elapsed 7.53 s, remaining 26.17 s)
6800000 of 30000000 tuples (22%) done (elapsed 7.64 s, remaining 26.06 s)
6900000 of 30000000 tuples (23%) done (elapsed 7.75 s, remaining 25.94 s)
7000000 of 30000000 tuples (23%) done (elapsed 7.86 s, remaining 25.84 s)
7100000 of 30000000 tuples (23%) done (elapsed 7.98 s, remaining 25.73 s)
7200000 of 30000000 tuples (24%) done (elapsed 8.09 s, remaining 25.62 s)
7300000 of 30000000 tuples (24%) done (elapsed 8.20 s, remaining 25.51 s)
7400000 of 30000000 tuples (24%) done (elapsed 8.31 s, remaining 25.39 s)
7500000 of 30000000 tuples (25%) done (elapsed 8.42 s, remaining 25.27 s)
7600000 of 30000000 tuples (25%) done (elapsed 8.54 s, remaining 25.16 s)
7700000 of 30000000 tuples (25%) done (elapsed 8.65 s, remaining 25.05 s)
7800000 of 30000000 tuples (26%) done (elapsed 8.78 s, remaining 24.98 s)
7900000 of 30000000 tuples (26%) done (elapsed 8.89 s, remaining 24.87 s)
8000000 of 30000000 tuples (26%) done (elapsed 9.00 s, remaining 24.75 s)
8100000 of 30000000 tuples (27%) done (elapsed 9.11 s, remaining 24.63 s)
8200000 of 30000000 tuples (27%) done (elapsed 9.22 s, remaining 24.52 s)
8300000 of 30000000 tuples (27%) done (elapsed 9.34 s, remaining 24.41 s)
8400000 of 30000000 tuples (28%) done (elapsed 9.45 s, remaining 24.30 s)
8500000 of 30000000 tuples (28%) done (elapsed 9.56 s, remaining 24.18 s)
8600000 of 30000000 tuples (28%) done (elapsed 9.67 s, remaining 24.07 s)
8700000 of 30000000 tuples (29%) done (elapsed 9.79 s, remaining 23.96 s)
8800000 of 30000000 tuples (29%) done (elapsed 9.89 s, remaining 23.84 s)
8900000 of 30000000 tuples (29%) done (elapsed 10.02 s, remaining 23.75 s)
9000000 of 30000000 tuples (30%) done (elapsed 10.13 s, remaining 23.63 s)
9100000 of 30000000 tuples (30%) done (elapsed 10.24 s, remaining 23.52 s)
9200000 of 30000000 tuples (30%) done (elapsed 10.35 s, remaining 23.40 s)
9300000 of 30000000 tuples (31%) done (elapsed 10.46 s, remaining 23.29 s)
9400000 of 30000000 tuples (31%) done (elapsed 10.57 s, remaining 23.17 s)
9500000 of 30000000 tuples (31%) done (elapsed 10.69 s, remaining 23.07 s)
9600000 of 30000000 tuples (32%) done (elapsed 10.80 s, remaining 22.95 s)
9700000 of 30000000 tuples (32%) done (elapsed 10.91 s, remaining 22.84 s)
9800000 of 30000000 tuples (32%) done (elapsed 11.02 s, remaining 22.72 s)
9900000 of 30000000 tuples (33%) done (elapsed 11.13 s, remaining 22.61 s)
10000000 of 30000000 tuples (33%) done (elapsed 11.25 s, remaining 22.49 s)
10100000 of 30000000 tuples (33%) done (elapsed 11.36 s, remaining 22.39 s)
10200000 of 30000000 tuples (34%) done (elapsed 11.47 s, remaining 22.27 s)
10300000 of 30000000 tuples (34%) done (elapsed 11.59 s, remaining 22.16 s)
10400000 of 30000000 tuples (34%) done (elapsed 11.70 s, remaining 22.06 s)
10500000 of 30000000 tuples (35%) done (elapsed 11.82 s, remaining 21.94 s)
10600000 of 30000000 tuples (35%) done (elapsed 11.93 s, remaining 21.84 s)
10700000 of 30000000 tuples (35%) done (elapsed 12.04 s, remaining 21.73 s)
10800000 of 30000000 tuples (36%) done (elapsed 12.16 s, remaining 21.62 s)
10900000 of 30000000 tuples (36%) done (elapsed 12.28 s, remaining 21.52 s)
11000000 of 30000000 tuples (36%) done (elapsed 12.40 s, remaining 21.42 s)
11100000 of 30000000 tuples (37%) done (elapsed 12.52 s, remaining 21.31 s)
11200000 of 30000000 tuples (37%) done (elapsed 12.64 s, remaining 21.21 s)
11300000 of 30000000 tuples (37%) done (elapsed 12.75 s, remaining 21.10 s)
11400000 of 30000000 tuples (38%) done (elapsed 12.87 s, remaining 21.00 s)
11500000 of 30000000 tuples (38%) done (elapsed 12.99 s, remaining 20.89 s)
11600000 of 30000000 tuples (38%) done (elapsed 13.10 s, remaining 20.78 s)
11700000 of 30000000 tuples (39%) done (elapsed 13.21 s, remaining 20.66 s)
11800000 of 30000000 tuples (39%) done (elapsed 13.33 s, remaining 20.55 s)
11900000 of 30000000 tuples (39%) done (elapsed 13.44 s, remaining 20.45 s)
12000000 of 30000000 tuples (40%) done (elapsed 13.56 s, remaining 20.34 s)
12100000 of 30000000 tuples (40%) done (elapsed 13.67 s, remaining 20.22 s)
12200000 of 30000000 tuples (40%) done (elapsed 13.78 s, remaining 20.11 s)
12300000 of 30000000 tuples (41%) done (elapsed 13.89 s, remaining 20.00 s)
12400000 of 30000000 tuples (41%) done (elapsed 14.01 s, remaining 19.88 s)
12500000 of 30000000 tuples (41%) done (elapsed 14.13 s, remaining 19.78 s)
12600000 of 30000000 tuples (42%) done (elapsed 14.24 s, remaining 19.67 s)
12700000 of 30000000 tuples (42%) done (elapsed 14.35 s, remaining 19.55 s)
12800000 of 30000000 tuples (42%) done (elapsed 14.47 s, remaining 19.44 s)
12900000 of 30000000 tuples (43%) done (elapsed 14.58 s, remaining 19.33 s)
13000000 of 30000000 tuples (43%) done (elapsed 14.70 s, remaining 19.22 s)
13100000 of 30000000 tuples (43%) done (elapsed 14.81 s, remaining 19.11 s)
13200000 of 30000000 tuples (44%) done (elapsed 14.92 s, remaining 19.00 s)
13300000 of 30000000 tuples (44%) done (elapsed 15.04 s, remaining 18.88 s)
13400000 of 30000000 tuples (44%) done (elapsed 15.16 s, remaining 18.77 s)
13500000 of 30000000 tuples (45%) done (elapsed 15.28 s, remaining 18.67 s)
13600000 of 30000000 tuples (45%) done (elapsed 15.40 s, remaining 18.57 s)
13700000 of 30000000 tuples (45%) done (elapsed 15.51 s, remaining 18.46 s)
13800000 of 30000000 tuples (46%) done (elapsed 15.63 s, remaining 18.35 s)
13900000 of 30000000 tuples (46%) done (elapsed 15.74 s, remaining 18.24 s)
14000000 of 30000000 tuples (46%) done (elapsed 15.86 s, remaining 18.13 s)
14100000 of 30000000 tuples (47%) done (elapsed 15.97 s, remaining 18.01 s)
14200000 of 30000000 tuples (47%) done (elapsed 16.09 s, remaining 17.90 s)
14300000 of 30000000 tuples (47%) done (elapsed 16.20 s, remaining 17.79 s)
14400000 of 30000000 tuples (48%) done (elapsed 16.33 s, remaining 17.69 s)
14500000 of 30000000 tuples (48%) done (elapsed 16.44 s, remaining 17.57 s)
14600000 of 30000000 tuples (48%) done (elapsed 16.56 s, remaining 17.47 s)
14700000 of 30000000 tuples (49%) done (elapsed 16.68 s, remaining 17.36 s)
14800000 of 30000000 tuples (49%) done (elapsed 16.79 s, remaining 17.25 s)
14900000 of 30000000 tuples (49%) done (elapsed 16.91 s, remaining 17.13 s)
15000000 of 30000000 tuples (50%) done (elapsed 17.02 s, remaining 17.02 s)
15100000 of 30000000 tuples (50%) done (elapsed 17.13 s, remaining 16.91 s)
15200000 of 30000000 tuples (50%) done (elapsed 17.25 s, remaining 16.79 s)
15300000 of 30000000 tuples (51%) done (elapsed 17.36 s, remaining 16.68 s)
15400000 of 30000000 tuples (51%) done (elapsed 17.48 s, remaining 16.57 s)
15500000 of 30000000 tuples (51%) done (elapsed 17.59 s, remaining 16.46 s)
15600000 of 30000000 tuples (52%) done (elapsed 17.71 s, remaining 16.34 s)
15700000 of 30000000 tuples (52%) done (elapsed 17.82 s, remaining 16.23 s)
15800000 of 30000000 tuples (52%) done (elapsed 17.93 s, remaining 16.12 s)
15900000 of 30000000 tuples (53%) done (elapsed 18.05 s, remaining 16.00 s)
16000000 of 30000000 tuples (53%) done (elapsed 18.16 s, remaining 15.89 s)
16100000 of 30000000 tuples (53%) done (elapsed 18.27 s, remaining 15.78 s)
16200000 of 30000000 tuples (54%) done (elapsed 18.39 s, remaining 15.66 s)
16300000 of 30000000 tuples (54%) done (elapsed 18.50 s, remaining 15.55 s)
16400000 of 30000000 tuples (54%) done (elapsed 18.61 s, remaining 15.44 s)
16500000 of 30000000 tuples (55%) done (elapsed 18.73 s, remaining 15.33 s)
16600000 of 30000000 tuples (55%) done (elapsed 18.85 s, remaining 15.22 s)
16700000 of 30000000 tuples (55%) done (elapsed 18.97 s, remaining 15.11 s)
16800000 of 30000000 tuples (56%) done (elapsed 19.08 s, remaining 14.99 s)
16900000 of 30000000 tuples (56%) done (elapsed 19.20 s, remaining 14.88 s)
17000000 of 30000000 tuples (56%) done (elapsed 19.31 s, remaining 14.77 s)
17100000 of 30000000 tuples (57%) done (elapsed 19.43 s, remaining 14.65 s)
17200000 of 30000000 tuples (57%) done (elapsed 19.54 s, remaining 14.54 s)
17300000 of 30000000 tuples (57%) done (elapsed 19.65 s, remaining 14.43 s)
17400000 of 30000000 tuples (58%) done (elapsed 19.77 s, remaining 14.32 s)
17500000 of 30000000 tuples (58%) done (elapsed 19.88 s, remaining 14.20 s)
17600000 of 30000000 tuples (58%) done (elapsed 20.00 s, remaining 14.09 s)
17700000 of 30000000 tuples (59%) done (elapsed 20.11 s, remaining 13.98 s)
17800000 of 30000000 tuples (59%) done (elapsed 20.23 s, remaining 13.86 s)
17900000 of 30000000 tuples (59%) done (elapsed 20.34 s, remaining 13.75 s)
18000000 of 30000000 tuples (60%) done (elapsed 20.46 s, remaining 13.64 s)
18100000 of 30000000 tuples (60%) done (elapsed 20.57 s, remaining 13.53 s)
18200000 of 30000000 tuples (60%) done (elapsed 20.70 s, remaining 13.42 s)
18300000 of 30000000 tuples (61%) done (elapsed 20.82 s, remaining 13.31 s)
18400000 of 30000000 tuples (61%) done (elapsed 20.94 s, remaining 13.20 s)
18500000 of 30000000 tuples (61%) done (elapsed 21.05 s, remaining 13.09 s)
18600000 of 30000000 tuples (62%) done (elapsed 21.17 s, remaining 12.97 s)
18700000 of 30000000 tuples (62%) done (elapsed 21.28 s, remaining 12.86 s)
18800000 of 30000000 tuples (62%) done (elapsed 21.40 s, remaining 12.75 s)
18900000 of 30000000 tuples (63%) done (elapsed 21.51 s, remaining 12.63 s)
19000000 of 30000000 tuples (63%) done (elapsed 21.62 s, remaining 12.52 s)
19100000 of 30000000 tuples (63%) done (elapsed 21.74 s, remaining 12.41 s)
19200000 of 30000000 tuples (64%) done (elapsed 21.85 s, remaining 12.29 s)
19300000 of 30000000 tuples (64%) done (elapsed 21.97 s, remaining 12.18 s)
19400000 of 30000000 tuples (64%) done (elapsed 22.09 s, remaining 12.07 s)
19500000 of 30000000 tuples (65%) done (elapsed 22.20 s, remaining 11.95 s)
19600000 of 30000000 tuples (65%) done (elapsed 22.31 s, remaining 11.84 s)
19700000 of 30000000 tuples (65%) done (elapsed 22.43 s, remaining 11.73 s)
19800000 of 30000000 tuples (66%) done (elapsed 22.54 s, remaining 11.61 s)
19900000 of 30000000 tuples (66%) done (elapsed 22.65 s, remaining 11.50 s)
20000000 of 30000000 tuples (66%) done (elapsed 22.77 s, remaining 11.38 s)
20100000 of 30000000 tuples (67%) done (elapsed 22.88 s, remaining 11.27 s)
20200000 of 30000000 tuples (67%) done (elapsed 23.00 s, remaining 11.16 s)
20300000 of 30000000 tuples (67%) done (elapsed 23.12 s, remaining 11.05 s)
20400000 of 30000000 tuples (68%) done (elapsed 23.23 s, remaining 10.93 s)
20500000 of 30000000 tuples (68%) done (elapsed 23.35 s, remaining 10.82 s)
20600000 of 30000000 tuples (68%) done (elapsed 23.46 s, remaining 10.70 s)
20700000 of 30000000 tuples (69%) done (elapsed 23.57 s, remaining 10.59 s)
20800000 of 30000000 tuples (69%) done (elapsed 23.69 s, remaining 10.48 s)
20900000 of 30000000 tuples (69%) done (elapsed 23.81 s, remaining 10.37 s)
21000000 of 30000000 tuples (70%) done (elapsed 23.92 s, remaining 10.25 s)
21100000 of 30000000 tuples (70%) done (elapsed 24.03 s, remaining 10.14 s)
21200000 of 30000000 tuples (70%) done (elapsed 24.15 s, remaining 10.02 s)
21300000 of 30000000 tuples (71%) done (elapsed 24.26 s, remaining 9.91 s)
21400000 of 30000000 tuples (71%) done (elapsed 24.37 s, remaining 9.79 s)
21500000 of 30000000 tuples (71%) done (elapsed 24.49 s, remaining 9.68 s)
21600000 of 30000000 tuples (72%) done (elapsed 24.60 s, remaining 9.57 s)
21700000 of 30000000 tuples (72%) done (elapsed 24.72 s, remaining 9.46 s)
21800000 of 30000000 tuples (72%) done (elapsed 24.83 s, remaining 9.34 s)
21900000 of 30000000 tuples (73%) done (elapsed 24.95 s, remaining 9.23 s)
22000000 of 30000000 tuples (73%) done (elapsed 25.06 s, remaining 9.11 s)
22100000 of 30000000 tuples (73%) done (elapsed 25.18 s, remaining 9.00 s)
22200000 of 30000000 tuples (74%) done (elapsed 25.29 s, remaining 8.89 s)
22300000 of 30000000 tuples (74%) done (elapsed 25.41 s, remaining 8.77 s)
22400000 of 30000000 tuples (74%) done (elapsed 25.52 s, remaining 8.66 s)
22500000 of 30000000 tuples (75%) done (elapsed 25.64 s, remaining 8.55 s)
22600000 of 30000000 tuples (75%) done (elapsed 25.75 s, remaining 8.43 s)
22700000 of 30000000 tuples (75%) done (elapsed 25.87 s, remaining 8.32 s)
22800000 of 30000000 tuples (76%) done (elapsed 25.98 s, remaining 8.20 s)
22900000 of 30000000 tuples (76%) done (elapsed 26.10 s, remaining 8.09 s)
23000000 of 30000000 tuples (76%) done (elapsed 26.21 s, remaining 7.98 s)
23100000 of 30000000 tuples (77%) done (elapsed 26.32 s, remaining 7.86 s)
23200000 of 30000000 tuples (77%) done (elapsed 26.44 s, remaining 7.75 s)
23300000 of 30000000 tuples (77%) done (elapsed 26.55 s, remaining 7.64 s)
23400000 of 30000000 tuples (78%) done (elapsed 26.68 s, remaining 7.52 s)
23500000 of 30000000 tuples (78%) done (elapsed 26.79 s, remaining 7.41 s)
23600000 of 30000000 tuples (78%) done (elapsed 26.91 s, remaining 7.30 s)
23700000 of 30000000 tuples (79%) done (elapsed 27.03 s, remaining 7.18 s)
23800000 of 30000000 tuples (79%) done (elapsed 27.14 s, remaining 7.07 s)
23900000 of 30000000 tuples (79%) done (elapsed 27.26 s, remaining 6.96 s)
24000000 of 30000000 tuples (80%) done (elapsed 27.38 s, remaining 6.84 s)
24100000 of 30000000 tuples (80%) done (elapsed 27.50 s, remaining 6.73 s)
24200000 of 30000000 tuples (80%) done (elapsed 27.61 s, remaining 6.62 s)
24300000 of 30000000 tuples (81%) done (elapsed 27.73 s, remaining 6.50 s)
24400000 of 30000000 tuples (81%) done (elapsed 27.84 s, remaining 6.39 s)
24500000 of 30000000 tuples (81%) done (elapsed 27.96 s, remaining 6.28 s)
24600000 of 30000000 tuples (82%) done (elapsed 28.07 s, remaining 6.16 s)
24700000 of 30000000 tuples (82%) done (elapsed 28.19 s, remaining 6.05 s)
24800000 of 30000000 tuples (82%) done (elapsed 28.31 s, remaining 5.94 s)
24900000 of 30000000 tuples (83%) done (elapsed 28.44 s, remaining 5.83 s)
25000000 of 30000000 tuples (83%) done (elapsed 28.55 s, remaining 5.71 s)
25100000 of 30000000 tuples (83%) done (elapsed 28.68 s, remaining 5.60 s)
25200000 of 30000000 tuples (84%) done (elapsed 28.80 s, remaining 5.49 s)
25300000 of 30000000 tuples (84%) done (elapsed 28.92 s, remaining 5.37 s)
25400000 of 30000000 tuples (84%) done (elapsed 29.03 s, remaining 5.26 s)
25500000 of 30000000 tuples (85%) done (elapsed 29.15 s, remaining 5.14 s)
25600000 of 30000000 tuples (85%) done (elapsed 29.26 s, remaining 5.03 s)
25700000 of 30000000 tuples (85%) done (elapsed 29.38 s, remaining 4.92 s)
25800000 of 30000000 tuples (86%) done (elapsed 29.50 s, remaining 4.80 s)
25900000 of 30000000 tuples (86%) done (elapsed 29.62 s, remaining 4.69 s)
26000000 of 30000000 tuples (86%) done (elapsed 29.73 s, remaining 4.57 s)
26100000 of 30000000 tuples (87%) done (elapsed 29.85 s, remaining 4.46 s)
26200000 of 30000000 tuples (87%) done (elapsed 29.97 s, remaining 4.35 s)
26300000 of 30000000 tuples (87%) done (elapsed 30.09 s, remaining 4.23 s)
26400000 of 30000000 tuples (88%) done (elapsed 30.20 s, remaining 4.12 s)
26500000 of 30000000 tuples (88%) done (elapsed 30.32 s, remaining 4.00 s)
26600000 of 30000000 tuples (88%) done (elapsed 30.43 s, remaining 3.89 s)
26700000 of 30000000 tuples (89%) done (elapsed 30.54 s, remaining 3.78 s)
26800000 of 30000000 tuples (89%) done (elapsed 30.66 s, remaining 3.66 s)
26900000 of 30000000 tuples (89%) done (elapsed 30.78 s, remaining 3.55 s)
27000000 of 30000000 tuples (90%) done (elapsed 30.89 s, remaining 3.43 s)
27100000 of 30000000 tuples (90%) done (elapsed 31.01 s, remaining 3.32 s)
27200000 of 30000000 tuples (90%) done (elapsed 31.13 s, remaining 3.20 s)
27300000 of 30000000 tuples (91%) done (elapsed 31.25 s, remaining 3.09 s)
27400000 of 30000000 tuples (91%) done (elapsed 31.36 s, remaining 2.98 s)
27500000 of 30000000 tuples (91%) done (elapsed 31.48 s, remaining 2.86 s)
27600000 of 30000000 tuples (92%) done (elapsed 31.60 s, remaining 2.75 s)
27700000 of 30000000 tuples (92%) done (elapsed 31.71 s, remaining 2.63 s)
27800000 of 30000000 tuples (92%) done (elapsed 31.84 s, remaining 2.52 s)
27900000 of 30000000 tuples (93%) done (elapsed 31.95 s, remaining 2.40 s)
28000000 of 30000000 tuples (93%) done (elapsed 32.06 s, remaining 2.29 s)
28100000 of 30000000 tuples (93%) done (elapsed 32.18 s, remaining 2.18 s)
28200000 of 30000000 tuples (94%) done (elapsed 32.30 s, remaining 2.06 s)
28300000 of 30000000 tuples (94%) done (elapsed 32.42 s, remaining 1.95 s)
28400000 of 30000000 tuples (94%) done (elapsed 32.54 s, remaining 1.83 s)
28500000 of 30000000 tuples (95%) done (elapsed 32.65 s, remaining 1.72 s)
28600000 of 30000000 tuples (95%) done (elapsed 32.76 s, remaining 1.60 s)
28700000 of 30000000 tuples (95%) done (elapsed 32.88 s, remaining 1.49 s)
28800000 of 30000000 tuples (96%) done (elapsed 32.99 s, remaining 1.37 s)
28900000 of 30000000 tuples (96%) done (elapsed 33.11 s, remaining 1.26 s)
29000000 of 30000000 tuples (96%) done (elapsed 33.22 s, remaining 1.15 s)
29100000 of 30000000 tuples (97%) done (elapsed 33.34 s, remaining 1.03 s)
29200000 of 30000000 tuples (97%) done (elapsed 33.46 s, remaining 0.92 s)
29300000 of 30000000 tuples (97%) done (elapsed 33.58 s, remaining 0.80 s)
29400000 of 30000000 tuples (98%) done (elapsed 33.70 s, remaining 0.69 s)
29500000 of 30000000 tuples (98%) done (elapsed 33.82 s, remaining 0.57 s)
29600000 of 30000000 tuples (98%) done (elapsed 33.93 s, remaining 0.46 s)
29700000 of 30000000 tuples (99%) done (elapsed 34.05 s, remaining 0.34 s)
29800000 of 30000000 tuples (99%) done (elapsed 34.17 s, remaining 0.23 s)
29900000 of 30000000 tuples (99%) done (elapsed 34.29 s, remaining 0.11 s)
30000000 of 30000000 tuples (100%) done (elapsed 34.41 s, remaining 0.00 s)
vacuum...
set primary keys...
done.
