starting vacuum...end.
transaction type: /srv/data/pg/tools2/dilip-300.sql
scaling factor: 1
query mode: prepared
number of clients: 144
number of threads: 36
duration: 300 s
number of transactions actually processed: 8776165
latency average = 4.930 ms
tps = 29206.597851 (including connections establishing)
tps = 29208.218685 (excluding connections establishing)
