starting vacuum...end.
transaction type: /srv/data/pg/tools2/dilip-300.sql
scaling factor: 1
query mode: prepared
number of clients: 288
number of threads: 72
duration: 300 s
number of transactions actually processed: 8828108
latency average = 9.827 ms
tps = 29305.571095 (including connections establishing)
tps = 29308.357092 (excluding connections establishing)
