starting vacuum...end.
transaction type: /srv/data/pg/tools2/dilip-300.sql
scaling factor: 1
query mode: prepared
number of clients: 72
number of threads: 18
duration: 300 s
number of transactions actually processed: 10116996
latency average = 2.137 ms
tps = 33695.740822 (including connections establishing)
tps = 33696.589804 (excluding connections establishing)
