starting vacuum...end.
transaction type: <builtin: TPC-B (sort of)>
scaling factor: 300
query mode: prepared
number of clients: 252
number of threads: 63
duration: 300 s
number of transactions actually processed: 8539657
latency average = 8.886 ms
tps = 28358.101145 (including connections establishing)
tps = 28361.081990 (excluding connections establishing)
