starting vacuum...end.
transaction type: <builtin: simple update>
scaling factor: 2000
query mode: prepared
number of clients: 216
number of threads: 54
duration: 300 s
number of transactions actually processed: 3631236
latency average = 17.965 ms
tps = 12023.283696 (including connections establishing)
tps = 12025.654608 (excluding connections establishing)
