2016-12-24 06:30:38.824 UTC LOG:  database system was shut down at 2016-12-24 06:30:38 UTC
2016-12-24 06:30:38.825 UTC LOG:  MultiXact member wraparound protections are now enabled
2016-12-24 06:30:38.826 UTC FATAL:  the database system is starting up
2016-12-24 06:30:38.826 UTC LOG:  database system is ready to accept connections
2016-12-24 06:30:38.828 UTC LOG:  autovacuum launcher started
2016-12-24 06:30:39.093 UTC FATAL:  database "pgbench" does not exist
2016-12-24 06:30:39.097 UTC FATAL:  database "pgbench" does not exist
2016-12-24 06:30:39.100 UTC FATAL:  database "pgbench" does not exist
2016-12-24 06:30:39.104 UTC FATAL:  database "pgbench" does not exist
2016-12-24 06:30:39.109 UTC FATAL:  database "pgbench" does not exist
2016-12-24 06:30:39.113 UTC FATAL:  database "pgbench" does not exist
2016-12-24 06:30:39.117 UTC FATAL:  database "pgbench" does not exist
2016-12-24 06:30:39.745 UTC LOG:  checkpoint starting: immediate force wait flush-all
2016-12-24 06:30:39.906 UTC LOG:  checkpoint complete: wrote 3 buffers (0.0%); 0 transaction log file(s) added, 0 removed, 0 recycled; write=0.160 s, sync=0.000 s, total=0.160 s; sync files=3, longest=0.000 s, average=0.000 s; distance=1 kB, estimate=1 kB
2016-12-24 06:30:39.961 UTC LOG:  checkpoint starting: immediate force wait
2016-12-24 06:30:40.093 UTC LOG:  checkpoint complete: wrote 0 buffers (0.0%); 0 transaction log file(s) added, 0 removed, 0 recycled; write=0.132 s, sync=0.000 s, total=0.132 s; sync files=0, longest=0.000 s, average=0.000 s; distance=0 kB, estimate=1 kB
2016-12-24 06:30:40.136 UTC FATAL:  database "pgbench" does not exist
2016-12-24 06:30:40.140 UTC FATAL:  database "pgbench" does not exist
2016-12-24 06:30:40.144 UTC FATAL:  database "pgbench" does not exist
2016-12-24 06:30:40.148 UTC FATAL:  database "pgbench" does not exist
2016-12-24 06:30:40.152 UTC FATAL:  database "pgbench" does not exist
2016-12-24 06:30:40.157 UTC FATAL:  database "pgbench" does not exist
2016-12-24 06:30:40.161 UTC FATAL:  database "pgbench" does not exist
2016-12-24 06:36:47.685 UTC LOG:  checkpoint starting: immediate force wait
2016-12-24 06:36:47.829 UTC LOG:  checkpoint complete: wrote 116 buffers (0.0%); 1 transaction log file(s) added, 0 removed, 0 recycled; write=0.135 s, sync=0.000 s, total=0.144 s; sync files=59, longest=0.000 s, average=0.000 s; distance=516114 kB, estimate=516114 kB
2016-12-24 06:41:50.824 UTC LOG:  checkpoint starting: immediate force wait
2016-12-24 06:41:50.965 UTC LOG:  checkpoint complete: wrote 59 buffers (0.0%); 0 transaction log file(s) added, 0 removed, 31 recycled; write=0.136 s, sync=0.000 s, total=0.140 s; sync files=13, longest=0.000 s, average=0.000 s; distance=491880 kB, estimate=513690 kB
2016-12-24 06:46:56.659 UTC LOG:  checkpoint starting: immediate force wait
2016-12-24 06:46:56.813 UTC LOG:  checkpoint complete: wrote 74 buffers (0.0%); 0 transaction log file(s) added, 0 removed, 30 recycled; write=0.149 s, sync=0.000 s, total=0.153 s; sync files=25, longest=0.000 s, average=0.000 s; distance=502793 kB, estimate=512601 kB
2016-12-24 06:52:04.828 UTC LOG:  checkpoint starting: immediate force wait
2016-12-24 06:52:04.967 UTC LOG:  checkpoint complete: wrote 59 buffers (0.0%); 0 transaction log file(s) added, 0 removed, 31 recycled; write=0.134 s, sync=0.000 s, total=0.138 s; sync files=13, longest=0.000 s, average=0.000 s; distance=487962 kB, estimate=510137 kB
2016-12-24 06:57:14.099 UTC LOG:  checkpoint starting: immediate force wait
2016-12-24 06:57:14.239 UTC LOG:  checkpoint complete: wrote 59 buffers (0.0%); 0 transaction log file(s) added, 0 removed, 30 recycled; write=0.136 s, sync=0.000 s, total=0.140 s; sync files=13, longest=0.000 s, average=0.000 s; distance=453153 kB, estimate=504438 kB
2016-12-24 07:02:24.912 UTC LOG:  checkpoint starting: immediate force wait
2016-12-24 07:02:25.053 UTC LOG:  checkpoint complete: wrote 61 buffers (0.0%); 0 transaction log file(s) added, 0 removed, 27 recycled; write=0.137 s, sync=0.000 s, total=0.141 s; sync files=13, longest=0.000 s, average=0.000 s; distance=451816 kB, estimate=499176 kB
2016-12-24 07:07:36.505 UTC LOG:  checkpoint starting: immediate force wait
2016-12-24 07:07:36.648 UTC LOG:  checkpoint complete: wrote 59 buffers (0.0%); 0 transaction log file(s) added, 0 removed, 28 recycled; write=0.139 s, sync=0.000 s, total=0.143 s; sync files=13, longest=0.000 s, average=0.000 s; distance=444362 kB, estimate=493695 kB
2016-12-24 07:12:53.444 UTC LOG:  checkpoint starting: immediate force wait
2016-12-24 07:12:53.590 UTC LOG:  checkpoint complete: wrote 67 buffers (0.0%); 0 transaction log file(s) added, 0 removed, 27 recycled; write=0.141 s, sync=0.000 s, total=0.145 s; sync files=18, longest=0.000 s, average=0.000 s; distance=437327 kB, estimate=488058 kB
2016-12-24 07:18:07.123 UTC LOG:  checkpoint starting: immediate force wait
2016-12-24 07:18:07.265 UTC LOG:  checkpoint complete: wrote 62 buffers (0.0%); 0 transaction log file(s) added, 0 removed, 27 recycled; write=0.135 s, sync=0.000 s, total=0.141 s; sync files=14, longest=0.000 s, average=0.000 s; distance=458325 kB, estimate=485085 kB
2016-12-24 07:23:10.305 UTC LOG:  checkpoint starting: immediate force wait
2016-12-24 07:23:10.442 UTC LOG:  checkpoint complete: wrote 62 buffers (0.0%); 0 transaction log file(s) added, 0 removed, 28 recycled; write=0.132 s, sync=0.000 s, total=0.137 s; sync files=13, longest=0.000 s, average=0.000 s; distance=481800 kB, estimate=484756 kB
2016-12-24 07:28:16.203 UTC LOG:  checkpoint starting: immediate force wait
2016-12-24 07:28:16.342 UTC LOG:  checkpoint complete: wrote 87 buffers (0.0%); 0 transaction log file(s) added, 0 removed, 29 recycled; write=0.133 s, sync=0.000 s, total=0.138 s; sync files=17, longest=0.000 s, average=0.000 s; distance=488381 kB, estimate=488381 kB
2016-12-24 07:33:24.298 UTC LOG:  checkpoint starting: immediate force wait
2016-12-24 07:33:24.438 UTC LOG:  checkpoint complete: wrote 62 buffers (0.0%); 0 transaction log file(s) added, 0 removed, 30 recycled; write=0.135 s, sync=0.000 s, total=0.140 s; sync files=13, longest=0.000 s, average=0.000 s; distance=478361 kB, estimate=487379 kB
2016-12-24 07:38:37.388 UTC LOG:  checkpoint starting: immediate force wait
2016-12-24 07:38:37.530 UTC LOG:  checkpoint complete: wrote 63 buffers (0.0%); 0 transaction log file(s) added, 0 removed, 29 recycled; write=0.137 s, sync=0.000 s, total=0.141 s; sync files=14, longest=0.000 s, average=0.000 s; distance=460171 kB, estimate=484658 kB
2016-12-24 07:43:47.421 UTC LOG:  checkpoint starting: immediate force wait
2016-12-24 07:43:47.563 UTC LOG:  checkpoint complete: wrote 60 buffers (0.0%); 0 transaction log file(s) added, 0 removed, 28 recycled; write=0.138 s, sync=0.000 s, total=0.142 s; sync files=14, longest=0.000 s, average=0.000 s; distance=469050 kB, estimate=483098 kB
2016-12-24 07:48:59.350 UTC LOG:  checkpoint starting: immediate force wait
2016-12-24 07:48:59.490 UTC LOG:  checkpoint complete: wrote 59 buffers (0.0%); 0 transaction log file(s) added, 0 removed, 29 recycled; write=0.135 s, sync=0.000 s, total=0.139 s; sync files=13, longest=0.000 s, average=0.000 s; distance=464931 kB, estimate=481281 kB
2016-12-24 07:54:12.180 UTC LOG:  checkpoint starting: immediate force wait
2016-12-24 07:54:12.320 UTC LOG:  checkpoint complete: wrote 61 buffers (0.0%); 0 transaction log file(s) added, 0 removed, 28 recycled; write=0.135 s, sync=0.000 s, total=0.139 s; sync files=13, longest=0.000 s, average=0.000 s; distance=454401 kB, estimate=478593 kB
2016-12-24 07:59:25.625 UTC LOG:  checkpoint starting: immediate force wait
2016-12-24 07:59:25.769 UTC LOG:  checkpoint complete: wrote 61 buffers (0.0%); 0 transaction log file(s) added, 0 removed, 28 recycled; write=0.139 s, sync=0.000 s, total=0.143 s; sync files=13, longest=0.000 s, average=0.000 s; distance=444030 kB, estimate=475137 kB
2016-12-24 08:04:28.863 UTC LOG:  checkpoint starting: immediate force wait
2016-12-24 08:04:29.005 UTC LOG:  checkpoint complete: wrote 68 buffers (0.0%); 0 transaction log file(s) added, 0 removed, 27 recycled; write=0.135 s, sync=0.000 s, total=0.141 s; sync files=15, longest=0.000 s, average=0.000 s; distance=471521 kB, estimate=474775 kB
2016-12-24 08:09:38.521 UTC LOG:  checkpoint starting: immediate force wait
2016-12-24 08:09:38.665 UTC LOG:  checkpoint complete: wrote 62 buffers (0.0%); 0 transaction log file(s) added, 0 removed, 29 recycled; write=0.139 s, sync=0.000 s, total=0.144 s; sync files=14, longest=0.000 s, average=0.000 s; distance=493171 kB, estimate=493171 kB
2016-12-24 08:14:46.583 UTC LOG:  checkpoint starting: immediate force wait
2016-12-24 08:14:46.722 UTC LOG:  checkpoint complete: wrote 62 buffers (0.0%); 0 transaction log file(s) added, 0 removed, 30 recycled; write=0.134 s, sync=0.000 s, total=0.138 s; sync files=14, longest=0.000 s, average=0.000 s; distance=477083 kB, estimate=491562 kB
2016-12-24 08:19:56.225 UTC LOG:  checkpoint starting: immediate force wait
2016-12-24 08:19:56.364 UTC LOG:  checkpoint complete: wrote 76 buffers (0.0%); 0 transaction log file(s) added, 0 removed, 29 recycled; write=0.134 s, sync=0.000 s, total=0.139 s; sync files=16, longest=0.000 s, average=0.000 s; distance=476032 kB, estimate=490009 kB
2016-12-24 08:25:06.844 UTC LOG:  checkpoint starting: immediate force wait
2016-12-24 08:25:06.987 UTC LOG:  checkpoint complete: wrote 61 buffers (0.0%); 0 transaction log file(s) added, 0 removed, 29 recycled; write=0.138 s, sync=0.000 s, total=0.142 s; sync files=13, longest=0.000 s, average=0.000 s; distance=455459 kB, estimate=486554 kB
2016-12-24 08:30:18.200 UTC LOG:  checkpoint starting: immediate force wait
2016-12-24 08:30:18.340 UTC LOG:  checkpoint complete: wrote 61 buffers (0.0%); 0 transaction log file(s) added, 0 removed, 28 recycled; write=0.135 s, sync=0.000 s, total=0.140 s; sync files=13, longest=0.000 s, average=0.000 s; distance=450298 kB, estimate=482928 kB
2016-12-24 08:35:30.514 UTC LOG:  checkpoint starting: immediate force wait
2016-12-24 08:35:30.658 UTC LOG:  checkpoint complete: wrote 61 buffers (0.0%); 0 transaction log file(s) added, 0 removed, 28 recycled; write=0.138 s, sync=0.000 s, total=0.143 s; sync files=13, longest=0.000 s, average=0.000 s; distance=444710 kB, estimate=479107 kB
2016-12-24 08:40:41.444 UTC LOG:  received fast shutdown request
2016-12-24 08:40:41.610 UTC LOG:  aborting any active transactions
2016-12-24 08:40:41.646 UTC FATAL:  terminating connection due to administrator command
2016-12-24 08:40:41.668 UTC FATAL:  the database system is shutting down
2016-12-24 08:40:41.714 UTC LOG:  autovacuum launcher shutting down
2016-12-24 08:40:42.015 UTC FATAL:  the database system is shutting down
2016-12-24 08:40:42.038 UTC FATAL:  the database system is shutting down
2016-12-24 08:40:42.148 UTC FATAL:  the database system is shutting down
2016-12-24 08:40:42.208 UTC FATAL:  the database system is shutting down
2016-12-24 08:40:42.266 UTC FATAL:  the database system is shutting down
2016-12-24 08:40:42.931 UTC FATAL:  the database system is shutting down
2016-12-24 08:40:42.962 UTC FATAL:  the database system is shutting down
2016-12-24 08:40:42.963 UTC FATAL:  the database system is shutting down
2016-12-24 08:40:42.978 UTC FATAL:  the database system is shutting down
2016-12-24 08:40:42.985 UTC FATAL:  the database system is shutting down
2016-12-24 08:40:43.011 UTC FATAL:  the database system is shutting down
2016-12-24 08:40:43.028 UTC FATAL:  the database system is shutting down
2016-12-24 08:40:43.044 UTC FATAL:  the database system is shutting down
2016-12-24 08:40:43.057 UTC FATAL:  the database system is shutting down
2016-12-24 08:40:43.072 UTC FATAL:  the database system is shutting down
2016-12-24 08:40:43.086 UTC FATAL:  the database system is shutting down
2016-12-24 08:40:43.102 UTC FATAL:  the database system is shutting down
2016-12-24 08:40:43.115 UTC FATAL:  the database system is shutting down
2016-12-24 08:40:43.125 UTC FATAL:  the database system is shutting down
2016-12-24 08:40:43.136 UTC FATAL:  the database system is shutting down
2016-12-24 08:40:43.145 UTC FATAL:  the database system is shutting down
2016-12-24 08:40:43.153 UTC FATAL:  the database system is shutting down
2016-12-24 08:40:43.163 UTC FATAL:  the database system is shutting down
2016-12-24 08:40:43.170 UTC FATAL:  the database system is shutting down
2016-12-24 08:40:43.177 UTC FATAL:  the database system is shutting down
2016-12-24 08:40:43.183 UTC FATAL:  the database system is shutting down
2016-12-24 08:40:43.190 UTC FATAL:  the database system is shutting down
2016-12-24 08:40:43.195 UTC FATAL:  the database system is shutting down
2016-12-24 08:40:43.200 UTC FATAL:  the database system is shutting down
2016-12-24 08:40:43.205 UTC FATAL:  the database system is shutting down
2016-12-24 08:40:43.210 UTC FATAL:  the database system is shutting down
2016-12-24 08:40:43.216 UTC FATAL:  the database system is shutting down
2016-12-24 08:40:43.220 UTC FATAL:  the database system is shutting down
2016-12-24 08:40:43.224 UTC FATAL:  the database system is shutting down
2016-12-24 08:40:43.228 UTC FATAL:  the database system is shutting down
2016-12-24 08:40:43.231 UTC FATAL:  the database system is shutting down
2016-12-24 08:40:43.233 UTC FATAL:  the database system is shutting down
2016-12-24 08:40:43.236 UTC LOG:  shutting down
2016-12-24 08:40:43.236 UTC LOG:  checkpoint starting: shutdown immediate
2016-12-24 08:40:43.236 UTC FATAL:  the database system is shutting down
2016-12-24 08:40:43.238 UTC FATAL:  the database system is shutting down
2016-12-24 08:40:43.241 UTC FATAL:  the database system is shutting down
2016-12-24 08:40:43.243 UTC FATAL:  the database system is shutting down
2016-12-24 08:40:43.245 UTC FATAL:  the database system is shutting down
2016-12-24 08:40:43.247 UTC FATAL:  the database system is shutting down
2016-12-24 08:40:43.250 UTC FATAL:  the database system is shutting down
2016-12-24 08:40:43.252 UTC FATAL:  the database system is shutting down
2016-12-24 08:40:43.255 UTC FATAL:  the database system is shutting down
2016-12-24 08:40:43.257 UTC FATAL:  the database system is shutting down
2016-12-24 08:40:43.259 UTC FATAL:  the database system is shutting down
2016-12-24 08:40:43.262 UTC FATAL:  the database system is shutting down
2016-12-24 08:40:43.264 UTC FATAL:  the database system is shutting down
2016-12-24 08:40:43.266 UTC FATAL:  the database system is shutting down
2016-12-24 08:40:43.269 UTC FATAL:  the database system is shutting down
2016-12-24 08:40:43.271 UTC FATAL:  the database system is shutting down
2016-12-24 08:40:43.273 UTC FATAL:  the database system is shutting down
2016-12-24 08:40:43.276 UTC FATAL:  the database system is shutting down
2016-12-24 08:40:43.278 UTC FATAL:  the database system is shutting down
2016-12-24 08:40:43.280 UTC FATAL:  the database system is shutting down
2016-12-24 08:40:43.282 UTC FATAL:  the database system is shutting down
2016-12-24 08:40:43.284 UTC FATAL:  the database system is shutting down
2016-12-24 08:40:43.287 UTC FATAL:  the database system is shutting down
2016-12-24 08:40:43.290 UTC FATAL:  the database system is shutting down
2016-12-24 08:40:43.292 UTC FATAL:  the database system is shutting down
2016-12-24 08:40:43.294 UTC FATAL:  the database system is shutting down
2016-12-24 08:40:43.297 UTC FATAL:  the database system is shutting down
2016-12-24 08:40:43.300 UTC FATAL:  the database system is shutting down
2016-12-24 08:40:43.302 UTC FATAL:  the database system is shutting down
2016-12-24 08:40:43.305 UTC FATAL:  the database system is shutting down
2016-12-24 08:40:43.307 UTC FATAL:  the database system is shutting down
2016-12-24 08:40:43.309 UTC FATAL:  the database system is shutting down
2016-12-24 08:40:43.312 UTC FATAL:  the database system is shutting down
2016-12-24 08:40:43.314 UTC FATAL:  the database system is shutting down
2016-12-24 08:40:43.316 UTC FATAL:  the database system is shutting down
2016-12-24 08:40:43.318 UTC FATAL:  the database system is shutting down
2016-12-24 08:40:43.321 UTC FATAL:  the database system is shutting down
2016-12-24 08:40:43.323 UTC FATAL:  the database system is shutting down
2016-12-24 08:40:43.325 UTC FATAL:  the database system is shutting down
2016-12-24 08:40:43.328 UTC FATAL:  the database system is shutting down
2016-12-24 08:40:43.331 UTC FATAL:  the database system is shutting down
2016-12-24 08:40:43.333 UTC FATAL:  the database system is shutting down
2016-12-24 08:40:43.336 UTC FATAL:  the database system is shutting down
2016-12-24 08:40:43.338 UTC FATAL:  the database system is shutting down
2016-12-24 08:40:43.340 UTC FATAL:  the database system is shutting down
2016-12-24 08:40:43.342 UTC FATAL:  the database system is shutting down
2016-12-24 08:40:43.345 UTC FATAL:  the database system is shutting down
2016-12-24 08:40:43.347 UTC FATAL:  the database system is shutting down
2016-12-24 08:40:43.350 UTC FATAL:  the database system is shutting down
2016-12-24 08:40:43.352 UTC FATAL:  the database system is shutting down
2016-12-24 08:40:43.354 UTC FATAL:  the database system is shutting down
2016-12-24 08:40:43.357 UTC FATAL:  the database system is shutting down
2016-12-24 08:40:43.360 UTC FATAL:  the database system is shutting down
2016-12-24 08:40:43.362 UTC FATAL:  the database system is shutting down
2016-12-24 08:40:43.364 UTC FATAL:  the database system is shutting down
2016-12-24 08:40:43.367 UTC FATAL:  the database system is shutting down
2016-12-24 08:40:43.369 UTC FATAL:  the database system is shutting down
2016-12-24 08:40:43.371 UTC FATAL:  the database system is shutting down
2016-12-24 08:40:43.374 UTC FATAL:  the database system is shutting down
2016-12-24 08:40:43.376 UTC FATAL:  the database system is shutting down
2016-12-24 08:40:43.378 UTC FATAL:  the database system is shutting down
2016-12-24 08:40:43.380 UTC FATAL:  the database system is shutting down
2016-12-24 08:40:43.383 UTC FATAL:  the database system is shutting down
2016-12-24 08:40:43.385 UTC FATAL:  the database system is shutting down
2016-12-24 08:40:43.388 UTC FATAL:  the database system is shutting down
2016-12-24 08:40:43.390 UTC FATAL:  the database system is shutting down
2016-12-24 08:40:43.392 UTC FATAL:  the database system is shutting down
2016-12-24 08:40:43.395 UTC FATAL:  the database system is shutting down
2016-12-24 08:40:43.397 UTC FATAL:  the database system is shutting down
2016-12-24 08:40:43.399 UTC FATAL:  the database system is shutting down
2016-12-24 08:40:43.402 UTC FATAL:  the database system is shutting down
2016-12-24 08:40:43.404 UTC FATAL:  the database system is shutting down
2016-12-24 08:40:43.406 UTC FATAL:  the database system is shutting down
2016-12-24 08:40:43.408 UTC FATAL:  the database system is shutting down
2016-12-24 08:40:43.410 UTC FATAL:  the database system is shutting down
2016-12-24 08:40:43.413 UTC FATAL:  the database system is shutting down
2016-12-24 08:40:43.415 UTC FATAL:  the database system is shutting down
2016-12-24 08:40:43.417 UTC FATAL:  the database system is shutting down
2016-12-24 08:40:43.419 UTC FATAL:  the database system is shutting down
2016-12-24 08:40:43.422 UTC FATAL:  the database system is shutting down
2016-12-24 08:40:43.424 UTC FATAL:  the database system is shutting down
2016-12-24 08:40:43.427 UTC FATAL:  the database system is shutting down
2016-12-24 08:40:43.429 UTC FATAL:  the database system is shutting down
2016-12-24 08:40:43.432 UTC FATAL:  the database system is shutting down
2016-12-24 08:40:43.435 UTC FATAL:  the database system is shutting down
2016-12-24 08:40:43.437 UTC FATAL:  the database system is shutting down
2016-12-24 08:40:43.439 UTC FATAL:  the database system is shutting down
2016-12-24 08:40:43.442 UTC FATAL:  the database system is shutting down
2016-12-24 08:40:43.444 UTC FATAL:  the database system is shutting down
2016-12-24 08:40:43.447 UTC FATAL:  the database system is shutting down
2016-12-24 08:40:43.449 UTC FATAL:  the database system is shutting down
2016-12-24 08:40:43.452 UTC FATAL:  the database system is shutting down
2016-12-24 08:40:43.454 UTC FATAL:  the database system is shutting down
2016-12-24 08:40:43.457 UTC FATAL:  the database system is shutting down
2016-12-24 08:40:43.460 UTC FATAL:  the database system is shutting down
2016-12-24 08:40:43.462 UTC FATAL:  the database system is shutting down
2016-12-24 08:40:43.464 UTC FATAL:  the database system is shutting down
2016-12-24 08:40:43.467 UTC FATAL:  the database system is shutting down
2016-12-24 08:40:43.469 UTC FATAL:  the database system is shutting down
2016-12-24 08:40:43.472 UTC FATAL:  the database system is shutting down
2016-12-24 08:40:43.474 UTC FATAL:  the database system is shutting down
2016-12-24 08:40:43.477 UTC FATAL:  the database system is shutting down
2016-12-24 08:40:43.479 UTC FATAL:  the database system is shutting down
2016-12-24 08:40:43.482 UTC FATAL:  the database system is shutting down
2016-12-24 08:40:43.484 UTC FATAL:  the database system is shutting down
2016-12-24 08:40:43.487 UTC FATAL:  the database system is shutting down
2016-12-24 08:40:43.489 UTC FATAL:  the database system is shutting down
2016-12-24 08:40:43.492 UTC FATAL:  the database system is shutting down
2016-12-24 08:40:43.494 UTC FATAL:  the database system is shutting down
2016-12-24 08:40:43.496 UTC FATAL:  the database system is shutting down
2016-12-24 08:40:43.498 UTC FATAL:  the database system is shutting down
2016-12-24 08:40:43.501 UTC FATAL:  the database system is shutting down
2016-12-24 08:40:43.503 UTC FATAL:  the database system is shutting down
2016-12-24 08:40:43.506 UTC FATAL:  the database system is shutting down
2016-12-24 08:40:43.508 UTC FATAL:  the database system is shutting down
2016-12-24 08:40:43.510 UTC FATAL:  the database system is shutting down
2016-12-24 08:40:43.513 UTC FATAL:  the database system is shutting down
2016-12-24 08:40:43.515 UTC FATAL:  the database system is shutting down
2016-12-24 08:40:43.518 UTC FATAL:  the database system is shutting down
2016-12-24 08:40:43.520 UTC FATAL:  the database system is shutting down
2016-12-24 08:40:43.523 UTC FATAL:  the database system is shutting down
2016-12-24 08:40:43.525 UTC FATAL:  the database system is shutting down
2016-12-24 08:40:43.528 UTC FATAL:  the database system is shutting down
2016-12-24 08:40:43.531 UTC FATAL:  the database system is shutting down
2016-12-24 08:40:43.533 UTC FATAL:  the database system is shutting down
2016-12-24 08:40:43.536 UTC FATAL:  the database system is shutting down
2016-12-24 08:40:43.538 UTC FATAL:  the database system is shutting down
2016-12-24 08:40:43.540 UTC FATAL:  the database system is shutting down
2016-12-24 08:40:43.543 UTC FATAL:  the database system is shutting down
2016-12-24 08:40:43.545 UTC FATAL:  the database system is shutting down
2016-12-24 08:40:43.547 UTC FATAL:  the database system is shutting down
2016-12-24 08:40:43.550 UTC FATAL:  the database system is shutting down
2016-12-24 08:40:43.552 UTC FATAL:  the database system is shutting down
2016-12-24 08:40:43.554 UTC FATAL:  the database system is shutting down
2016-12-24 08:40:43.557 UTC FATAL:  the database system is shutting down
2016-12-24 08:40:43.559 UTC FATAL:  the database system is shutting down
2016-12-24 08:40:43.562 UTC FATAL:  the database system is shutting down
2016-12-24 08:40:43.564 UTC FATAL:  the database system is shutting down
2016-12-24 08:40:43.567 UTC FATAL:  the database system is shutting down
2016-12-24 08:40:43.569 UTC FATAL:  the database system is shutting down
2016-12-24 08:40:43.571 UTC FATAL:  the database system is shutting down
2016-12-24 08:40:43.574 UTC FATAL:  the database system is shutting down
2016-12-24 08:40:43.576 UTC FATAL:  the database system is shutting down
2016-12-24 08:40:43.578 UTC FATAL:  the database system is shutting down
2016-12-24 08:40:43.580 UTC FATAL:  the database system is shutting down
2016-12-24 08:40:43.583 UTC FATAL:  the database system is shutting down
2016-12-24 08:40:43.585 UTC FATAL:  the database system is shutting down
2016-12-24 08:40:43.588 UTC FATAL:  the database system is shutting down
2016-12-24 08:40:43.590 UTC FATAL:  the database system is shutting down
2016-12-24 08:40:43.593 UTC FATAL:  the database system is shutting down
2016-12-24 08:40:43.596 UTC FATAL:  the database system is shutting down
2016-12-24 08:40:43.598 UTC FATAL:  the database system is shutting down
2016-12-24 08:40:43.601 UTC FATAL:  the database system is shutting down
2016-12-24 08:40:43.603 UTC FATAL:  the database system is shutting down
2016-12-24 08:40:43.606 UTC FATAL:  the database system is shutting down
2016-12-24 08:40:43.609 UTC FATAL:  the database system is shutting down
2016-12-24 08:40:43.612 UTC FATAL:  the database system is shutting down
2016-12-24 08:40:43.614 UTC FATAL:  the database system is shutting down
2016-12-24 08:40:43.617 UTC FATAL:  the database system is shutting down
2016-12-24 08:40:43.621 UTC FATAL:  the database system is shutting down
2016-12-24 08:40:43.623 UTC FATAL:  the database system is shutting down
2016-12-24 08:40:43.626 UTC FATAL:  the database system is shutting down
2016-12-24 08:40:43.628 UTC FATAL:  the database system is shutting down
2016-12-24 08:40:43.632 UTC FATAL:  the database system is shutting down
2016-12-24 08:40:43.635 UTC FATAL:  the database system is shutting down
2016-12-24 08:40:43.637 UTC FATAL:  the database system is shutting down
2016-12-24 08:40:43.640 UTC FATAL:  the database system is shutting down
2016-12-24 08:40:43.643 UTC FATAL:  the database system is shutting down
2016-12-24 08:40:43.646 UTC FATAL:  the database system is shutting down
2016-12-24 08:40:43.649 UTC FATAL:  the database system is shutting down
2016-12-24 08:40:43.652 UTC FATAL:  the database system is shutting down
2016-12-24 08:40:43.655 UTC FATAL:  the database system is shutting down
2016-12-24 08:40:43.658 UTC FATAL:  the database system is shutting down
2016-12-24 08:40:43.661 UTC FATAL:  the database system is shutting down
2016-12-24 08:40:43.663 UTC FATAL:  the database system is shutting down
2016-12-24 08:40:43.666 UTC FATAL:  the database system is shutting down
2016-12-24 08:40:43.669 UTC FATAL:  the database system is shutting down
2016-12-24 08:40:43.672 UTC FATAL:  the database system is shutting down
2016-12-24 08:40:43.675 UTC FATAL:  the database system is shutting down
2016-12-24 08:40:43.677 UTC FATAL:  the database system is shutting down
2016-12-24 08:40:43.680 UTC FATAL:  the database system is shutting down
2016-12-24 08:40:43.683 UTC FATAL:  the database system is shutting down
2016-12-24 08:40:43.686 UTC FATAL:  the database system is shutting down
2016-12-24 08:40:43.689 UTC FATAL:  the database system is shutting down
2016-12-24 08:40:43.692 UTC FATAL:  the database system is shutting down
2016-12-24 08:40:43.694 UTC FATAL:  the database system is shutting down
2016-12-24 08:40:43.697 UTC FATAL:  the database system is shutting down
2016-12-24 08:40:43.700 UTC FATAL:  the database system is shutting down
2016-12-24 08:40:43.703 UTC FATAL:  the database system is shutting down
2016-12-24 08:40:43.706 UTC FATAL:  the database system is shutting down
2016-12-24 08:40:43.708 UTC FATAL:  the database system is shutting down
2016-12-24 08:40:43.711 UTC FATAL:  the database system is shutting down
2016-12-24 08:40:43.714 UTC FATAL:  the database system is shutting down
2016-12-24 08:40:43.717 UTC FATAL:  the database system is shutting down
2016-12-24 08:40:43.719 UTC FATAL:  the database system is shutting down
2016-12-24 08:40:43.722 UTC FATAL:  the database system is shutting down
2016-12-24 08:40:43.724 UTC FATAL:  the database system is shutting down
2016-12-24 08:40:43.727 UTC FATAL:  the database system is shutting down
2016-12-24 08:40:43.729 UTC FATAL:  the database system is shutting down
2016-12-24 08:40:43.732 UTC FATAL:  the database system is shutting down
2016-12-24 08:40:43.736 UTC FATAL:  the database system is shutting down
2016-12-24 08:40:43.739 UTC FATAL:  the database system is shutting down
2016-12-24 08:40:43.741 UTC FATAL:  the database system is shutting down
2016-12-24 08:40:43.744 UTC FATAL:  the database system is shutting down
2016-12-24 08:40:43.747 UTC FATAL:  the database system is shutting down
2016-12-24 08:40:43.750 UTC FATAL:  the database system is shutting down
2016-12-24 08:40:43.753 UTC FATAL:  the database system is shutting down
2016-12-24 08:40:43.756 UTC FATAL:  the database system is shutting down
2016-12-24 08:40:43.759 UTC FATAL:  the database system is shutting down
2016-12-24 08:40:43.762 UTC FATAL:  the database system is shutting down
2016-12-24 08:40:43.764 UTC FATAL:  the database system is shutting down
2016-12-24 08:40:43.767 UTC FATAL:  the database system is shutting down
2016-12-24 08:40:43.770 UTC FATAL:  the database system is shutting down
2016-12-24 08:40:44.023 UTC FATAL:  the database system is shutting down
2016-12-24 08:40:44.026 UTC FATAL:  the database system is shutting down
2016-12-24 08:40:44.028 UTC FATAL:  the database system is shutting down
2016-12-24 08:40:44.031 UTC FATAL:  the database system is shutting down
2016-12-24 08:40:44.033 UTC FATAL:  the database system is shutting down
2016-12-24 08:40:44.036 UTC FATAL:  the database system is shutting down
2016-12-24 08:40:44.038 UTC FATAL:  the database system is shutting down
2016-12-24 08:40:44.040 UTC FATAL:  the database system is shutting down
2016-12-24 08:40:44.043 UTC FATAL:  the database system is shutting down
2016-12-24 08:40:44.311 UTC FATAL:  the database system is shutting down
2016-12-24 08:40:44.315 UTC FATAL:  the database system is shutting down
2016-12-24 08:40:44.318 UTC FATAL:  the database system is shutting down
2016-12-24 08:40:44.321 UTC FATAL:  the database system is shutting down
2016-12-24 08:40:44.324 UTC FATAL:  the database system is shutting down
2016-12-24 08:40:44.327 UTC FATAL:  the database system is shutting down
2016-12-24 08:40:44.330 UTC FATAL:  the database system is shutting down
2016-12-24 08:40:44.333 UTC FATAL:  the database system is shutting down
2016-12-24 08:40:44.336 UTC FATAL:  the database system is shutting down
2016-12-24 08:40:44.339 UTC FATAL:  the database system is shutting down
2016-12-24 08:40:44.342 UTC FATAL:  the database system is shutting down
2016-12-24 08:40:44.344 UTC FATAL:  the database system is shutting down
2016-12-24 08:40:44.347 UTC FATAL:  the database system is shutting down
2016-12-24 08:40:44.349 UTC FATAL:  the database system is shutting down
2016-12-24 08:40:44.352 UTC FATAL:  the database system is shutting down
2016-12-24 08:40:44.355 UTC FATAL:  the database system is shutting down
2016-12-24 08:40:44.358 UTC FATAL:  the database system is shutting down
2016-12-24 08:40:44.361 UTC FATAL:  the database system is shutting down
2016-12-24 08:40:44.364 UTC FATAL:  the database system is shutting down
2016-12-24 08:40:44.367 UTC FATAL:  the database system is shutting down
2016-12-24 08:40:44.370 UTC FATAL:  the database system is shutting down
2016-12-24 08:40:44.372 UTC FATAL:  the database system is shutting down
2016-12-24 08:40:44.376 UTC FATAL:  the database system is shutting down
2016-12-24 08:40:44.379 UTC FATAL:  the database system is shutting down
2016-12-24 08:40:44.382 UTC FATAL:  the database system is shutting down
2016-12-24 08:40:44.386 UTC FATAL:  the database system is shutting down
2016-12-24 08:40:44.388 UTC FATAL:  the database system is shutting down
2016-12-24 08:40:44.391 UTC FATAL:  the database system is shutting down
2016-12-24 08:40:44.394 UTC FATAL:  the database system is shutting down
2016-12-24 08:40:44.397 UTC FATAL:  the database system is shutting down
2016-12-24 08:40:44.401 UTC FATAL:  the database system is shutting down
2016-12-24 08:40:44.404 UTC FATAL:  the database system is shutting down
2016-12-24 08:40:44.406 UTC FATAL:  the database system is shutting down
2016-12-24 08:40:44.409 UTC FATAL:  the database system is shutting down
2016-12-24 08:40:44.412 UTC FATAL:  the database system is shutting down
2016-12-24 08:40:44.414 UTC FATAL:  the database system is shutting down
2016-12-24 08:40:44.417 UTC FATAL:  the database system is shutting down
2016-12-24 08:40:44.420 UTC FATAL:  the database system is shutting down
2016-12-24 08:40:44.424 UTC FATAL:  the database system is shutting down
2016-12-24 08:40:44.427 UTC FATAL:  the database system is shutting down
2016-12-24 08:40:44.430 UTC FATAL:  the database system is shutting down
2016-12-24 08:40:44.433 UTC FATAL:  the database system is shutting down
2016-12-24 08:40:44.436 UTC FATAL:  the database system is shutting down
2016-12-24 08:40:44.438 UTC FATAL:  the database system is shutting down
2016-12-24 08:40:44.441 UTC FATAL:  the database system is shutting down
2016-12-24 08:40:44.444 UTC FATAL:  the database system is shutting down
2016-12-24 08:40:44.447 UTC FATAL:  the database system is shutting down
2016-12-24 08:40:44.450 UTC FATAL:  the database system is shutting down
2016-12-24 08:40:44.453 UTC FATAL:  the database system is shutting down
2016-12-24 08:40:44.456 UTC FATAL:  the database system is shutting down
2016-12-24 08:40:44.459 UTC FATAL:  the database system is shutting down
2016-12-24 08:40:44.462 UTC FATAL:  the database system is shutting down
2016-12-24 08:40:44.465 UTC FATAL:  the database system is shutting down
2016-12-24 08:40:44.467 UTC FATAL:  the database system is shutting down
2016-12-24 08:40:44.470 UTC FATAL:  the database system is shutting down
2016-12-24 08:40:44.472 UTC FATAL:  the database system is shutting down
2016-12-24 08:40:44.475 UTC FATAL:  the database system is shutting down
2016-12-24 08:40:44.478 UTC FATAL:  the database system is shutting down
2016-12-24 08:40:44.481 UTC FATAL:  the database system is shutting down
2016-12-24 08:40:44.483 UTC FATAL:  the database system is shutting down
2016-12-24 08:40:44.486 UTC FATAL:  the database system is shutting down
2016-12-24 08:40:44.489 UTC FATAL:  the database system is shutting down
2016-12-24 08:40:44.492 UTC FATAL:  the database system is shutting down
2016-12-24 08:40:44.495 UTC FATAL:  the database system is shutting down
2016-12-24 08:40:44.497 UTC FATAL:  the database system is shutting down
2016-12-24 08:40:44.500 UTC FATAL:  the database system is shutting down
2016-12-24 08:40:44.503 UTC FATAL:  the database system is shutting down
2016-12-24 08:40:44.505 UTC FATAL:  the database system is shutting down
2016-12-24 08:40:44.508 UTC FATAL:  the database system is shutting down
2016-12-24 08:40:44.511 UTC FATAL:  the database system is shutting down
2016-12-24 08:40:44.514 UTC FATAL:  the database system is shutting down
2016-12-24 08:40:44.518 UTC FATAL:  the database system is shutting down
2016-12-24 08:40:44.521 UTC FATAL:  the database system is shutting down
2016-12-24 08:40:44.524 UTC FATAL:  the database system is shutting down
2016-12-24 08:40:44.528 UTC FATAL:  the database system is shutting down
2016-12-24 08:40:44.531 UTC FATAL:  the database system is shutting down
2016-12-24 08:40:44.534 UTC FATAL:  the database system is shutting down
2016-12-24 08:40:44.537 UTC FATAL:  the database system is shutting down
2016-12-24 08:40:44.540 UTC FATAL:  the database system is shutting down
2016-12-24 08:40:44.543 UTC FATAL:  the database system is shutting down
2016-12-24 08:40:44.545 UTC FATAL:  the database system is shutting down
2016-12-24 08:40:44.549 UTC FATAL:  the database system is shutting down
2016-12-24 08:40:44.551 UTC FATAL:  the database system is shutting down
2016-12-24 08:40:44.554 UTC FATAL:  the database system is shutting down
2016-12-24 08:40:44.557 UTC FATAL:  the database system is shutting down
2016-12-24 08:40:44.560 UTC FATAL:  the database system is shutting down
2016-12-24 08:40:44.564 UTC FATAL:  the database system is shutting down
2016-12-24 08:40:44.567 UTC FATAL:  the database system is shutting down
2016-12-24 08:40:44.570 UTC FATAL:  the database system is shutting down
2016-12-24 08:40:44.572 UTC FATAL:  the database system is shutting down
2016-12-24 08:40:44.575 UTC FATAL:  the database system is shutting down
2016-12-24 08:40:44.578 UTC FATAL:  the database system is shutting down
2016-12-24 08:40:44.580 UTC FATAL:  the database system is shutting down
2016-12-24 08:40:44.583 UTC FATAL:  the database system is shutting down
2016-12-24 08:40:44.586 UTC FATAL:  the database system is shutting down
2016-12-24 08:40:44.589 UTC FATAL:  the database system is shutting down
2016-12-24 08:40:44.593 UTC FATAL:  the database system is shutting down
2016-12-24 08:40:44.596 UTC FATAL:  the database system is shutting down
2016-12-24 08:40:44.599 UTC FATAL:  the database system is shutting down
2016-12-24 08:40:44.602 UTC FATAL:  the database system is shutting down
2016-12-24 08:40:44.605 UTC FATAL:  the database system is shutting down
2016-12-24 08:40:44.608 UTC FATAL:  the database system is shutting down
2016-12-24 08:40:44.611 UTC FATAL:  the database system is shutting down
2016-12-24 08:40:44.614 UTC FATAL:  the database system is shutting down
2016-12-24 08:40:44.617 UTC FATAL:  the database system is shutting down
2016-12-24 08:40:44.621 UTC FATAL:  the database system is shutting down
2016-12-24 08:40:44.624 UTC FATAL:  the database system is shutting down
2016-12-24 08:40:44.627 UTC FATAL:  the database system is shutting down
2016-12-24 08:40:44.630 UTC FATAL:  the database system is shutting down
2016-12-24 08:40:44.634 UTC FATAL:  the database system is shutting down
2016-12-24 08:40:44.637 UTC FATAL:  the database system is shutting down
2016-12-24 08:40:44.640 UTC FATAL:  the database system is shutting down
2016-12-24 08:40:44.643 UTC FATAL:  the database system is shutting down
2016-12-24 08:40:44.646 UTC FATAL:  the database system is shutting down
2016-12-24 08:40:44.649 UTC FATAL:  the database system is shutting down
2016-12-24 08:40:44.651 UTC FATAL:  the database system is shutting down
2016-12-24 08:40:44.654 UTC FATAL:  the database system is shutting down
2016-12-24 08:40:44.657 UTC FATAL:  the database system is shutting down
2016-12-24 08:40:44.660 UTC FATAL:  the database system is shutting down
2016-12-24 08:40:44.663 UTC FATAL:  the database system is shutting down
2016-12-24 08:40:44.665 UTC FATAL:  the database system is shutting down
2016-12-24 08:40:44.668 UTC FATAL:  the database system is shutting down
2016-12-24 08:40:44.671 UTC FATAL:  the database system is shutting down
2016-12-24 08:40:44.674 UTC FATAL:  the database system is shutting down
2016-12-24 08:40:44.677 UTC FATAL:  the database system is shutting down
2016-12-24 08:40:44.680 UTC FATAL:  the database system is shutting down
2016-12-24 08:40:44.682 UTC FATAL:  the database system is shutting down
2016-12-24 08:40:44.685 UTC FATAL:  the database system is shutting down
2016-12-24 08:40:44.688 UTC FATAL:  the database system is shutting down
2016-12-24 08:40:44.691 UTC FATAL:  the database system is shutting down
2016-12-24 08:40:44.694 UTC FATAL:  the database system is shutting down
2016-12-24 08:40:44.696 UTC FATAL:  the database system is shutting down
2016-12-24 08:40:44.699 UTC FATAL:  the database system is shutting down
2016-12-24 08:40:44.702 UTC FATAL:  the database system is shutting down
2016-12-24 08:40:44.706 UTC FATAL:  the database system is shutting down
2016-12-24 08:40:44.708 UTC FATAL:  the database system is shutting down
2016-12-24 08:40:44.711 UTC FATAL:  the database system is shutting down
2016-12-24 08:40:44.713 UTC FATAL:  the database system is shutting down
2016-12-24 08:40:44.716 UTC FATAL:  the database system is shutting down
2016-12-24 08:40:44.718 UTC FATAL:  the database system is shutting down
2016-12-24 08:40:44.721 UTC FATAL:  the database system is shutting down
2016-12-24 08:40:44.724 UTC FATAL:  the database system is shutting down
2016-12-24 08:40:44.727 UTC FATAL:  the database system is shutting down
2016-12-24 08:40:44.730 UTC FATAL:  the database system is shutting down
2016-12-24 08:40:44.733 UTC FATAL:  the database system is shutting down
2016-12-24 08:40:44.736 UTC FATAL:  the database system is shutting down
2016-12-24 08:40:44.739 UTC FATAL:  the database system is shutting down
2016-12-24 08:40:44.742 UTC FATAL:  the database system is shutting down
2016-12-24 08:40:44.746 UTC FATAL:  the database system is shutting down
2016-12-24 08:40:44.749 UTC FATAL:  the database system is shutting down
2016-12-24 08:40:44.753 UTC FATAL:  the database system is shutting down
2016-12-24 08:40:44.756 UTC FATAL:  the database system is shutting down
2016-12-24 08:40:44.761 UTC FATAL:  the database system is shutting down
2016-12-24 08:40:44.764 UTC FATAL:  the database system is shutting down
2016-12-24 08:40:44.768 UTC FATAL:  the database system is shutting down
2016-12-24 08:40:44.771 UTC FATAL:  the database system is shutting down
2016-12-24 08:40:44.774 UTC FATAL:  the database system is shutting down
2016-12-24 08:40:44.778 UTC FATAL:  the database system is shutting down
2016-12-24 08:40:44.781 UTC FATAL:  the database system is shutting down
2016-12-24 08:40:44.784 UTC FATAL:  the database system is shutting down
2016-12-24 08:40:44.787 UTC FATAL:  the database system is shutting down
2016-12-24 08:40:44.791 UTC FATAL:  the database system is shutting down
2016-12-24 08:40:44.794 UTC FATAL:  the database system is shutting down
2016-12-24 08:40:44.797 UTC FATAL:  the database system is shutting down
2016-12-24 08:40:44.800 UTC FATAL:  the database system is shutting down
2016-12-24 08:40:44.803 UTC FATAL:  the database system is shutting down
2016-12-24 08:40:44.806 UTC FATAL:  the database system is shutting down
2016-12-24 08:40:44.809 UTC FATAL:  the database system is shutting down
2016-12-24 08:40:44.812 UTC FATAL:  the database system is shutting down
2016-12-24 08:40:44.814 UTC FATAL:  the database system is shutting down
2016-12-24 08:40:44.818 UTC FATAL:  the database system is shutting down
2016-12-24 08:40:44.821 UTC FATAL:  the database system is shutting down
2016-12-24 08:40:44.824 UTC FATAL:  the database system is shutting down
2016-12-24 08:40:44.827 UTC FATAL:  the database system is shutting down
2016-12-24 08:40:44.830 UTC FATAL:  the database system is shutting down
2016-12-24 08:40:44.833 UTC FATAL:  the database system is shutting down
2016-12-24 08:40:44.836 UTC FATAL:  the database system is shutting down
2016-12-24 08:40:44.840 UTC FATAL:  the database system is shutting down
2016-12-24 08:40:44.843 UTC FATAL:  the database system is shutting down
2016-12-24 08:40:44.846 UTC FATAL:  the database system is shutting down
2016-12-24 08:40:44.850 UTC FATAL:  the database system is shutting down
2016-12-24 08:40:44.853 UTC FATAL:  the database system is shutting down
2016-12-24 08:40:44.855 UTC FATAL:  the database system is shutting down
2016-12-24 08:40:44.858 UTC FATAL:  the database system is shutting down
2016-12-24 08:40:44.861 UTC FATAL:  the database system is shutting down
2016-12-24 08:40:44.864 UTC FATAL:  the database system is shutting down
2016-12-24 08:40:44.867 UTC FATAL:  the database system is shutting down
2016-12-24 08:40:44.870 UTC FATAL:  the database system is shutting down
2016-12-24 08:40:44.873 UTC FATAL:  the database system is shutting down
2016-12-24 08:40:44.876 UTC FATAL:  the database system is shutting down
2016-12-24 08:40:44.879 UTC FATAL:  the database system is shutting down
2016-12-24 08:40:44.881 UTC FATAL:  the database system is shutting down
2016-12-24 08:40:44.884 UTC FATAL:  the database system is shutting down
2016-12-24 08:40:44.887 UTC FATAL:  the database system is shutting down
2016-12-24 08:40:44.889 UTC FATAL:  the database system is shutting down
2016-12-24 08:40:44.892 UTC FATAL:  the database system is shutting down
2016-12-24 08:40:44.895 UTC FATAL:  the database system is shutting down
2016-12-24 08:40:44.898 UTC FATAL:  the database system is shutting down
2016-12-24 08:40:44.901 UTC FATAL:  the database system is shutting down
2016-12-24 08:40:44.904 UTC FATAL:  the database system is shutting down
2016-12-24 08:40:44.907 UTC FATAL:  the database system is shutting down
2016-12-24 08:40:44.909 UTC FATAL:  the database system is shutting down
2016-12-24 08:40:44.913 UTC FATAL:  the database system is shutting down
2016-12-24 08:40:44.916 UTC FATAL:  the database system is shutting down
2016-12-24 08:40:44.919 UTC FATAL:  the database system is shutting down
2016-12-24 08:40:44.922 UTC FATAL:  the database system is shutting down
2016-12-24 08:40:44.926 UTC FATAL:  the database system is shutting down
2016-12-24 08:40:44.929 UTC FATAL:  the database system is shutting down
2016-12-24 08:40:44.932 UTC FATAL:  the database system is shutting down
2016-12-24 08:40:44.935 UTC FATAL:  the database system is shutting down
2016-12-24 08:40:44.938 UTC FATAL:  the database system is shutting down
2016-12-24 08:40:44.941 UTC FATAL:  the database system is shutting down
2016-12-24 08:40:44.944 UTC FATAL:  the database system is shutting down
2016-12-24 08:40:44.947 UTC FATAL:  the database system is shutting down
2016-12-24 08:40:44.949 UTC FATAL:  the database system is shutting down
2016-12-24 08:40:44.952 UTC FATAL:  the database system is shutting down
2016-12-24 08:40:44.956 UTC FATAL:  the database system is shutting down
2016-12-24 08:40:44.958 UTC FATAL:  the database system is shutting down
2016-12-24 08:40:44.961 UTC FATAL:  the database system is shutting down
2016-12-24 08:40:44.963 UTC FATAL:  the database system is shutting down
2016-12-24 08:40:44.966 UTC FATAL:  the database system is shutting down
2016-12-24 08:40:44.968 UTC FATAL:  the database system is shutting down
2016-12-24 08:40:44.971 UTC FATAL:  the database system is shutting down
2016-12-24 08:40:44.973 UTC FATAL:  the database system is shutting down
2016-12-24 08:40:44.976 UTC FATAL:  the database system is shutting down
2016-12-24 08:40:44.978 UTC FATAL:  the database system is shutting down
2016-12-24 08:40:44.982 UTC FATAL:  the database system is shutting down
2016-12-24 08:40:44.985 UTC FATAL:  the database system is shutting down
2016-12-24 08:40:44.988 UTC FATAL:  the database system is shutting down
2016-12-24 08:40:44.991 UTC FATAL:  the database system is shutting down
2016-12-24 08:40:44.994 UTC FATAL:  the database system is shutting down
2016-12-24 08:40:44.997 UTC FATAL:  the database system is shutting down
2016-12-24 08:40:45.000 UTC FATAL:  the database system is shutting down
2016-12-24 08:40:45.004 UTC FATAL:  the database system is shutting down
2016-12-24 08:40:45.008 UTC FATAL:  the database system is shutting down
2016-12-24 08:40:45.012 UTC FATAL:  the database system is shutting down
2016-12-24 08:40:45.015 UTC FATAL:  the database system is shutting down
2016-12-24 08:40:45.017 UTC FATAL:  the database system is shutting down
2016-12-24 08:40:45.020 UTC FATAL:  the database system is shutting down
2016-12-24 08:40:45.023 UTC FATAL:  the database system is shutting down
2016-12-24 08:40:45.027 UTC FATAL:  the database system is shutting down
2016-12-24 08:40:45.030 UTC FATAL:  the database system is shutting down
2016-12-24 08:40:45.032 UTC FATAL:  the database system is shutting down
2016-12-24 08:40:45.037 UTC FATAL:  the database system is shutting down
2016-12-24 08:40:45.040 UTC FATAL:  the database system is shutting down
2016-12-24 08:40:45.043 UTC FATAL:  the database system is shutting down
2016-12-24 08:40:45.046 UTC FATAL:  the database system is shutting down
2016-12-24 08:40:45.047 UTC FATAL:  the database system is shutting down
2016-12-24 08:40:45.049 UTC FATAL:  the database system is shutting down
2016-12-24 08:40:45.050 UTC FATAL:  the database system is shutting down
2016-12-24 08:40:45.052 UTC FATAL:  the database system is shutting down
2016-12-24 08:40:45.054 UTC FATAL:  the database system is shutting down
2016-12-24 08:40:45.056 UTC FATAL:  the database system is shutting down
2016-12-24 08:40:45.059 UTC FATAL:  the database system is shutting down
2016-12-24 08:40:45.059 UTC FATAL:  the database system is shutting down
2016-12-24 08:40:45.061 UTC FATAL:  the database system is shutting down
2016-12-24 08:40:45.064 UTC FATAL:  the database system is shutting down
2016-12-24 08:40:45.064 UTC FATAL:  the database system is shutting down
2016-12-24 08:40:45.067 UTC FATAL:  the database system is shutting down
2016-12-24 08:40:45.068 UTC FATAL:  the database system is shutting down
2016-12-24 08:40:45.071 UTC FATAL:  the database system is shutting down
2016-12-24 08:40:45.071 UTC FATAL:  the database system is shutting down
2016-12-24 08:40:45.074 UTC FATAL:  the database system is shutting down
2016-12-24 08:40:45.074 UTC FATAL:  the database system is shutting down
2016-12-24 08:40:45.077 UTC FATAL:  the database system is shutting down
2016-12-24 08:40:45.080 UTC FATAL:  the database system is shutting down
2016-12-24 08:40:45.083 UTC FATAL:  the database system is shutting down
2016-12-24 08:40:45.086 UTC FATAL:  the database system is shutting down
2016-12-24 08:40:45.089 UTC FATAL:  the database system is shutting down
2016-12-24 08:40:45.091 UTC FATAL:  the database system is shutting down
2016-12-24 08:40:45.093 UTC FATAL:  the database system is shutting down
2016-12-24 08:40:45.096 UTC FATAL:  the database system is shutting down
2016-12-24 08:40:45.100 UTC FATAL:  the database system is shutting down
2016-12-24 08:40:45.102 UTC FATAL:  the database system is shutting down
2016-12-24 08:40:45.106 UTC FATAL:  the database system is shutting down
2016-12-24 08:40:45.108 UTC FATAL:  the database system is shutting down
2016-12-24 08:40:45.112 UTC FATAL:  the database system is shutting down
2016-12-24 08:40:45.114 UTC FATAL:  the database system is shutting down
2016-12-24 08:40:45.118 UTC FATAL:  the database system is shutting down
2016-12-24 08:40:45.121 UTC FATAL:  the database system is shutting down
2016-12-24 08:40:45.124 UTC FATAL:  the database system is shutting down
2016-12-24 08:40:45.129 UTC FATAL:  the database system is shutting down
2016-12-24 08:40:45.131 UTC FATAL:  the database system is shutting down
2016-12-24 08:40:45.137 UTC FATAL:  the database system is shutting down
2016-12-24 08:40:45.140 UTC FATAL:  the database system is shutting down
2016-12-24 08:40:45.143 UTC FATAL:  the database system is shutting down
2016-12-24 08:40:45.147 UTC FATAL:  the database system is shutting down
2016-12-24 08:40:45.150 UTC FATAL:  the database system is shutting down
2016-12-24 08:40:45.153 UTC FATAL:  the database system is shutting down
2016-12-24 08:40:45.157 UTC FATAL:  the database system is shutting down
2016-12-24 08:40:45.160 UTC FATAL:  the database system is shutting down
2016-12-24 08:40:45.163 UTC FATAL:  the database system is shutting down
2016-12-24 08:40:45.166 UTC FATAL:  the database system is shutting down
2016-12-24 08:40:45.169 UTC FATAL:  the database system is shutting down
2016-12-24 08:40:45.172 UTC FATAL:  the database system is shutting down
2016-12-24 08:40:45.176 UTC FATAL:  the database system is shutting down
2016-12-24 08:40:45.179 UTC FATAL:  the database system is shutting down
2016-12-24 08:40:45.181 UTC FATAL:  the database system is shutting down
2016-12-24 08:40:45.184 UTC FATAL:  the database system is shutting down
2016-12-24 08:40:45.188 UTC FATAL:  the database system is shutting down
2016-12-24 08:40:45.191 UTC FATAL:  the database system is shutting down
2016-12-24 08:40:45.194 UTC FATAL:  the database system is shutting down
2016-12-24 08:40:45.199 UTC FATAL:  the database system is shutting down
2016-12-24 08:40:45.202 UTC FATAL:  the database system is shutting down
2016-12-24 08:40:45.206 UTC FATAL:  the database system is shutting down
2016-12-24 08:40:45.209 UTC FATAL:  the database system is shutting down
2016-12-24 08:40:45.212 UTC FATAL:  the database system is shutting down
2016-12-24 08:40:45.215 UTC FATAL:  the database system is shutting down
2016-12-24 08:40:45.219 UTC FATAL:  the database system is shutting down
2016-12-24 08:40:45.222 UTC FATAL:  the database system is shutting down
2016-12-24 08:40:45.225 UTC FATAL:  the database system is shutting down
2016-12-24 08:40:45.228 UTC FATAL:  the database system is shutting down
2016-12-24 08:40:45.231 UTC FATAL:  the database system is shutting down
2016-12-24 08:40:45.234 UTC FATAL:  the database system is shutting down
2016-12-24 08:40:45.237 UTC FATAL:  the database system is shutting down
2016-12-24 08:40:45.240 UTC FATAL:  the database system is shutting down
2016-12-24 08:40:45.243 UTC FATAL:  the database system is shutting down
2016-12-24 08:40:45.245 UTC FATAL:  the database system is shutting down
2016-12-24 08:40:45.248 UTC FATAL:  the database system is shutting down
2016-12-24 08:40:45.250 UTC FATAL:  the database system is shutting down
2016-12-24 08:40:45.253 UTC FATAL:  the database system is shutting down
2016-12-24 08:40:45.256 UTC FATAL:  the database system is shutting down
2016-12-24 08:40:45.258 UTC FATAL:  the database system is shutting down
2016-12-24 08:40:45.261 UTC FATAL:  the database system is shutting down
2016-12-24 08:40:45.264 UTC FATAL:  the database system is shutting down
2016-12-24 08:40:45.267 UTC FATAL:  the database system is shutting down
2016-12-24 08:40:45.269 UTC FATAL:  the database system is shutting down
2016-12-24 08:40:45.272 UTC FATAL:  the database system is shutting down
2016-12-24 08:40:45.275 UTC FATAL:  the database system is shutting down
2016-12-24 08:40:45.277 UTC FATAL:  the database system is shutting down
2016-12-24 08:40:45.281 UTC FATAL:  the database system is shutting down
2016-12-24 08:40:45.284 UTC FATAL:  the database system is shutting down
2016-12-24 08:40:45.286 UTC FATAL:  the database system is shutting down
2016-12-24 08:40:45.289 UTC FATAL:  the database system is shutting down
2016-12-24 08:40:45.293 UTC FATAL:  the database system is shutting down
2016-12-24 08:40:45.296 UTC FATAL:  the database system is shutting down
2016-12-24 08:40:45.298 UTC FATAL:  the database system is shutting down
2016-12-24 08:40:45.302 UTC FATAL:  the database system is shutting down
2016-12-24 08:40:45.305 UTC FATAL:  the database system is shutting down
2016-12-24 08:40:45.307 UTC FATAL:  the database system is shutting down
2016-12-24 08:40:45.310 UTC FATAL:  the database system is shutting down
2016-12-24 08:40:45.313 UTC FATAL:  the database system is shutting down
2016-12-24 08:40:45.316 UTC FATAL:  the database system is shutting down
2016-12-24 08:40:45.319 UTC FATAL:  the database system is shutting down
2016-12-24 08:40:45.322 UTC FATAL:  the database system is shutting down
2016-12-24 08:40:45.325 UTC FATAL:  the database system is shutting down
2016-12-24 08:40:45.328 UTC FATAL:  the database system is shutting down
2016-12-24 08:40:45.331 UTC FATAL:  the database system is shutting down
2016-12-24 08:40:45.334 UTC FATAL:  the database system is shutting down
2016-12-24 08:40:45.337 UTC FATAL:  the database system is shutting down
2016-12-24 08:40:45.339 UTC FATAL:  the database system is shutting down
2016-12-24 08:40:45.342 UTC FATAL:  the database system is shutting down
2016-12-24 08:40:45.345 UTC FATAL:  the database system is shutting down
2016-12-24 08:40:45.348 UTC FATAL:  the database system is shutting down
2016-12-24 08:40:45.351 UTC FATAL:  the database system is shutting down
2016-12-24 08:40:45.354 UTC FATAL:  the database system is shutting down
2016-12-24 08:40:45.356 UTC FATAL:  the database system is shutting down
2016-12-24 08:40:45.359 UTC FATAL:  the database system is shutting down
2016-12-24 08:40:45.362 UTC FATAL:  the database system is shutting down
2016-12-24 08:40:45.364 UTC FATAL:  the database system is shutting down
2016-12-24 08:40:45.366 UTC FATAL:  the database system is shutting down
2016-12-24 08:40:45.369 UTC FATAL:  the database system is shutting down
2016-12-24 08:40:45.372 UTC FATAL:  the database system is shutting down
2016-12-24 08:40:45.374 UTC FATAL:  the database system is shutting down
2016-12-24 08:40:45.377 UTC FATAL:  the database system is shutting down
2016-12-24 08:40:45.380 UTC FATAL:  the database system is shutting down
2016-12-24 08:40:45.382 UTC FATAL:  the database system is shutting down
2016-12-24 08:40:45.386 UTC FATAL:  the database system is shutting down
2016-12-24 08:40:45.389 UTC FATAL:  the database system is shutting down
2016-12-24 08:40:45.391 UTC FATAL:  the database system is shutting down
2016-12-24 08:40:45.394 UTC FATAL:  the database system is shutting down
2016-12-24 08:40:45.397 UTC FATAL:  the database system is shutting down
2016-12-24 08:40:45.399 UTC FATAL:  the database system is shutting down
2016-12-24 08:40:45.402 UTC FATAL:  the database system is shutting down
2016-12-24 08:40:45.405 UTC FATAL:  the database system is shutting down
2016-12-24 08:40:45.407 UTC FATAL:  the database system is shutting down
2016-12-24 08:40:45.411 UTC FATAL:  the database system is shutting down
2016-12-24 08:40:45.414 UTC FATAL:  the database system is shutting down
2016-12-24 08:40:45.418 UTC FATAL:  the database system is shutting down
2016-12-24 08:40:45.421 UTC FATAL:  the database system is shutting down
2016-12-24 08:40:45.423 UTC FATAL:  the database system is shutting down
2016-12-24 08:40:45.426 UTC FATAL:  the database system is shutting down
2016-12-24 08:40:45.428 UTC FATAL:  the database system is shutting down
2016-12-24 08:40:45.431 UTC FATAL:  the database system is shutting down
2016-12-24 08:40:45.435 UTC FATAL:  the database system is shutting down
2016-12-24 08:40:45.437 UTC FATAL:  the database system is shutting down
2016-12-24 08:40:45.442 UTC FATAL:  the database system is shutting down
2016-12-24 08:40:45.445 UTC FATAL:  the database system is shutting down
2016-12-24 08:40:45.448 UTC FATAL:  the database system is shutting down
2016-12-24 08:40:45.451 UTC FATAL:  the database system is shutting down
2016-12-24 08:40:45.454 UTC FATAL:  the database system is shutting down
2016-12-24 08:40:45.456 UTC FATAL:  the database system is shutting down
2016-12-24 08:40:45.459 UTC FATAL:  the database system is shutting down
2016-12-24 08:40:45.462 UTC FATAL:  the database system is shutting down
2016-12-24 08:40:45.464 UTC FATAL:  the database system is shutting down
2016-12-24 08:40:45.467 UTC FATAL:  the database system is shutting down
2016-12-24 08:40:45.469 UTC FATAL:  the database system is shutting down
2016-12-24 08:40:45.472 UTC FATAL:  the database system is shutting down
2016-12-24 08:40:45.474 UTC FATAL:  the database system is shutting down
2016-12-24 08:40:45.477 UTC FATAL:  the database system is shutting down
2016-12-24 08:40:45.480 UTC FATAL:  the database system is shutting down
2016-12-24 08:40:45.482 UTC FATAL:  the database system is shutting down
2016-12-24 08:40:45.485 UTC FATAL:  the database system is shutting down
2016-12-24 08:40:45.488 UTC FATAL:  the database system is shutting down
2016-12-24 08:40:45.491 UTC FATAL:  the database system is shutting down
2016-12-24 08:40:45.493 UTC FATAL:  the database system is shutting down
2016-12-24 08:40:45.496 UTC FATAL:  the database system is shutting down
2016-12-24 08:40:45.499 UTC FATAL:  the database system is shutting down
2016-12-24 08:40:45.502 UTC FATAL:  the database system is shutting down
2016-12-24 08:40:45.505 UTC FATAL:  the database system is shutting down
2016-12-24 08:40:45.507 UTC FATAL:  the database system is shutting down
2016-12-24 08:40:45.510 UTC FATAL:  the database system is shutting down
2016-12-24 08:40:45.513 UTC FATAL:  the database system is shutting down
2016-12-24 08:40:45.515 UTC FATAL:  the database system is shutting down
2016-12-24 08:40:45.518 UTC FATAL:  the database system is shutting down
2016-12-24 08:40:45.522 UTC FATAL:  the database system is shutting down
2016-12-24 08:40:45.525 UTC FATAL:  the database system is shutting down
2016-12-24 08:40:45.528 UTC FATAL:  the database system is shutting down
2016-12-24 08:40:45.530 UTC FATAL:  the database system is shutting down
2016-12-24 08:40:45.534 UTC FATAL:  the database system is shutting down
2016-12-24 08:40:45.537 UTC FATAL:  the database system is shutting down
2016-12-24 08:40:45.541 UTC FATAL:  the database system is shutting down
2016-12-24 08:40:45.544 UTC FATAL:  the database system is shutting down
2016-12-24 08:40:45.546 UTC FATAL:  the database system is shutting down
2016-12-24 08:40:45.549 UTC FATAL:  the database system is shutting down
2016-12-24 08:40:45.552 UTC FATAL:  the database system is shutting down
2016-12-24 08:40:45.555 UTC FATAL:  the database system is shutting down
2016-12-24 08:40:45.558 UTC FATAL:  the database system is shutting down
2016-12-24 08:40:45.561 UTC FATAL:  the database system is shutting down
2016-12-24 08:40:45.565 UTC FATAL:  the database system is shutting down
2016-12-24 08:40:45.568 UTC FATAL:  the database system is shutting down
2016-12-24 08:40:45.570 UTC FATAL:  the database system is shutting down
2016-12-24 08:40:45.574 UTC FATAL:  the database system is shutting down
2016-12-24 08:40:45.576 UTC FATAL:  the database system is shutting down
2016-12-24 08:40:45.580 UTC FATAL:  the database system is shutting down
2016-12-24 08:40:45.583 UTC FATAL:  the database system is shutting down
2016-12-24 08:40:45.586 UTC FATAL:  the database system is shutting down
2016-12-24 08:40:45.588 UTC FATAL:  the database system is shutting down
2016-12-24 08:40:45.591 UTC FATAL:  the database system is shutting down
2016-12-24 08:40:45.594 UTC FATAL:  the database system is shutting down
2016-12-24 08:40:45.597 UTC FATAL:  the database system is shutting down
2016-12-24 08:40:45.600 UTC FATAL:  the database system is shutting down
2016-12-24 08:40:45.603 UTC FATAL:  the database system is shutting down
2016-12-24 08:40:45.606 UTC FATAL:  the database system is shutting down
2016-12-24 08:40:45.609 UTC FATAL:  the database system is shutting down
2016-12-24 08:40:45.612 UTC FATAL:  the database system is shutting down
2016-12-24 08:40:45.615 UTC FATAL:  the database system is shutting down
2016-12-24 08:40:45.618 UTC FATAL:  the database system is shutting down
2016-12-24 08:40:45.621 UTC FATAL:  the database system is shutting down
2016-12-24 08:40:45.624 UTC FATAL:  the database system is shutting down
2016-12-24 08:40:45.627 UTC FATAL:  the database system is shutting down
2016-12-24 08:40:45.630 UTC FATAL:  the database system is shutting down
2016-12-24 08:40:45.633 UTC FATAL:  the database system is shutting down
2016-12-24 08:40:45.636 UTC FATAL:  the database system is shutting down
2016-12-24 08:40:45.639 UTC FATAL:  the database system is shutting down
2016-12-24 08:40:45.641 UTC FATAL:  the database system is shutting down
2016-12-24 08:40:45.644 UTC FATAL:  the database system is shutting down
2016-12-24 08:40:45.646 UTC FATAL:  the database system is shutting down
2016-12-24 08:40:45.649 UTC FATAL:  the database system is shutting down
2016-12-24 08:40:45.652 UTC FATAL:  the database system is shutting down
2016-12-24 08:40:45.657 UTC FATAL:  the database system is shutting down
2016-12-24 08:40:45.660 UTC FATAL:  the database system is shutting down
2016-12-24 08:40:45.663 UTC FATAL:  the database system is shutting down
2016-12-24 08:40:45.667 UTC FATAL:  the database system is shutting down
2016-12-24 08:40:45.670 UTC FATAL:  the database system is shutting down
2016-12-24 08:40:45.672 UTC FATAL:  the database system is shutting down
2016-12-24 08:40:45.675 UTC FATAL:  the database system is shutting down
2016-12-24 08:40:45.678 UTC FATAL:  the database system is shutting down
2016-12-24 08:40:45.681 UTC FATAL:  the database system is shutting down
2016-12-24 08:40:45.684 UTC FATAL:  the database system is shutting down
2016-12-24 08:40:45.687 UTC FATAL:  the database system is shutting down
2016-12-24 08:40:45.690 UTC FATAL:  the database system is shutting down
2016-12-24 08:40:45.694 UTC FATAL:  the database system is shutting down
2016-12-24 08:40:45.697 UTC FATAL:  the database system is shutting down
2016-12-24 08:40:45.700 UTC FATAL:  the database system is shutting down
2016-12-24 08:40:45.704 UTC FATAL:  the database system is shutting down
2016-12-24 08:40:45.709 UTC FATAL:  the database system is shutting down
2016-12-24 08:40:45.712 UTC FATAL:  the database system is shutting down
2016-12-24 08:40:45.715 UTC FATAL:  the database system is shutting down
2016-12-24 08:40:45.718 UTC FATAL:  the database system is shutting down
2016-12-24 08:40:45.721 UTC FATAL:  the database system is shutting down
2016-12-24 08:40:45.725 UTC FATAL:  the database system is shutting down
2016-12-24 08:40:45.728 UTC FATAL:  the database system is shutting down
2016-12-24 08:40:45.730 UTC FATAL:  the database system is shutting down
2016-12-24 08:40:45.733 UTC FATAL:  the database system is shutting down
2016-12-24 08:40:45.736 UTC FATAL:  the database system is shutting down
2016-12-24 08:40:45.739 UTC FATAL:  the database system is shutting down
2016-12-24 08:40:45.742 UTC FATAL:  the database system is shutting down
2016-12-24 08:40:45.744 UTC FATAL:  the database system is shutting down
2016-12-24 08:40:45.747 UTC FATAL:  the database system is shutting down
2016-12-24 08:40:45.750 UTC FATAL:  the database system is shutting down
2016-12-24 08:40:45.752 UTC FATAL:  the database system is shutting down
2016-12-24 08:40:45.755 UTC FATAL:  the database system is shutting down
2016-12-24 08:40:45.758 UTC FATAL:  the database system is shutting down
2016-12-24 08:40:45.761 UTC FATAL:  the database system is shutting down
2016-12-24 08:40:45.763 UTC FATAL:  the database system is shutting down
2016-12-24 08:40:45.766 UTC FATAL:  the database system is shutting down
2016-12-24 08:40:45.769 UTC FATAL:  the database system is shutting down
2016-12-24 08:40:45.772 UTC FATAL:  the database system is shutting down
2016-12-24 08:40:45.775 UTC FATAL:  the database system is shutting down
2016-12-24 08:40:45.777 UTC FATAL:  the database system is shutting down
2016-12-24 08:40:45.780 UTC FATAL:  the database system is shutting down
2016-12-24 08:40:45.783 UTC FATAL:  the database system is shutting down
2016-12-24 08:40:45.786 UTC LOG:  checkpoint complete: wrote 492014 buffers (23.5%); 0 transaction log file(s) added, 0 removed, 27 recycled; write=2.545 s, sync=0.000 s, total=2.549 s; sync files=21, longest=0.000 s, average=0.000 s; distance=433589 kB, estimate=474555 kB
2016-12-24 08:40:45.786 UTC FATAL:  the database system is shutting down
2016-12-24 08:40:45.789 UTC FATAL:  the database system is shutting down
2016-12-24 08:40:45.792 UTC FATAL:  the database system is shutting down
2016-12-24 08:40:45.796 UTC FATAL:  the database system is shutting down
2016-12-24 08:40:45.798 UTC FATAL:  the database system is shutting down
2016-12-24 08:40:45.801 UTC FATAL:  the database system is shutting down
2016-12-24 08:40:45.804 UTC FATAL:  the database system is shutting down
2016-12-24 08:40:45.806 UTC FATAL:  the database system is shutting down
2016-12-24 08:40:45.809 UTC FATAL:  the database system is shutting down
2016-12-24 08:40:45.812 UTC FATAL:  the database system is shutting down
2016-12-24 08:40:45.814 UTC FATAL:  the database system is shutting down
2016-12-24 08:40:45.817 UTC FATAL:  the database system is shutting down
2016-12-24 08:40:45.819 UTC FATAL:  the database system is shutting down
2016-12-24 08:40:45.822 UTC FATAL:  the database system is shutting down
2016-12-24 08:40:45.825 UTC FATAL:  the database system is shutting down
2016-12-24 08:40:45.828 UTC FATAL:  the database system is shutting down
2016-12-24 08:40:45.831 UTC FATAL:  the database system is shutting down
2016-12-24 08:40:45.834 UTC FATAL:  the database system is shutting down
2016-12-24 08:40:45.836 UTC FATAL:  the database system is shutting down
2016-12-24 08:40:45.840 UTC FATAL:  the database system is shutting down
2016-12-24 08:40:45.843 UTC FATAL:  the database system is shutting down
2016-12-24 08:40:45.845 UTC FATAL:  the database system is shutting down
2016-12-24 08:40:45.848 UTC FATAL:  the database system is shutting down
2016-12-24 08:40:45.850 UTC FATAL:  the database system is shutting down
2016-12-24 08:40:45.853 UTC FATAL:  the database system is shutting down
2016-12-24 08:40:45.857 UTC FATAL:  the database system is shutting down
2016-12-24 08:40:45.860 UTC FATAL:  the database system is shutting down
2016-12-24 08:40:45.863 UTC FATAL:  the database system is shutting down
2016-12-24 08:40:45.866 UTC FATAL:  the database system is shutting down
2016-12-24 08:40:45.869 UTC FATAL:  the database system is shutting down
2016-12-24 08:40:45.933 UTC LOG:  database system is shut down
