starting vacuum...end.
transaction type: <builtin: simple update>
scaling factor: 300
query mode: prepared
number of clients: 144
number of threads: 36
duration: 300 s
number of transactions actually processed: 11092352
latency average = 3.900 ms
tps = 36921.028280 (including connections establishing)
tps = 36922.925392 (excluding connections establishing)
