NOTICE:  table "pgbench_history" does not exist, skipping
NOTICE:  table "pgbench_tellers" does not exist, skipping
NOTICE:  table "pgbench_accounts" does not exist, skipping
NOTICE:  table "pgbench_branches" does not exist, skipping
creating tables...
100000 of 30000000 tuples (0%) done (elapsed 0.10 s, remaining 29.55 s)
200000 of 30000000 tuples (0%) done (elapsed 0.20 s, remaining 30.21 s)
300000 of 30000000 tuples (1%) done (elapsed 0.31 s, remaining 30.46 s)
400000 of 30000000 tuples (1%) done (elapsed 0.41 s, remaining 30.46 s)
500000 of 30000000 tuples (1%) done (elapsed 0.52 s, remaining 30.39 s)
600000 of 30000000 tuples (2%) done (elapsed 0.62 s, remaining 30.30 s)
700000 of 30000000 tuples (2%) done (elapsed 0.72 s, remaining 30.22 s)
800000 of 30000000 tuples (2%) done (elapsed 0.82 s, remaining 30.02 s)
900000 of 30000000 tuples (3%) done (elapsed 0.93 s, remaining 30.00 s)
1000000 of 30000000 tuples (3%) done (elapsed 1.03 s, remaining 29.96 s)
1100000 of 30000000 tuples (3%) done (elapsed 1.14 s, remaining 29.93 s)
1200000 of 30000000 tuples (4%) done (elapsed 1.24 s, remaining 29.88 s)
1300000 of 30000000 tuples (4%) done (elapsed 1.35 s, remaining 29.74 s)
1400000 of 30000000 tuples (4%) done (elapsed 1.45 s, remaining 29.71 s)
1500000 of 30000000 tuples (5%) done (elapsed 1.56 s, remaining 29.60 s)
1600000 of 30000000 tuples (5%) done (elapsed 1.67 s, remaining 29.58 s)
1700000 of 30000000 tuples (5%) done (elapsed 1.77 s, remaining 29.45 s)
1800000 of 30000000 tuples (6%) done (elapsed 1.88 s, remaining 29.39 s)
1900000 of 30000000 tuples (6%) done (elapsed 1.98 s, remaining 29.24 s)
2000000 of 30000000 tuples (6%) done (elapsed 2.08 s, remaining 29.18 s)
2100000 of 30000000 tuples (7%) done (elapsed 2.19 s, remaining 29.07 s)
2200000 of 30000000 tuples (7%) done (elapsed 2.29 s, remaining 28.94 s)
2300000 of 30000000 tuples (7%) done (elapsed 2.39 s, remaining 28.83 s)
2400000 of 30000000 tuples (8%) done (elapsed 2.50 s, remaining 28.72 s)
2500000 of 30000000 tuples (8%) done (elapsed 2.61 s, remaining 28.66 s)
2600000 of 30000000 tuples (8%) done (elapsed 2.71 s, remaining 28.58 s)
2700000 of 30000000 tuples (9%) done (elapsed 2.82 s, remaining 28.46 s)
2800000 of 30000000 tuples (9%) done (elapsed 2.92 s, remaining 28.35 s)
2900000 of 30000000 tuples (9%) done (elapsed 3.02 s, remaining 28.22 s)
3000000 of 30000000 tuples (10%) done (elapsed 3.13 s, remaining 28.14 s)
3100000 of 30000000 tuples (10%) done (elapsed 3.23 s, remaining 28.02 s)
3200000 of 30000000 tuples (10%) done (elapsed 3.33 s, remaining 27.91 s)
3300000 of 30000000 tuples (11%) done (elapsed 3.43 s, remaining 27.79 s)
3400000 of 30000000 tuples (11%) done (elapsed 3.54 s, remaining 27.71 s)
3500000 of 30000000 tuples (11%) done (elapsed 3.64 s, remaining 27.60 s)
3600000 of 30000000 tuples (12%) done (elapsed 3.75 s, remaining 27.48 s)
3700000 of 30000000 tuples (12%) done (elapsed 3.85 s, remaining 27.39 s)
3800000 of 30000000 tuples (12%) done (elapsed 3.96 s, remaining 27.27 s)
3900000 of 30000000 tuples (13%) done (elapsed 4.06 s, remaining 27.19 s)
4000000 of 30000000 tuples (13%) done (elapsed 4.17 s, remaining 27.08 s)
4100000 of 30000000 tuples (13%) done (elapsed 4.27 s, remaining 26.96 s)
4200000 of 30000000 tuples (14%) done (elapsed 4.37 s, remaining 26.87 s)
4300000 of 30000000 tuples (14%) done (elapsed 4.48 s, remaining 26.76 s)
4400000 of 30000000 tuples (14%) done (elapsed 4.58 s, remaining 26.67 s)
4500000 of 30000000 tuples (15%) done (elapsed 4.69 s, remaining 26.58 s)
4600000 of 30000000 tuples (15%) done (elapsed 4.79 s, remaining 26.47 s)
4700000 of 30000000 tuples (15%) done (elapsed 4.90 s, remaining 26.35 s)
4800000 of 30000000 tuples (16%) done (elapsed 5.00 s, remaining 26.26 s)
4900000 of 30000000 tuples (16%) done (elapsed 5.10 s, remaining 26.15 s)
5000000 of 30000000 tuples (16%) done (elapsed 5.21 s, remaining 26.03 s)
5100000 of 30000000 tuples (17%) done (elapsed 5.31 s, remaining 25.93 s)
5200000 of 30000000 tuples (17%) done (elapsed 5.41 s, remaining 25.82 s)
5300000 of 30000000 tuples (17%) done (elapsed 5.52 s, remaining 25.71 s)
5400000 of 30000000 tuples (18%) done (elapsed 5.62 s, remaining 25.61 s)
5500000 of 30000000 tuples (18%) done (elapsed 5.73 s, remaining 25.51 s)
5600000 of 30000000 tuples (18%) done (elapsed 5.83 s, remaining 25.39 s)
5700000 of 30000000 tuples (19%) done (elapsed 5.94 s, remaining 25.31 s)
5800000 of 30000000 tuples (19%) done (elapsed 6.04 s, remaining 25.19 s)
5900000 of 30000000 tuples (19%) done (elapsed 6.15 s, remaining 25.10 s)
6000000 of 30000000 tuples (20%) done (elapsed 6.25 s, remaining 24.98 s)
6100000 of 30000000 tuples (20%) done (elapsed 6.35 s, remaining 24.88 s)
6200000 of 30000000 tuples (20%) done (elapsed 6.45 s, remaining 24.77 s)
6300000 of 30000000 tuples (21%) done (elapsed 6.56 s, remaining 24.67 s)
6400000 of 30000000 tuples (21%) done (elapsed 6.66 s, remaining 24.57 s)
6500000 of 30000000 tuples (21%) done (elapsed 6.77 s, remaining 24.46 s)
6600000 of 30000000 tuples (22%) done (elapsed 6.87 s, remaining 24.37 s)
6700000 of 30000000 tuples (22%) done (elapsed 6.97 s, remaining 24.25 s)
6800000 of 30000000 tuples (22%) done (elapsed 7.08 s, remaining 24.16 s)
6900000 of 30000000 tuples (23%) done (elapsed 7.18 s, remaining 24.04 s)
7000000 of 30000000 tuples (23%) done (elapsed 7.29 s, remaining 23.96 s)
7100000 of 30000000 tuples (23%) done (elapsed 7.40 s, remaining 23.87 s)
7200000 of 30000000 tuples (24%) done (elapsed 7.51 s, remaining 23.77 s)
7300000 of 30000000 tuples (24%) done (elapsed 7.61 s, remaining 23.67 s)
7400000 of 30000000 tuples (24%) done (elapsed 7.72 s, remaining 23.56 s)
7500000 of 30000000 tuples (25%) done (elapsed 7.82 s, remaining 23.46 s)
7600000 of 30000000 tuples (25%) done (elapsed 7.92 s, remaining 23.36 s)
7700000 of 30000000 tuples (25%) done (elapsed 8.03 s, remaining 23.24 s)
7800000 of 30000000 tuples (26%) done (elapsed 8.13 s, remaining 23.14 s)
7900000 of 30000000 tuples (26%) done (elapsed 8.23 s, remaining 23.03 s)
8000000 of 30000000 tuples (26%) done (elapsed 8.34 s, remaining 22.93 s)
8100000 of 30000000 tuples (27%) done (elapsed 8.44 s, remaining 22.82 s)
8200000 of 30000000 tuples (27%) done (elapsed 8.55 s, remaining 22.72 s)
8300000 of 30000000 tuples (27%) done (elapsed 8.65 s, remaining 22.62 s)
8400000 of 30000000 tuples (28%) done (elapsed 8.76 s, remaining 22.51 s)
8500000 of 30000000 tuples (28%) done (elapsed 8.85 s, remaining 22.40 s)
8600000 of 30000000 tuples (28%) done (elapsed 8.96 s, remaining 22.29 s)
8700000 of 30000000 tuples (29%) done (elapsed 9.06 s, remaining 22.19 s)
8800000 of 30000000 tuples (29%) done (elapsed 9.17 s, remaining 22.09 s)
8900000 of 30000000 tuples (29%) done (elapsed 9.27 s, remaining 21.99 s)
9000000 of 30000000 tuples (30%) done (elapsed 9.37 s, remaining 21.87 s)
9100000 of 30000000 tuples (30%) done (elapsed 9.48 s, remaining 21.77 s)
9200000 of 30000000 tuples (30%) done (elapsed 9.59 s, remaining 21.67 s)
9300000 of 30000000 tuples (31%) done (elapsed 9.68 s, remaining 21.56 s)
9400000 of 30000000 tuples (31%) done (elapsed 9.79 s, remaining 21.46 s)
9500000 of 30000000 tuples (31%) done (elapsed 9.89 s, remaining 21.34 s)
9600000 of 30000000 tuples (32%) done (elapsed 10.00 s, remaining 21.24 s)
9700000 of 30000000 tuples (32%) done (elapsed 10.10 s, remaining 21.14 s)
9800000 of 30000000 tuples (32%) done (elapsed 10.21 s, remaining 21.04 s)
9900000 of 30000000 tuples (33%) done (elapsed 10.31 s, remaining 20.93 s)
10000000 of 30000000 tuples (33%) done (elapsed 10.41 s, remaining 20.83 s)
10100000 of 30000000 tuples (33%) done (elapsed 10.52 s, remaining 20.72 s)
10200000 of 30000000 tuples (34%) done (elapsed 10.62 s, remaining 20.62 s)
10300000 of 30000000 tuples (34%) done (elapsed 10.73 s, remaining 20.52 s)
10400000 of 30000000 tuples (34%) done (elapsed 10.84 s, remaining 20.43 s)
10500000 of 30000000 tuples (35%) done (elapsed 10.94 s, remaining 20.32 s)
10600000 of 30000000 tuples (35%) done (elapsed 11.05 s, remaining 20.22 s)
10700000 of 30000000 tuples (35%) done (elapsed 11.15 s, remaining 20.12 s)
10800000 of 30000000 tuples (36%) done (elapsed 11.26 s, remaining 20.02 s)
10900000 of 30000000 tuples (36%) done (elapsed 11.37 s, remaining 19.92 s)
11000000 of 30000000 tuples (36%) done (elapsed 11.48 s, remaining 19.84 s)
11100000 of 30000000 tuples (37%) done (elapsed 11.59 s, remaining 19.74 s)
11200000 of 30000000 tuples (37%) done (elapsed 11.70 s, remaining 19.64 s)
11300000 of 30000000 tuples (37%) done (elapsed 11.81 s, remaining 19.54 s)
11400000 of 30000000 tuples (38%) done (elapsed 11.91 s, remaining 19.44 s)
11500000 of 30000000 tuples (38%) done (elapsed 12.02 s, remaining 19.34 s)
11600000 of 30000000 tuples (38%) done (elapsed 12.13 s, remaining 19.24 s)
11700000 of 30000000 tuples (39%) done (elapsed 12.23 s, remaining 19.13 s)
11800000 of 30000000 tuples (39%) done (elapsed 12.34 s, remaining 19.03 s)
11900000 of 30000000 tuples (39%) done (elapsed 12.44 s, remaining 18.93 s)
12000000 of 30000000 tuples (40%) done (elapsed 12.55 s, remaining 18.83 s)
12100000 of 30000000 tuples (40%) done (elapsed 12.65 s, remaining 18.72 s)
12200000 of 30000000 tuples (40%) done (elapsed 12.76 s, remaining 18.61 s)
12300000 of 30000000 tuples (41%) done (elapsed 12.87 s, remaining 18.52 s)
12400000 of 30000000 tuples (41%) done (elapsed 12.97 s, remaining 18.42 s)
12500000 of 30000000 tuples (41%) done (elapsed 13.08 s, remaining 18.31 s)
12600000 of 30000000 tuples (42%) done (elapsed 13.18 s, remaining 18.21 s)
12700000 of 30000000 tuples (42%) done (elapsed 13.30 s, remaining 18.11 s)
12800000 of 30000000 tuples (42%) done (elapsed 13.40 s, remaining 18.01 s)
12900000 of 30000000 tuples (43%) done (elapsed 13.51 s, remaining 17.91 s)
13000000 of 30000000 tuples (43%) done (elapsed 13.62 s, remaining 17.81 s)
13100000 of 30000000 tuples (43%) done (elapsed 13.72 s, remaining 17.71 s)
13200000 of 30000000 tuples (44%) done (elapsed 13.84 s, remaining 17.61 s)
13300000 of 30000000 tuples (44%) done (elapsed 13.94 s, remaining 17.51 s)
13400000 of 30000000 tuples (44%) done (elapsed 14.05 s, remaining 17.41 s)
13500000 of 30000000 tuples (45%) done (elapsed 14.16 s, remaining 17.30 s)
13600000 of 30000000 tuples (45%) done (elapsed 14.26 s, remaining 17.19 s)
13700000 of 30000000 tuples (45%) done (elapsed 14.36 s, remaining 17.09 s)
13800000 of 30000000 tuples (46%) done (elapsed 14.47 s, remaining 16.99 s)
13900000 of 30000000 tuples (46%) done (elapsed 14.58 s, remaining 16.88 s)
14000000 of 30000000 tuples (46%) done (elapsed 14.68 s, remaining 16.78 s)
14100000 of 30000000 tuples (47%) done (elapsed 14.78 s, remaining 16.67 s)
14200000 of 30000000 tuples (47%) done (elapsed 14.89 s, remaining 16.57 s)
14300000 of 30000000 tuples (47%) done (elapsed 15.00 s, remaining 16.46 s)
14400000 of 30000000 tuples (48%) done (elapsed 15.10 s, remaining 16.36 s)
14500000 of 30000000 tuples (48%) done (elapsed 15.21 s, remaining 16.26 s)
14600000 of 30000000 tuples (48%) done (elapsed 15.32 s, remaining 16.16 s)
14700000 of 30000000 tuples (49%) done (elapsed 15.43 s, remaining 16.06 s)
14800000 of 30000000 tuples (49%) done (elapsed 15.54 s, remaining 15.96 s)
14900000 of 30000000 tuples (49%) done (elapsed 15.64 s, remaining 15.85 s)
15000000 of 30000000 tuples (50%) done (elapsed 15.75 s, remaining 15.75 s)
15100000 of 30000000 tuples (50%) done (elapsed 15.85 s, remaining 15.64 s)
15200000 of 30000000 tuples (50%) done (elapsed 15.96 s, remaining 15.54 s)
15300000 of 30000000 tuples (51%) done (elapsed 16.06 s, remaining 15.43 s)
15400000 of 30000000 tuples (51%) done (elapsed 16.17 s, remaining 15.33 s)
15500000 of 30000000 tuples (51%) done (elapsed 16.28 s, remaining 15.23 s)
15600000 of 30000000 tuples (52%) done (elapsed 16.39 s, remaining 15.12 s)
15700000 of 30000000 tuples (52%) done (elapsed 16.49 s, remaining 15.02 s)
15800000 of 30000000 tuples (52%) done (elapsed 16.60 s, remaining 14.92 s)
15900000 of 30000000 tuples (53%) done (elapsed 16.72 s, remaining 14.83 s)
16000000 of 30000000 tuples (53%) done (elapsed 16.83 s, remaining 14.73 s)
16100000 of 30000000 tuples (53%) done (elapsed 16.94 s, remaining 14.62 s)
16200000 of 30000000 tuples (54%) done (elapsed 17.04 s, remaining 14.52 s)
16300000 of 30000000 tuples (54%) done (elapsed 17.15 s, remaining 14.41 s)
16400000 of 30000000 tuples (54%) done (elapsed 17.26 s, remaining 14.31 s)
16500000 of 30000000 tuples (55%) done (elapsed 17.37 s, remaining 14.21 s)
16600000 of 30000000 tuples (55%) done (elapsed 17.47 s, remaining 14.10 s)
16700000 of 30000000 tuples (55%) done (elapsed 17.58 s, remaining 14.00 s)
16800000 of 30000000 tuples (56%) done (elapsed 17.68 s, remaining 13.89 s)
16900000 of 30000000 tuples (56%) done (elapsed 17.79 s, remaining 13.79 s)
17000000 of 30000000 tuples (56%) done (elapsed 17.90 s, remaining 13.69 s)
17100000 of 30000000 tuples (57%) done (elapsed 18.01 s, remaining 13.59 s)
17200000 of 30000000 tuples (57%) done (elapsed 18.12 s, remaining 13.49 s)
17300000 of 30000000 tuples (57%) done (elapsed 18.23 s, remaining 13.38 s)
17400000 of 30000000 tuples (58%) done (elapsed 18.33 s, remaining 13.28 s)
17500000 of 30000000 tuples (58%) done (elapsed 18.44 s, remaining 13.17 s)
17600000 of 30000000 tuples (58%) done (elapsed 18.55 s, remaining 13.07 s)
17700000 of 30000000 tuples (59%) done (elapsed 18.66 s, remaining 12.97 s)
17800000 of 30000000 tuples (59%) done (elapsed 18.77 s, remaining 12.87 s)
17900000 of 30000000 tuples (59%) done (elapsed 18.88 s, remaining 12.76 s)
18000000 of 30000000 tuples (60%) done (elapsed 18.99 s, remaining 12.66 s)
18100000 of 30000000 tuples (60%) done (elapsed 19.09 s, remaining 12.55 s)
18200000 of 30000000 tuples (60%) done (elapsed 19.20 s, remaining 12.45 s)
18300000 of 30000000 tuples (61%) done (elapsed 19.31 s, remaining 12.35 s)
18400000 of 30000000 tuples (61%) done (elapsed 19.41 s, remaining 12.24 s)
18500000 of 30000000 tuples (61%) done (elapsed 19.53 s, remaining 12.14 s)
18600000 of 30000000 tuples (62%) done (elapsed 19.64 s, remaining 12.04 s)
18700000 of 30000000 tuples (62%) done (elapsed 19.75 s, remaining 11.93 s)
18800000 of 30000000 tuples (62%) done (elapsed 19.85 s, remaining 11.83 s)
18900000 of 30000000 tuples (63%) done (elapsed 19.96 s, remaining 11.72 s)
19000000 of 30000000 tuples (63%) done (elapsed 20.07 s, remaining 11.62 s)
19100000 of 30000000 tuples (63%) done (elapsed 20.17 s, remaining 11.51 s)
19200000 of 30000000 tuples (64%) done (elapsed 20.28 s, remaining 11.41 s)
19300000 of 30000000 tuples (64%) done (elapsed 20.38 s, remaining 11.30 s)
19400000 of 30000000 tuples (64%) done (elapsed 20.49 s, remaining 11.19 s)
19500000 of 30000000 tuples (65%) done (elapsed 20.59 s, remaining 11.09 s)
19600000 of 30000000 tuples (65%) done (elapsed 20.70 s, remaining 10.98 s)
19700000 of 30000000 tuples (65%) done (elapsed 20.81 s, remaining 10.88 s)
19800000 of 30000000 tuples (66%) done (elapsed 20.91 s, remaining 10.77 s)
19900000 of 30000000 tuples (66%) done (elapsed 21.02 s, remaining 10.67 s)
20000000 of 30000000 tuples (66%) done (elapsed 21.13 s, remaining 10.56 s)
20100000 of 30000000 tuples (67%) done (elapsed 21.23 s, remaining 10.46 s)
20200000 of 30000000 tuples (67%) done (elapsed 21.33 s, remaining 10.35 s)
20300000 of 30000000 tuples (67%) done (elapsed 21.44 s, remaining 10.24 s)
20400000 of 30000000 tuples (68%) done (elapsed 21.55 s, remaining 10.14 s)
20500000 of 30000000 tuples (68%) done (elapsed 21.65 s, remaining 10.03 s)
20600000 of 30000000 tuples (68%) done (elapsed 21.76 s, remaining 9.93 s)
20700000 of 30000000 tuples (69%) done (elapsed 21.87 s, remaining 9.83 s)
20800000 of 30000000 tuples (69%) done (elapsed 21.98 s, remaining 9.72 s)
20900000 of 30000000 tuples (69%) done (elapsed 22.09 s, remaining 9.62 s)
21000000 of 30000000 tuples (70%) done (elapsed 22.20 s, remaining 9.51 s)
21100000 of 30000000 tuples (70%) done (elapsed 22.30 s, remaining 9.41 s)
21200000 of 30000000 tuples (70%) done (elapsed 22.41 s, remaining 9.30 s)
21300000 of 30000000 tuples (71%) done (elapsed 22.52 s, remaining 9.20 s)
21400000 of 30000000 tuples (71%) done (elapsed 22.62 s, remaining 9.09 s)
21500000 of 30000000 tuples (71%) done (elapsed 22.73 s, remaining 8.98 s)
21600000 of 30000000 tuples (72%) done (elapsed 22.83 s, remaining 8.88 s)
21700000 of 30000000 tuples (72%) done (elapsed 22.95 s, remaining 8.78 s)
21800000 of 30000000 tuples (72%) done (elapsed 23.06 s, remaining 8.67 s)
21900000 of 30000000 tuples (73%) done (elapsed 23.16 s, remaining 8.57 s)
22000000 of 30000000 tuples (73%) done (elapsed 23.27 s, remaining 8.46 s)
22100000 of 30000000 tuples (73%) done (elapsed 23.39 s, remaining 8.36 s)
22200000 of 30000000 tuples (74%) done (elapsed 23.49 s, remaining 8.25 s)
22300000 of 30000000 tuples (74%) done (elapsed 23.60 s, remaining 8.15 s)
22400000 of 30000000 tuples (74%) done (elapsed 23.70 s, remaining 8.04 s)
22500000 of 30000000 tuples (75%) done (elapsed 23.81 s, remaining 7.94 s)
22600000 of 30000000 tuples (75%) done (elapsed 23.92 s, remaining 7.83 s)
22700000 of 30000000 tuples (75%) done (elapsed 24.02 s, remaining 7.73 s)
22800000 of 30000000 tuples (76%) done (elapsed 24.13 s, remaining 7.62 s)
22900000 of 30000000 tuples (76%) done (elapsed 24.24 s, remaining 7.51 s)
23000000 of 30000000 tuples (76%) done (elapsed 24.35 s, remaining 7.41 s)
23100000 of 30000000 tuples (77%) done (elapsed 24.47 s, remaining 7.31 s)
23200000 of 30000000 tuples (77%) done (elapsed 24.58 s, remaining 7.20 s)
23300000 of 30000000 tuples (77%) done (elapsed 24.69 s, remaining 7.10 s)
23400000 of 30000000 tuples (78%) done (elapsed 24.79 s, remaining 6.99 s)
23500000 of 30000000 tuples (78%) done (elapsed 24.90 s, remaining 6.89 s)
23600000 of 30000000 tuples (78%) done (elapsed 25.00 s, remaining 6.78 s)
23700000 of 30000000 tuples (79%) done (elapsed 25.11 s, remaining 6.67 s)
23800000 of 30000000 tuples (79%) done (elapsed 25.21 s, remaining 6.57 s)
23900000 of 30000000 tuples (79%) done (elapsed 25.32 s, remaining 6.46 s)
24000000 of 30000000 tuples (80%) done (elapsed 25.43 s, remaining 6.36 s)
24100000 of 30000000 tuples (80%) done (elapsed 25.53 s, remaining 6.25 s)
24200000 of 30000000 tuples (80%) done (elapsed 25.64 s, remaining 6.15 s)
24300000 of 30000000 tuples (81%) done (elapsed 25.75 s, remaining 6.04 s)
24400000 of 30000000 tuples (81%) done (elapsed 25.86 s, remaining 5.94 s)
24500000 of 30000000 tuples (81%) done (elapsed 25.97 s, remaining 5.83 s)
24600000 of 30000000 tuples (82%) done (elapsed 26.08 s, remaining 5.72 s)
24700000 of 30000000 tuples (82%) done (elapsed 26.18 s, remaining 5.62 s)
24800000 of 30000000 tuples (82%) done (elapsed 26.29 s, remaining 5.51 s)
24900000 of 30000000 tuples (83%) done (elapsed 26.39 s, remaining 5.41 s)
25000000 of 30000000 tuples (83%) done (elapsed 26.50 s, remaining 5.30 s)
25100000 of 30000000 tuples (83%) done (elapsed 26.61 s, remaining 5.19 s)
25200000 of 30000000 tuples (84%) done (elapsed 26.72 s, remaining 5.09 s)
25300000 of 30000000 tuples (84%) done (elapsed 26.82 s, remaining 4.98 s)
25400000 of 30000000 tuples (84%) done (elapsed 26.93 s, remaining 4.88 s)
25500000 of 30000000 tuples (85%) done (elapsed 27.05 s, remaining 4.77 s)
25600000 of 30000000 tuples (85%) done (elapsed 27.15 s, remaining 4.67 s)
25700000 of 30000000 tuples (85%) done (elapsed 27.26 s, remaining 4.56 s)
25800000 of 30000000 tuples (86%) done (elapsed 27.37 s, remaining 4.46 s)
25900000 of 30000000 tuples (86%) done (elapsed 27.47 s, remaining 4.35 s)
26000000 of 30000000 tuples (86%) done (elapsed 27.58 s, remaining 4.24 s)
26100000 of 30000000 tuples (87%) done (elapsed 27.69 s, remaining 4.14 s)
26200000 of 30000000 tuples (87%) done (elapsed 27.79 s, remaining 4.03 s)
26300000 of 30000000 tuples (87%) done (elapsed 27.90 s, remaining 3.92 s)
26400000 of 30000000 tuples (88%) done (elapsed 28.01 s, remaining 3.82 s)
26500000 of 30000000 tuples (88%) done (elapsed 28.11 s, remaining 3.71 s)
26600000 of 30000000 tuples (88%) done (elapsed 28.22 s, remaining 3.61 s)
26700000 of 30000000 tuples (89%) done (elapsed 28.33 s, remaining 3.50 s)
26800000 of 30000000 tuples (89%) done (elapsed 28.44 s, remaining 3.40 s)
26900000 of 30000000 tuples (89%) done (elapsed 28.54 s, remaining 3.29 s)
27000000 of 30000000 tuples (90%) done (elapsed 28.65 s, remaining 3.18 s)
27100000 of 30000000 tuples (90%) done (elapsed 28.76 s, remaining 3.08 s)
27200000 of 30000000 tuples (90%) done (elapsed 28.87 s, remaining 2.97 s)
27300000 of 30000000 tuples (91%) done (elapsed 28.97 s, remaining 2.87 s)
27400000 of 30000000 tuples (91%) done (elapsed 29.08 s, remaining 2.76 s)
27500000 of 30000000 tuples (91%) done (elapsed 29.18 s, remaining 2.65 s)
27600000 of 30000000 tuples (92%) done (elapsed 29.31 s, remaining 2.55 s)
27700000 of 30000000 tuples (92%) done (elapsed 29.42 s, remaining 2.44 s)
27800000 of 30000000 tuples (92%) done (elapsed 29.52 s, remaining 2.34 s)
27900000 of 30000000 tuples (93%) done (elapsed 29.63 s, remaining 2.23 s)
28000000 of 30000000 tuples (93%) done (elapsed 29.73 s, remaining 2.12 s)
28100000 of 30000000 tuples (93%) done (elapsed 29.84 s, remaining 2.02 s)
28200000 of 30000000 tuples (94%) done (elapsed 29.94 s, remaining 1.91 s)
28300000 of 30000000 tuples (94%) done (elapsed 30.05 s, remaining 1.80 s)
28400000 of 30000000 tuples (94%) done (elapsed 30.16 s, remaining 1.70 s)
28500000 of 30000000 tuples (95%) done (elapsed 30.26 s, remaining 1.59 s)
28600000 of 30000000 tuples (95%) done (elapsed 30.36 s, remaining 1.49 s)
28700000 of 30000000 tuples (95%) done (elapsed 30.47 s, remaining 1.38 s)
28800000 of 30000000 tuples (96%) done (elapsed 30.57 s, remaining 1.27 s)
28900000 of 30000000 tuples (96%) done (elapsed 30.68 s, remaining 1.17 s)
29000000 of 30000000 tuples (96%) done (elapsed 30.79 s, remaining 1.06 s)
29100000 of 30000000 tuples (97%) done (elapsed 30.89 s, remaining 0.96 s)
29200000 of 30000000 tuples (97%) done (elapsed 30.99 s, remaining 0.85 s)
29300000 of 30000000 tuples (97%) done (elapsed 31.10 s, remaining 0.74 s)
29400000 of 30000000 tuples (98%) done (elapsed 31.21 s, remaining 0.64 s)
29500000 of 30000000 tuples (98%) done (elapsed 31.32 s, remaining 0.53 s)
29600000 of 30000000 tuples (98%) done (elapsed 31.42 s, remaining 0.42 s)
29700000 of 30000000 tuples (99%) done (elapsed 31.53 s, remaining 0.32 s)
29800000 of 30000000 tuples (99%) done (elapsed 31.63 s, remaining 0.21 s)
29900000 of 30000000 tuples (99%) done (elapsed 31.74 s, remaining 0.11 s)
30000000 of 30000000 tuples (100%) done (elapsed 31.85 s, remaining 0.00 s)
vacuum...
set primary keys...
done.
