starting vacuum...end.
transaction type: <builtin: simple update>
scaling factor: 300
query mode: prepared
number of clients: 144
number of threads: 36
duration: 300 s
number of transactions actually processed: 12297865
latency average = 3.518 ms
tps = 40936.379940 (including connections establishing)
tps = 40938.904599 (excluding connections establishing)
