starting vacuum...end.
transaction type: <builtin: TPC-B (sort of)>
scaling factor: 300
query mode: prepared
number of clients: 72
number of threads: 8
duration: 300 s
number of transactions actually processed: 9428810
latency average = 2.293 ms
tps = 31395.077800 (including connections establishing)
tps = 31395.623460 (excluding connections establishing)
