starting vacuum...end.
transaction type: /srv/data/pg/tools2/dilip-300.sql
scaling factor: 1
query mode: prepared
number of clients: 108
number of threads: 27
duration: 300 s
number of transactions actually processed: 10346443
latency average = 3.179 ms
tps = 33973.853146 (including connections establishing)
tps = 33975.475139 (excluding connections establishing)
